# Blender v2.78 (sub 0) OBJ File: 'House.blend'
# www.blender.org
mtllib House.mtl
o House_Cube.001
v -4.850490 0.028528 4.850490
v -4.850490 5.338446 4.850490
v -4.850490 0.028528 -4.850490
v -4.850490 5.338446 -4.850490
v 4.850490 0.028528 4.850490
v 4.850490 5.338446 4.850490
v 4.850490 0.028528 -4.850490
v 4.850490 5.338446 -4.850490
v -4.850490 0.028528 0.000000
v -4.850490 8.362202 0.000000
v 4.850490 8.362202 0.000000
v -4.850490 4.453460 4.850490
v -4.850490 4.453460 -4.850490
v 4.850490 4.453460 -4.850490
v 4.850490 4.453460 4.850490
v 4.850490 6.973256 0.000000
v -4.850490 6.973256 0.000000
v -4.850490 0.028528 4.038308
v 4.850490 5.844754 4.038308
v -4.850490 5.844754 4.038308
v 4.850490 0.028528 4.038308
v -4.850490 4.875383 4.038308
v 4.850490 4.875383 4.038308
v -4.850490 5.756478 -4.179913
v 4.850490 0.028528 -4.179913
v -4.850490 0.028528 -4.179913
v 4.850490 5.756478 -4.179913
v 4.850490 4.801820 -4.179914
v -4.850490 4.801820 -4.179914
v 10.495733 0.028528 4.038308
v 10.495733 0.028528 0.000000
v 10.495733 6.973256 0.000000
v 10.495733 4.801820 -4.179914
v 10.495733 4.875383 4.038308
v 10.495733 0.028528 -4.179913
v -1.173801 0.028528 -4.850490
v -1.173801 5.338446 -4.850490
v -1.173801 0.028528 4.850490
v -1.173801 5.338446 4.850490
v 5.016521 5.601027 5.024368
v -1.173801 4.453460 4.850490
v -1.173801 4.453460 -4.850490
v 5.016521 6.125354 4.183282
v 5.016521 5.601027 -5.021849
v 1.729100 5.338446 -4.850490
v 1.729100 0.028528 4.850490
v 1.784047 5.601027 -5.021849
v 1.729100 4.453460 -4.850490
v -5.029696 5.601027 -5.021849
v -5.029696 6.033936 -4.327407
v 1.729100 0.028528 -4.850490
v 1.729100 5.338446 4.850490
v 1.729100 4.453460 4.850490
v -4.850490 3.599345 -4.850490
v 4.850490 3.599345 -4.850490
v 4.850490 3.599345 4.850490
v -4.850490 5.632762 0.000000
v -4.850490 3.599345 4.850490
v 4.850490 3.939827 4.037429
v -4.850490 3.939827 4.038308
v -4.850490 3.880464 -4.179914
v 4.850490 3.880464 -4.179914
v 10.495733 5.632762 0.000000
v 10.495733 3.939827 4.038308
v 10.495733 3.880464 -4.179914
v -1.173801 3.599345 -4.850490
v -1.173801 3.599345 4.850490
v 1.729100 3.599345 4.850490
v 1.729100 3.599345 -4.850490
v -1.173801 3.599345 4.609484
v -1.173801 0.028528 4.609484
v 1.729100 0.028528 4.609484
v 1.729100 3.599345 4.609484
v 5.418600 4.875383 4.038308
v 9.844412 4.875383 4.038308
v 5.418600 4.801820 -4.179914
v 9.844412 4.801820 -4.179914
v 9.844412 0.028528 -4.179913
v 5.418600 0.028528 -4.179913
v 5.418600 0.028528 4.038308
v 9.844412 0.028528 4.038308
v 5.418600 3.939827 4.038308
v 9.844412 3.939827 4.038308
v 5.418600 3.880464 -4.179914
v 9.844412 3.880464 -4.179914
v 5.418600 0.028528 3.557786
v 9.844412 0.028528 3.557786
v 5.418600 3.939827 3.557786
v 9.844412 3.939827 3.557786
v -5.029696 5.736228 -4.327407
v -5.029696 5.303320 -5.021849
v 1.784047 5.303320 -5.021849
v 5.016521 5.303320 -5.021849
v 5.016521 5.827646 4.183282
v 5.016521 5.303320 5.024368
v -1.222161 5.303320 5.024368
v -5.029696 5.303320 5.024368
v -5.029696 5.827646 4.183282
v -5.029696 8.434685 0.001260
v 5.016521 5.736228 -4.327407
v 5.016521 8.434685 0.001260
v 10.651745 4.741387 -4.406759
v -1.222161 5.303320 -5.021849
v 1.784047 5.303320 5.024368
v 10.651745 4.818977 4.261278
v 9.964774 4.818977 4.261278
v -1.222161 5.601027 5.024368
v -5.029696 5.601027 5.024368
v -5.029696 6.125354 4.183282
v -5.029696 8.732392 0.001260
v 5.016521 6.033936 -4.327407
v 5.016521 8.732392 0.001260
v 1.784047 8.732392 0.001260
v 1.784047 6.125354 4.183282
v 1.784047 6.033936 -4.327407
v -1.222161 5.601027 -5.021849
v 1.784047 5.601027 5.024368
v -1.222161 8.732392 0.001260
v -1.222161 6.125354 4.183282
v -1.222161 6.033936 -4.327407
v 10.651745 7.031675 0.001938
v 9.964774 4.741387 -4.406759
v -4.850490 7.782109 0.930543
v 10.210557 5.024317 4.261278
v 10.586286 5.024317 4.261278
v 10.586286 4.946727 -4.406759
v 10.586286 7.237015 0.001938
v 5.542502 7.237015 0.001938
v 10.210557 4.946727 -4.406759
v 10.210557 7.237015 0.001938
v -4.850490 6.489845 0.930543
v 4.850490 7.782109 0.930543
v 4.850490 6.489845 0.930543
v 10.495733 0.028528 0.930543
v 10.495733 6.489845 0.930543
v 10.495733 5.242661 0.930543
v -4.850490 5.242661 0.930543
v -5.029696 7.833948 0.964918
v 5.016521 7.833948 0.964918
v -5.029696 8.131656 0.964918
v 5.016521 8.131656 0.964918
v -1.222161 8.131656 0.964918
v 1.784047 8.131656 0.964918
v 10.651745 6.521806 0.983413
v 10.586286 6.727146 0.983413
v 5.542502 6.727146 0.983413
v 10.210557 6.727146 0.983413
v -5.244920 5.632762 0.000000
v -5.244920 0.028528 0.000000
v -5.244920 6.489845 0.930543
v -5.244920 6.973256 0.000000
v -5.244920 0.028528 4.038308
v -5.244920 3.939827 4.038308
v -5.244920 5.242661 0.930543
v -5.995117 5.632762 0.000000
v -5.995117 0.028528 0.000000
v -5.995117 6.489845 0.930543
v -5.995117 6.973256 0.000000
v -5.995117 0.028528 0.930543
v -5.995117 0.028528 4.038308
v -5.995117 3.939827 4.038308
v -5.995117 5.242661 0.930543
v -5.244920 10.183488 1.004693
v -5.244920 10.194910 -0.043861
v -5.995117 10.183488 1.004693
v -5.995117 10.194910 -0.043861
v -5.048251 10.180493 1.279579
v -5.048251 10.197905 -0.318746
v -6.191786 10.180493 1.279579
v -6.191786 10.197905 -0.318746
v -5.048251 10.486329 1.282911
v -5.048251 10.503740 -0.315415
v -6.191786 10.486329 1.282911
v -6.191786 10.503740 -0.315415
v -4.850490 -0.189130 4.038308
v -4.850490 -0.189130 4.850490
v -1.173801 -0.189130 -4.850490
v -4.850490 -0.189130 -4.850490
v 4.850490 -0.189130 -4.179913
v 4.850490 -0.189130 -4.850490
v 1.729100 -0.189130 4.850490
v 4.850490 -0.189130 4.850490
v -4.850490 -0.189130 -4.179913
v -4.850490 -0.189130 0.000000
v 4.850490 -0.189130 0.930543
v 4.850490 -0.189130 0.000000
v -1.173801 -0.189130 0.000000
v -4.850490 -0.189130 0.930543
v 4.850490 -0.189130 4.038308
v -1.173801 -0.189130 4.038308
v -1.173801 -0.189130 -4.179913
v 10.495733 -0.189130 0.930543
v 10.495733 -0.189130 0.000000
v 10.495733 -0.189130 -4.179913
v 5.418600 -0.189130 -4.179913
v 9.844412 -0.189130 4.038308
v 10.495733 -0.189130 4.038308
v 9.844412 -0.189130 0.000000
v 1.729100 -0.189130 -4.850490
v -1.173801 -0.189130 4.850490
v 1.729100 -0.189130 0.000000
v 1.729100 -0.189130 4.038308
v 1.729100 -0.189130 -4.179913
v -1.173801 -0.189130 0.930543
v 1.729100 -0.189130 0.930543
v -5.244920 -0.189130 0.930543
v 9.844412 -0.189130 -4.179913
v 5.418600 -0.189130 4.038308
v 5.418600 -0.189130 0.000000
v 5.418600 -0.189130 0.930543
v 9.844412 -0.189130 0.930543
v -5.244920 -0.189130 4.038308
v -5.244920 -0.189130 0.000000
v -5.995117 -0.189130 0.930543
v -5.995117 -0.189130 4.038308
v -5.995117 -0.189130 0.000000
v -5.403574 10.491739 0.786274
v -5.403574 10.498330 0.181222
v -5.836463 10.491739 0.786274
v -5.836463 10.498330 0.181222
v -5.403574 7.399388 0.752589
v -5.403574 7.405979 0.147537
v -5.836463 7.399388 0.752589
v -5.836463 7.405979 0.147537
vt 0.6188 0.1357
vt 0.6188 0.1615
vt 0.6006 0.1502
vt 0.6006 0.1262
vt 0.9581 0.8281
vt 0.9821 0.8281
vt 0.9821 0.9127
vt 0.9581 0.9127
vt 0.8993 0.5117
vt 0.8993 0.4854
vt 0.9213 0.4991
vt 0.9213 0.5231
vt 0.7062 0.3630
vt 0.7062 0.3885
vt 0.6007 0.3865
vt 0.6012 0.3611
vt 0.2713 0.7576
vt 0.1871 0.7576
vt 0.1871 0.7517
vt 0.2713 0.7517
vt 0.4978 0.4220
vt 0.3621 0.4342
vt 0.3581 0.4298
vt 0.4979 0.4171
vt 0.3628 0.6859
vt 0.4964 0.6981
vt 0.4965 0.7033
vt 0.3588 0.6906
vt 0.7321 0.0063
vt 0.6188 0.0063
vt 0.6188 0.0004
vt 0.7321 0.0004
vt 0.6765 0.5136
vt 0.6765 0.4878
vt 0.7898 0.4171
vt 0.7898 0.4548
vt 0.7573 0.1814
vt 0.7573 0.2165
vt 0.7321 0.2322
vt 0.7321 0.1945
vt 0.1594 0.9777
vt 0.0680 0.9777
vt 0.0680 0.9670
vt 0.1594 0.9670
vt 0.9746 0.1358
vt 0.9996 0.1358
vt 0.9996 0.1534
vt 0.9746 0.1534
vt 0.7058 0.3384
vt 0.6017 0.3366
vt 0.8993 0.5370
vt 0.9213 0.5462
vt 0.9350 0.8281
vt 0.9350 0.9127
vt 0.6188 0.1107
vt 0.6006 0.1031
vt 0.8636 0.1031
vt 0.8636 0.1262
vt 0.8416 0.1377
vt 0.8416 0.1123
vt 0.8636 0.1502
vt 0.8416 0.1639
vt 0.5273 0.6953
vt 0.6269 0.6923
vt 0.6307 0.6973
vt 0.5277 0.7004
vt 0.8702 0.0004
vt 0.8702 0.0158
vt 0.8643 0.0158
vt 0.8643 0.0004
vt 0.8150 0.4679
vt 0.8150 0.4329
vt 0.7321 0.1582
vt 0.6583 0.5462
vt 0.6583 0.5231
vt 0.6765 0.5386
vt 0.6583 0.4991
vt 0.3051 0.6183
vt 0.3254 0.6183
vt 0.3254 0.6242
vt 0.3051 0.6242
vt 0.3416 0.4357
vt 0.3451 0.5158
vt 0.3405 0.5145
vt 0.3369 0.4315
vt 0.3369 0.7879
vt 0.3369 0.7630
vt 0.4502 0.7041
vt 0.4502 0.7404
vt 0.4754 0.7510
vt 0.4754 0.7172
vt 0.5596 0.7610
vt 0.5596 0.7863
vt 0.6616 0.8325
vt 0.6661 0.7520
vt 0.6692 0.7516
vt 0.6647 0.8328
vt 0.1369 0.7686
vt 0.0127 0.7743
vt 0.0124 0.7537
vt 0.1373 0.7517
vt 0.8746 0.2433
vt 0.7835 0.2396
vt 0.7837 0.2332
vt 0.8749 0.2382
vt 0.6966 0.2385
vt 0.6965 0.2329
vt 0.6518 0.5920
vt 0.6523 0.5124
vt 0.6572 0.5109
vt 0.6566 0.5933
vt 0.2654 0.9777
vt 0.2654 0.9670
vt 0.2713 0.9670
vt 0.2713 0.9777
vt 0.0059 0.7739
vt 0.0059 0.9104
vt 0.0004 0.9104
vt 0.6528 0.6913
vt 0.6576 0.6962
vt 0.9350 0.6497
vt 0.9581 0.6497
vt 0.9581 0.7494
vt 0.9350 0.7494
vt 0.7902 0.3406
vt 0.7906 0.3625
vt 0.8993 0.6430
vt 0.9213 0.6430
vt 0.9213 0.6489
vt 0.8993 0.6489
vt 0.5278 0.4249
vt 0.5282 0.4203
vt 0.3369 0.8924
vt 0.4502 0.8924
vt 0.4502 0.8983
vt 0.3369 0.8983
vt 0.7908 0.3872
vt 0.9821 0.6497
vt 0.9821 0.7494
vt 0.8741 0.3609
vt 0.8749 0.3848
vt 0.3466 0.5910
vt 0.3420 0.5922
vt 0.6528 0.4284
vt 0.6576 0.4238
vt 0.8739 0.3416
vt 0.3425 0.6844
vt 0.3378 0.6889
vt 0.6583 0.6430
vt 0.6765 0.6430
vt 0.6765 0.6489
vt 0.6583 0.6489
vt 0.4754 0.8924
vt 0.5596 0.8924
vt 0.5596 0.8983
vt 0.4754 0.8983
vt 0.8382 0.7494
vt 0.8382 0.8281
vt 0.7049 0.2445
vt 0.7110 0.3309
vt 0.8382 0.6497
vt 0.1611 0.7676
vt 0.1610 0.7521
vt 0.8636 0.0063
vt 0.8416 0.0063
vt 0.6006 0.0063
vt 0.8382 0.9127
vt 0.6008 0.2419
vt 0.8702 0.1358
vt 0.8702 0.1534
vt 0.3361 0.4664
vt 0.3361 0.6183
vt 0.3254 0.4664
vt 0.6391 0.7041
vt 0.6391 0.8009
vt 0.5604 0.8009
vt 0.5604 0.7041
vt 0.7821 0.3346
vt 0.7781 0.2474
vt 0.9746 0.0004
vt 0.9746 0.0158
vt 0.1611 0.9215
vt 0.1316 0.9221
vt 0.1314 0.9040
vt 0.1607 0.9036
vt 0.2654 0.9467
vt 0.2713 0.9467
vt 0.3589 0.3987
vt 0.3589 0.2787
vt 0.4431 0.2787
vt 0.4431 0.3987
vt 0.6006 0.0004
vt 0.3361 0.6242
vt 0.0061 0.9251
vt 0.1162 0.8921
vt 0.1245 0.7855
vt 0.6720 0.7333
vt 0.6754 0.7405
vt 0.9996 0.0004
vt 0.9996 0.0158
vt 0.9956 0.2329
vt 0.9956 0.3390
vt 0.8756 0.3390
vt 0.8756 0.2329
vt 0.0186 0.8933
vt 0.0278 0.7862
vt 0.1793 0.0202
vt 0.0753 0.0600
vt 0.0763 0.0514
vt 0.1812 0.0115
vt 0.0149 0.2449
vt 0.0055 0.2982
vt 0.0004 0.3006
vt 0.0082 0.2437
vt 0.2043 0.4073
vt 0.2227 0.4004
vt 0.2256 0.4082
vt 0.2017 0.4148
vt 0.0557 0.0723
vt 0.0304 0.1741
vt 0.0228 0.1722
vt 0.0505 0.0659
vt 0.3171 0.1196
vt 0.2115 0.0091
vt 0.2136 0.0004
vt 0.3202 0.1110
vt 0.0122 0.3161
vt 0.0084 0.3219
vt 0.2699 0.3310
vt 0.2775 0.3360
vt 0.3287 0.1391
vt 0.3361 0.1341
vt 0.3253 0.2418
vt 0.3361 0.2449
vt 0.0584 0.3975
vt 0.0736 0.4224
vt 0.0702 0.4293
vt 0.0550 0.4042
vt 0.6270 0.4275
vt 0.6308 0.4228
vt 0.1695 0.7241
vt 0.2727 0.7241
vt 0.2727 0.7510
vt 0.1695 0.7510
vt 0.1695 0.4523
vt 0.2727 0.4523
vt 0.2727 0.5905
vt 0.1695 0.5905
vt 0.1695 0.6213
vt 0.2727 0.6213
vt 0.1695 0.4301
vt 0.2727 0.4301
vt 0.0880 0.4301
vt 0.0880 0.4523
vt 0.0880 0.6213
vt 0.0880 0.7241
vt 0.0880 0.5905
vt 0.0880 0.7510
vt 0.0004 0.7241
vt 0.0004 0.7510
vt 0.0004 0.4523
vt 0.0004 0.5905
vt 0.0004 0.6213
vt 0.0004 0.4301
vt 0.6614 0.8555
vt 0.6686 0.8331
vt 0.6652 0.8537
vt 0.6783 0.9255
vt 0.6717 0.9162
vt 0.6736 0.9148
vt 0.6781 0.9180
vt 0.6713 0.7529
vt 0.6757 0.7490
vt 0.7827 0.9947
vt 0.6760 0.9316
vt 0.6683 0.9163
vt 0.8016 0.6506
vt 0.6583 0.8548
vt 0.6729 0.8543
vt 0.6758 0.8333
vt 0.8237 0.6497
vt 0.8315 0.8324
vt 0.8046 0.8329
vt 0.8315 0.8722
vt 0.8034 0.9993
vt 0.8058 0.8675
vt 0.8323 0.9127
vt 0.8323 0.8281
vt 0.8323 0.7494
vt 0.8323 0.6497
vt 0.6006 0.2362
vt 0.1618 0.7576
vt 0.1618 0.7517
vt 0.7573 0.1476
vt 0.4244 0.9733
vt 0.4251 0.9936
vt 0.3378 0.9965
vt 0.3371 0.9762
vt 0.1594 0.9467
vt 0.0680 0.9467
vt 0.3019 0.4408
vt 0.2735 0.4408
vt 0.2735 0.4301
vt 0.3019 0.4301
vt 0.3369 0.1000
vt 0.3589 0.1000
vt 0.3589 0.1787
vt 0.3369 0.1787
vt 0.3361 0.4301
vt 0.3254 0.4301
vt 0.0342 0.9777
vt 0.0342 0.9670
vt 0.1871 0.8990
vt 0.1871 0.9328
vt 0.1618 0.9459
vt 0.1618 0.9096
vt 0.2713 0.8637
vt 0.0004 0.9251
vt 0.3051 0.4664
vt 0.3051 0.4301
vt 0.0342 0.9467
vt 0.3150 0.7995
vt 0.3179 0.8220
vt 0.3068 0.8294
vt 0.3091 0.8007
vt 0.4370 0.9478
vt 0.3369 0.9478
vt 0.4244 0.9020
vt 0.4370 0.9274
vt 0.3369 0.9274
vt 0.3371 0.8990
vt 0.3112 0.7745
vt 0.3030 0.8001
vt 0.3071 0.7745
vt 0.3159 0.7771
vt 0.3157 0.7627
vt 0.3112 0.7638
vt 0.3179 0.7210
vt 0.3106 0.7097
vt 0.2948 0.8263
vt 0.2861 0.8059
vt 0.2943 0.7924
vt 0.3073 0.7643
vt 0.2936 0.7096
vt 0.3589 0.2633
vt 0.3369 0.2633
vt 0.5817 0.1787
vt 0.5817 0.2633
vt 0.4684 0.2633
vt 0.4684 0.1787
vt 0.4431 0.1787
vt 0.4431 0.2633
vt 0.5998 0.1787
vt 0.5998 0.2633
vt 0.4684 0.3987
vt 0.4684 0.4164
vt 0.4431 0.4164
vt 0.5817 0.3987
vt 0.5817 0.4164
vt 0.5998 0.0004
vt 0.5998 0.1000
vt 0.5817 0.1000
vt 0.5817 0.0004
vt 0.4431 0.0004
vt 0.4431 0.1000
vt 0.3589 0.0004
vt 0.4684 0.1000
vt 0.4684 0.0004
vt 0.3369 0.0004
vt 0.5817 0.2787
vt 0.4684 0.2787
vt 0.5604 0.8859
vt 0.5604 0.8017
vt 0.5711 0.8017
vt 0.5711 0.8859
vt 0.3589 0.4164
vt 0.5604 0.9111
vt 0.5711 0.9111
vt 0.5914 0.8859
vt 0.5914 0.9111
vt 0.5914 0.8017
vt 0.0066 0.7536
vt 0.8643 0.1534
vt 0.8643 0.1358
vt 0.8416 0.0004
vt 0.8636 0.0004
vt 0.3080 0.6250
vt 0.3197 0.6250
vt 0.3197 0.7088
vt 0.3080 0.7088
vt 0.2942 0.7749
vt 0.2900 0.7598
vt 0.2798 0.7371
vt 0.3019 0.4415
vt 0.3019 0.4579
vt 0.2902 0.4579
vt 0.2902 0.4415
vt 0.2916 0.6250
vt 0.2916 0.7088
vt 0.2798 0.6250
vt 0.2798 0.7088
vt 0.3361 0.6250
vt 0.3361 0.7088
vn -1.0000 0.0000 0.0000
vn 0.0000 0.0000 -1.0000
vn 1.0000 0.0000 0.0000
vn 0.0000 0.0000 1.0000
vn 0.3441 -0.7968 0.4967
vn -0.3215 -0.8036 0.5009
vn 0.0000 0.9222 0.3866
vn -0.3278 -0.8017 -0.4998
vn 0.0000 -0.9796 0.2008
vn 0.3104 -0.8436 0.4382
vn 0.0000 -0.9802 -0.1980
vn 0.3507 -0.7947 -0.4954
vn 0.0000 -1.0000 0.0000
vn 0.0000 1.0000 0.0000
vn -0.0008 -0.0005 1.0000
vn -0.0008 0.0001 1.0000
vn 0.0000 -0.9663 0.2574
vn 0.0000 0.8486 0.5290
vn 0.0000 0.8486 -0.5290
vn 0.9411 0.3000 0.1559
vn 0.9411 0.3000 -0.1559
vn 0.0000 -0.9695 -0.2453
vn 0.3202 -0.8407 -0.4367
vn 0.0000 0.8874 0.4610
vn 0.0000 0.8874 -0.4610
vn -0.1799 0.8627 -0.4726
vn -0.0250 0.8761 -0.4815
vn -0.1818 0.8586 0.4793
vn -0.0253 0.8720 0.4889
vn -0.0482 0.0577 0.9972
vn -0.0490 0.0586 -0.9971
vn -0.3215 0.8403 0.4365
vn 0.0000 -0.0136 -0.9999
vn 0.0000 -0.9999 -0.0109
vn 0.0000 -0.0201 0.9998
vn 0.0000 0.9999 0.0109
vn 0.0000 -0.0109 0.9999
vn 0.0000 0.0109 -0.9999
usemtl None
s off
f 29/1/1 24/2/1 4/3/1 13/4/1
f 48/5/2 45/6/2 8/7/2 14/8/2
f 23/9/3 19/10/3 6/11/3 15/12/3
f 41/13/4 39/14/4 2/15/4 12/16/4
f 160/17/1 159/18/1 214/19/1 215/20/1
f 11/21/5 27/22/5 100/23/5 101/24/5
f 24/25/6 10/26/6 99/27/6 90/28/6
f 9/29/1 26/30/1 183/31/1 184/32/1
f 28/33/3 27/34/3 11/35/3 16/36/3
f 131/37/1 123/38/1 10/39/1 17/40/1
f 60/41/7 137/42/7 154/43/7 153/44/7
f 85/45/2 77/46/2 33/47/2 65/48/2
f 67/49/4 41/13/4 12/16/4 58/50/4
f 59/51/3 23/9/3 15/12/3 56/52/3
f 69/53/2 48/5/2 14/8/2 55/54/2
f 61/55/1 29/1/1 13/4/1 54/56/1
f 58/57/1 12/58/1 22/59/1 60/60/1
f 12/58/1 2/61/1 20/62/1 22/59/1
f 123/63/8 20/64/8 98/65/8 138/66/8
f 25/67/2 79/68/2 195/69/2 179/70/2
f 133/71/3 132/72/3 19/10/3 23/9/3
f 57/73/1 17/40/1 29/1/1 61/55/1
f 55/74/3 14/75/3 28/33/3 62/76/3
f 14/75/3 8/77/3 27/34/3 28/33/3
f 156/78/2 149/79/2 213/80/2 216/81/2
f 8/82/9 45/83/9 92/84/9 93/85/9
f 17/40/1 10/39/1 24/2/1 29/1/1
f 65/86/3 33/87/3 32/88/3 63/89/3
f 136/90/3 135/91/3 34/92/3 64/93/3
f 32/94/10 33/95/10 102/96/10 121/97/10
f 83/98/4 81/99/4 30/100/4 64/101/4
f 5/102/4 46/103/4 181/104/4 182/105/4
f 38/106/4 200/107/4 181/104/4 46/103/4
f 39/108/11 52/109/11 104/110/11 96/111/11
f 18/112/4 152/113/4 212/114/4 175/115/4
f 196/116/4 81/99/4 80/117/4 208/118/4
f 20/64/8 2/119/8 97/120/8 98/65/8
f 54/121/2 13/122/2 42/123/2 66/124/2
f 68/125/4 53/126/4 41/13/4 67/49/4
f 21/127/3 5/128/3 182/129/3 189/130/3
f 2/119/11 39/108/11 96/111/11 97/120/11
f 132/131/12 11/21/12 101/24/12 139/132/12
f 35/133/3 31/134/3 193/135/3 194/136/3
f 53/126/4 52/137/4 39/14/4 41/13/4
f 13/122/2 4/138/2 37/139/2 42/123/2
f 15/140/4 6/141/4 52/137/4 53/126/4
f 45/83/9 37/142/9 103/143/9 92/84/9
f 52/109/11 6/144/11 95/145/11 104/110/11
f 56/146/4 15/140/4 53/126/4 68/125/4
f 27/22/5 8/82/5 93/85/5 100/23/5
f 37/142/9 4/147/9 91/148/9 103/143/9
f 7/149/3 25/150/3 179/151/3 180/152/3
f 66/124/2 42/123/2 48/5/2 69/53/2
f 134/153/3 30/154/3 197/155/3 192/156/3
f 42/123/2 37/139/2 45/6/2 48/5/2
f 36/157/2 66/124/2 69/53/2 51/158/2
f 5/102/4 56/146/4 68/125/4 46/103/4
f 67/49/3 38/106/3 71/159/3 70/160/3
f 3/161/2 54/121/2 66/124/2 36/157/2
f 75/162/4 83/98/4 64/101/4 34/163/4
f 134/153/3 136/90/3 64/93/3 30/154/3
f 35/133/3 65/86/3 63/89/3 31/134/3
f 7/149/3 55/74/3 62/76/3 25/150/3
f 9/29/1 57/73/1 61/55/1 26/30/1
f 1/164/1 58/57/1 60/60/1 18/165/1
f 26/30/1 61/55/1 54/56/1 3/166/1
f 51/158/2 69/53/2 55/54/2 7/167/2
f 21/127/3 59/51/3 56/52/3 5/128/3
f 38/106/4 67/49/4 58/50/4 1/168/4
f 78/169/2 85/45/2 65/48/2 35/170/2
f 57/171/2 9/172/2 149/79/2 148/173/2
f 72/174/4 73/175/4 70/176/4 71/177/4
f 46/103/1 68/125/1 73/178/1 72/179/1
f 68/125/13 67/49/13 70/160/13 73/178/13
f 38/106/14 46/103/14 72/179/14 71/159/14
f 25/67/2 62/180/2 84/181/2 79/68/2
f 79/68/2 84/181/2 85/45/2 78/169/2
f 23/182/15 59/183/15 82/184/15 74/185/15
f 74/185/4 82/184/4 83/98/4 75/162/4
f 152/113/4 160/186/4 215/187/4 212/114/4
f 196/188/13 208/189/13 210/190/13 211/191/13
f 26/30/1 3/166/1 178/192/1 183/31/1
f 149/79/2 9/172/2 184/193/2 213/80/2
f 59/183/16 21/194/16 80/117/16 82/184/16
f 83/98/13 82/184/13 88/195/13 89/196/13
f 33/95/17 77/197/17 122/198/17 102/96/17
f 62/180/2 28/199/2 76/200/2 84/181/2
f 84/181/2 76/200/2 77/46/2 85/45/2
f 88/201/4 86/202/4 87/203/4 89/204/4
f 82/184/3 80/117/3 86/205/3 88/195/3
f 80/117/14 81/99/14 87/206/14 86/205/14
f 81/99/1 83/98/1 89/196/1 87/206/1
f 138/207/1 98/208/1 109/209/1 140/210/1
f 104/211/4 95/212/4 40/213/4 117/214/4
f 100/215/3 93/216/3 44/217/3 111/218/3
f 97/219/4 96/220/4 107/221/4 108/222/4
f 90/223/1 99/224/1 110/225/1 50/226/1
f 95/212/3 94/227/3 43/228/3 40/213/3
f 93/216/2 92/229/2 47/230/2 44/217/2
f 98/208/1 97/219/1 108/222/1 109/209/1
f 91/231/1 90/223/1 50/226/1 49/232/1
f 92/229/2 103/233/2 116/234/2 47/230/2
f 139/235/3 101/236/3 112/237/3 141/238/3
f 96/220/4 104/211/4 117/214/4 107/221/4
f 6/144/12 19/239/12 94/240/12 95/145/12
f 4/147/6 24/25/6 90/28/6 91/148/6
f 119/241/18 109/242/18 108/243/18 107/244/18
f 120/245/19 50/246/19 110/247/19 118/248/19
f 142/249/18 140/250/18 109/242/18 119/241/18
f 116/251/19 49/252/19 50/246/19 120/245/19
f 47/253/19 116/251/19 120/245/19 115/254/19
f 143/255/18 142/249/18 119/241/18 114/256/18
f 115/254/19 120/245/19 118/248/19 113/257/19
f 114/256/18 119/241/18 107/244/18 117/258/18
f 43/259/18 114/256/18 117/258/18 40/260/18
f 111/261/19 115/254/19 113/257/19 112/262/19
f 141/263/18 143/255/18 114/256/18 43/259/18
f 44/264/19 47/253/19 115/254/19 111/261/19
f 101/236/3 100/215/3 111/218/3 112/237/3
f 103/233/2 91/231/2 49/232/2 116/234/2
f 144/265/20 121/97/20 127/266/20 145/267/20
f 106/268/4 105/269/4 125/270/4 124/271/4
f 121/97/21 102/96/21 126/272/21 127/266/21
f 102/96/2 122/198/2 129/273/2 126/272/2
f 74/274/22 75/275/22 106/268/22
f 75/275/22 34/276/22 105/269/22 106/268/22
f 77/197/17 76/277/17 122/198/17
f 135/278/23 32/94/23 121/97/23 144/265/23
f 147/279/24 124/271/24 125/270/24 145/267/24
f 129/273/25 130/280/25 127/266/25 126/272/25
f 28/281/26 16/282/26 128/283/26 76/277/26
f 76/277/27 128/283/27 130/280/27 129/273/27
f 133/284/28 23/285/28 74/274/28 146/286/28
f 146/286/29 74/274/29 124/271/29 147/279/29
f 74/274/30 106/268/30 124/271/30
f 122/198/31 76/277/31 129/273/31
f 128/283/24 146/286/24 147/279/24 130/280/24
f 16/282/32 133/284/32 146/286/32 128/283/32
f 130/280/24 147/279/24 145/267/24 127/266/24
f 34/276/23 135/278/23 144/265/23 105/269/23
f 105/269/20 144/265/20 145/267/20 125/270/20
f 112/262/18 113/257/18 143/255/18 141/263/18
f 113/257/18 118/248/18 142/249/18 143/255/18
f 118/248/18 110/247/18 140/250/18 142/249/18
f 94/227/3 139/235/3 141/238/3 43/228/3
f 99/224/1 138/207/1 140/210/1 110/225/1
f 51/158/2 7/167/2 180/287/2 199/288/2
f 3/161/2 36/157/2 177/289/2 178/290/2
f 31/134/3 63/89/3 136/90/3 134/153/3
f 38/106/4 1/168/4 176/291/4 200/107/4
f 19/239/12 132/131/12 139/132/12 94/240/12
f 159/18/1 156/292/1 216/293/1 214/19/1
f 63/89/3 32/88/3 135/91/3 136/90/3
f 16/36/3 11/35/3 132/72/3 133/71/3
f 31/134/3 134/153/3 192/156/3 193/135/3
f 10/26/8 123/63/8 138/66/8 99/27/8
f 60/60/1 22/59/1 131/37/1 137/294/1
f 22/59/1 20/62/1 123/38/1 131/37/1
f 151/295/33 158/296/33 166/297/33 164/298/33
f 152/113/4 153/44/4 161/299/4 160/186/4
f 153/44/7 154/43/7 162/300/7 161/299/7
f 18/112/4 60/41/4 153/44/4 152/113/4
f 131/301/24 17/302/24 151/303/24 150/304/24
f 200/305/13 190/306/13 202/307/13 181/308/13
f 17/309/2 57/171/2 148/173/2 151/310/2
f 137/42/4 131/311/4 150/312/4 154/43/4
f 162/313/1 157/314/1 158/315/1 155/316/1
f 159/18/1 162/313/1 155/316/1 156/292/1
f 160/17/1 161/317/1 162/313/1 159/18/1
f 80/117/4 21/194/4 189/318/4 208/118/4
f 151/310/2 148/173/2 155/319/2 158/320/2
f 36/157/2 51/158/2 199/288/2 177/289/2
f 148/173/2 149/79/2 156/78/2 155/319/2
f 154/43/4 150/312/4 157/321/4 162/300/4
f 164/322/34 166/323/34 170/324/34 168/325/34
f 150/326/3 151/295/3 164/298/3 163/327/3
f 158/328/1 157/329/1 165/330/1 166/331/1
f 157/329/35 150/326/35 163/327/35 165/330/35
f 167/332/3 168/325/3 172/333/3 171/334/3
f 163/335/34 164/322/34 168/325/34 167/332/34
f 165/336/34 163/335/34 167/332/34 169/337/34
f 166/338/34 165/336/34 169/337/34 170/339/34
f 172/333/36 174/340/36 220/341/36 218/342/36
f 169/337/37 167/332/37 171/334/37 173/343/37
f 170/339/1 169/337/1 173/343/1 174/344/1
f 168/325/38 170/324/38 174/340/38 172/333/38
f 202/307/13 189/345/13 182/346/13 181/308/13
f 203/347/13 179/348/13 186/349/13 201/350/13
f 205/351/13 185/352/13 189/345/13 202/307/13
f 199/353/13 180/354/13 179/348/13 203/347/13
f 211/191/13 198/355/13 193/356/13 192/357/13
f 198/355/13 207/358/13 194/359/13 193/356/13
f 178/360/13 177/361/13 191/362/13 183/363/13
f 188/364/13 204/365/13 190/306/13 175/366/13
f 183/363/13 191/362/13 187/367/13 184/368/13
f 175/366/13 190/306/13 200/305/13 176/369/13
f 177/361/13 199/353/13 203/347/13 191/362/13
f 204/365/13 205/351/13 202/307/13 190/306/13
f 191/362/13 203/347/13 201/350/13 187/367/13
f 186/349/13 179/348/13 195/370/13 209/371/13
f 209/371/13 195/370/13 207/358/13 198/355/13
f 185/352/13 186/349/13 209/371/13 210/190/13
f 210/190/13 209/371/13 198/355/13 211/191/13
f 189/345/13 185/352/13 210/190/13 208/189/13
f 188/372/13 175/373/13 212/374/13 206/375/13
f 187/367/13 201/350/13 205/351/13 204/365/13
f 184/368/13 187/367/13 204/365/13 188/364/13
f 196/188/13 211/191/13 192/357/13 197/376/13
f 201/350/13 186/349/13 185/352/13 205/351/13
f 184/377/13 188/372/13 206/375/13 213/378/13
f 213/378/13 206/375/13 214/379/13 216/380/13
f 206/375/13 212/374/13 215/381/13 214/379/13
f 30/100/4 81/99/4 196/116/4 197/382/4
f 78/169/2 35/170/2 194/383/2 207/384/2
f 1/164/1 18/165/1 175/385/1 176/386/1
f 79/68/2 78/169/2 207/384/2 195/69/2
f 219/387/38 217/388/38 221/389/38 223/390/38
f 171/334/36 172/333/36 218/342/36 217/391/36
f 173/343/36 171/334/36 217/391/36 219/392/36
f 174/344/36 173/343/36 219/392/36 220/393/36
f 221/394/36 222/395/36 224/396/36 223/397/36
f 220/398/3 219/387/3 223/390/3 224/399/3
f 218/400/37 220/398/37 224/399/37 222/401/37
f 217/388/1 218/402/1 222/403/1 221/389/1
