# Blender v2.78 (sub 0) OBJ File: 'TV.blend'
# www.blender.org
mtllib TV.mtl
o Stand_Cube.001
v 1.000000 6.953145 0.535862
v 1.000000 7.092624 0.242125
v -1.000000 7.092624 0.242125
v -1.000000 6.953145 0.535862
v -1.815682 0.763547 0.295702
v -1.000000 3.733971 0.162585
v -1.815682 0.763547 -0.295702
v -1.000000 3.733971 -0.162585
v 1.821815 0.763547 0.295702
v 1.000000 3.733971 0.162585
v 1.821815 0.763547 -0.295702
v 1.000000 3.733971 -0.162585
v 1.000000 5.976120 -0.094786
v -1.000000 5.976120 -0.094786
v -1.000000 5.937081 0.220018
v 1.000000 5.937081 0.220018
v -1.000000 1.229624 0.162585
v -1.000000 1.229624 -0.162585
v 1.000000 1.229624 -0.162585
v 1.000000 1.229624 0.162585
v 0.220115 6.953145 0.535862
v 0.220115 7.092624 0.242125
v 0.403400 0.763547 -0.295702
v 0.220115 3.733971 -0.162585
v 0.403400 0.763547 0.295702
v 0.220115 3.733971 0.162585
v 0.220115 5.937081 0.220018
v 0.220115 5.976120 -0.094786
v 0.220115 1.229624 0.162585
v 0.220115 1.229624 -0.162585
v -0.235097 6.953145 0.535862
v -0.424515 0.763547 -0.295702
v -0.235097 3.733971 0.162585
v -0.235097 5.937081 0.220018
v -0.235097 1.229624 0.162585
v -0.235097 7.092624 0.242125
v -0.235097 3.733971 -0.162585
v -0.424515 0.763547 0.295702
v -0.235097 5.976120 -0.094786
v -0.235097 1.229624 -0.162585
v -3.396606 0.417346 -0.553703
v -3.396606 0.417346 0.553703
v -0.791639 0.417346 -0.553703
v 3.414626 0.417346 0.553703
v 3.414626 0.417346 -0.553703
v 0.758637 0.417346 0.553703
v 0.758637 0.417346 -0.553703
v -0.791639 0.417346 0.553703
v -3.917074 0.017696 -0.916083
v -3.917074 0.017696 0.926618
v -0.912503 0.017696 -0.916083
v 3.939008 0.017696 0.926618
v 3.939008 0.017696 -0.916083
v 0.875588 0.017696 0.926618
v 0.875588 0.017696 -0.916083
v -0.912503 0.017696 0.926618
vt 0.8328 0.7327
vt 0.8407 0.7320
vt 0.8461 0.7540
vt 0.8401 0.7609
vt 0.8926 0.7312
vt 0.9005 0.7317
vt 0.8951 0.7604
vt 0.8890 0.7548
vt 0.8133 0.7349
vt 0.8197 0.7657
vt 0.8607 0.7668
vt 0.8616 0.7579
vt 0.8404 0.6086
vt 0.8404 0.6745
vt 0.8320 0.6744
vt 0.8319 0.6086
vt 0.9224 0.6086
vt 0.9221 0.6748
vt 0.9012 0.6743
vt 0.9017 0.6086
vt 0.8929 0.6744
vt 0.8931 0.6086
vt 0.8606 0.6085
vt 0.8605 0.6743
vt 0.8076 0.5089
vt 0.8037 0.5263
vt 0.7606 0.5196
vt 0.7665 0.4945
vt 0.8729 0.7311
vt 0.8731 0.7576
vt 0.8724 0.6743
vt 0.8118 0.6747
vt 0.8450 0.5080
vt 0.8498 0.5198
vt 0.8313 0.5200
vt 0.9083 0.5258
vt 0.8822 0.5275
vt 0.8799 0.5199
vt 0.9035 0.5086
vt 0.8756 0.5447
vt 0.8659 0.5366
vt 0.8296 0.5278
vt 0.8578 0.5546
vt 0.8561 0.5420
vt 0.8610 0.5198
vt 0.8656 0.5080
vt 0.9198 0.7338
vt 0.8613 0.7311
vt 0.8356 0.4974
vt 0.8725 0.6085
vt 0.9345 0.6087
vt 0.9342 0.6751
vt 0.8743 0.7669
vt 0.9155 0.7636
vt 0.8116 0.6086
vt 0.8355 0.5447
vt 0.8228 0.5493
vt 0.8452 0.5370
vt 0.9317 0.7349
vt 0.9274 0.7653
vt 0.8549 0.5684
vt 0.8884 0.5496
vt 0.8978 0.5605
vt 0.8586 0.5817
vt 0.7418 0.5255
vt 0.7534 0.4802
vt 0.9507 0.5190
vt 0.9449 0.4943
vt 0.9580 0.4802
vt 0.9691 0.5248
vt 0.8746 0.4973
vt 0.8808 0.3521
vt 0.9602 0.3521
vt 0.9602 0.3999
vt 0.8808 0.3999
vt 0.8345 0.3521
vt 0.8345 0.3999
vt 0.7567 0.3521
vt 0.7567 0.3999
vt 0.8325 0.4829
vt 0.8776 0.4828
vt 0.8132 0.5612
vn -1.0000 0.0000 0.0000
vn 1.0000 0.0000 0.0000
vn 0.0000 0.2889 -0.9574
vn 0.0000 0.9033 0.4289
vn 0.0000 0.0000 -1.0000
vn 0.0000 0.0000 1.0000
vn -0.2139 0.9769 0.0000
vn 0.0000 -0.2968 0.9549
vn 0.0000 -0.0261 0.9997
vn 0.0000 0.0302 -0.9995
vn 0.0000 0.2746 0.9616
vn 0.4933 0.8698 0.0000
vn 0.0000 0.2746 -0.9616
vn -0.4961 0.8683 0.0000
vn 0.0000 0.5976 0.8018
vn 0.0000 0.5976 -0.8018
vn 0.0000 0.6717 -0.7408
vn -0.6090 0.7931 0.0000
vn 0.6062 0.7953 0.0000
vn 0.2124 0.9772 0.0000
vn 0.0000 -1.0000 0.0000
vn 0.0000 0.6822 0.7311
usemtl None
s off
f 14/1/1 15/2/1 4/3/1 3/4/1
f 16/5/2 13/6/2 2/7/2 1/8/2
f 39/9/3 14/1/3 3/4/3 36/10/3
f 36/11/4 3/4/4 4/3/4 31/12/4
f 17/13/1 6/14/1 8/15/1 18/16/1
f 30/17/5 24/18/5 12/19/5 19/20/5
f 19/20/2 12/19/2 10/21/2 20/22/2
f 35/23/6 33/24/6 6/14/6 17/13/6
f 5/25/7 7/26/7 41/27/7 42/28/7
f 27/29/8 16/5/8 1/8/8 21/30/8
f 26/31/9 10/21/9 16/5/9 27/29/9
f 37/32/10 8/15/10 14/1/10 39/9/10
f 10/21/2 12/19/2 13/6/2 16/5/2
f 8/15/1 6/14/1 15/2/1 14/1/1
f 38/33/11 35/34/11 17/35/11 5/25/11
f 11/36/12 19/37/12 20/38/12 9/39/12
f 23/40/13 30/41/13 19/37/13 11/36/13
f 5/25/14 17/35/14 18/42/14 7/26/14
f 32/43/13 40/44/13 30/41/13 23/40/13
f 9/39/11 20/38/11 29/45/11 25/46/11
f 12/19/10 24/18/10 28/47/10 13/6/10
f 33/24/9 26/31/9 27/29/9 34/48/9
f 34/48/8 27/29/8 21/30/8 31/12/8
f 38/33/15 5/25/15 42/28/15 48/49/15
f 20/22/6 10/21/6 26/31/6 29/50/6
f 40/51/5 37/52/5 24/18/5 30/17/5
f 2/7/4 22/53/4 21/30/4 1/8/4
f 13/6/3 28/47/3 22/54/3 2/7/3
f 18/16/5 8/15/5 37/32/5 40/55/5
f 7/26/16 32/56/16 43/57/16 41/27/16
f 15/2/8 34/48/8 31/12/8 4/3/8
f 6/14/9 33/24/9 34/48/9 15/2/9
f 7/26/13 18/42/13 40/58/13 32/56/13
f 25/46/11 29/45/11 35/34/11 38/33/11
f 24/18/10 37/52/10 39/59/10 28/47/10
f 29/50/6 26/31/6 33/24/6 35/23/6
f 22/53/4 36/11/4 31/12/4 21/30/4
f 28/47/3 39/59/3 36/60/3 22/54/3
f 43/61/17 47/62/17 55/63/17 51/64/17
f 42/28/18 41/27/18 49/65/18 50/66/18
f 45/67/19 44/68/19 52/69/19 53/70/19
f 11/36/20 9/39/20 44/68/20 45/67/20
f 32/43/16 23/40/16 47/62/16 43/61/16
f 25/46/15 38/33/15 48/49/15 46/71/15
f 9/39/15 25/46/15 46/71/15 44/68/15
f 23/40/16 11/36/16 45/67/16 47/62/16
f 55/72/21 53/73/21 52/74/21 54/75/21
f 51/76/21 55/72/21 54/75/21 56/77/21
f 49/78/21 51/76/21 56/77/21 50/79/21
f 46/71/22 48/49/22 56/80/22 54/81/22
f 44/68/22 46/71/22 54/81/22 52/69/22
f 41/27/17 43/57/17 51/82/17 49/65/17
f 48/49/22 42/28/22 50/66/22 56/80/22
f 47/62/17 45/67/17 53/70/17 55/63/17
o Screen_Cube
v 12.573680 4.603118 6.394795
v 0.764066 10.009518 -5.103693
v 0.764072 4.603117 6.394795
v 12.573685 4.190467 6.200773
v 12.573674 10.009518 -5.103693
v 0.764074 9.596867 -5.297716
v 0.764076 4.190466 6.200773
v 12.573680 9.596867 -5.297715
v 11.928057 4.190467 6.200773
v 11.928046 10.009518 -5.103693
v 11.928052 4.603118 6.394795
v 11.928053 9.596867 -5.297715
v 0.764074 9.383793 -4.844547
v 12.573674 9.796446 -4.650525
v 0.764066 9.796446 -4.650525
v 12.573680 9.383795 -4.844546
v 11.928053 9.383795 -4.844546
v 11.928046 9.796446 -4.650525
v 0.764076 4.441179 5.667550
v 0.764072 4.853830 5.861572
v 11.928057 4.441179 5.667550
v 11.928052 4.853831 5.861571
v 12.573680 4.853831 5.861571
v 12.573685 4.441179 5.667550
v 0.764066 9.562935 -4.760317
v 11.928046 9.562935 -4.760317
v 0.764072 4.620320 5.751779
v 11.928052 4.620321 5.751779
v 12.573677 7.325139 0.605524
v 12.573683 6.912488 0.411502
v 0.764075 6.912487 0.411502
v 11.928055 6.912487 0.411502
v 11.928049 7.325139 0.605524
v 0.764069 7.091628 0.495731
v 11.928049 7.091629 0.495731
v 12.573677 7.621494 -0.024775
v 12.573683 7.208844 -0.218797
v 0.764075 7.208843 -0.218797
v 11.928055 7.208844 -0.218797
v 11.928049 7.621494 -0.024775
v 0.764069 7.387983 -0.134567
v 11.928049 7.387984 -0.134567
v 0.764075 6.631645 1.008804
v 11.928055 6.631645 1.008805
v 11.928049 7.044297 1.202827
v 0.764070 6.810786 1.093034
v 11.928049 6.810787 1.093034
v 12.573677 7.044297 1.202826
v 12.573683 6.631646 1.008804
v -12.573680 4.603118 6.394795
v -0.764066 10.009518 -5.103693
v -0.764072 4.603117 6.394795
v -12.573685 4.190467 6.200773
v -12.573674 10.009518 -5.103693
v -0.764074 9.596867 -5.297716
v -0.764076 4.190466 6.200773
v -12.573680 9.596867 -5.297715
v 0.000000 4.603117 6.394795
v 0.000000 4.190466 6.200773
v 0.000000 10.009518 -5.103693
v 0.000000 9.596867 -5.297716
v -11.928057 4.190467 6.200773
v -11.928046 10.009518 -5.103693
v -11.928052 4.603118 6.394795
v -11.928053 9.596867 -5.297715
v -0.764074 9.383793 -4.844547
v -12.573674 9.796446 -4.650525
v -0.764066 9.796446 -4.650525
v -12.573680 9.383795 -4.844546
v 0.000000 9.383793 -4.844547
v 0.000000 9.796446 -4.650525
v -11.928053 9.383795 -4.844546
v -11.928046 9.796446 -4.650525
v -0.764076 4.441179 5.667550
v -0.764072 4.853830 5.861572
v 0.000000 4.441179 5.667550
v 0.000000 4.853830 5.861572
v -11.928057 4.441179 5.667550
v -11.928052 4.853831 5.861571
v -12.573680 4.853831 5.861571
v -12.573685 4.441179 5.667550
v -0.764066 9.562935 -4.760317
v 0.000000 9.562935 -4.760318
v -11.928046 9.562935 -4.760317
v -0.764072 4.620320 5.751779
v 0.000000 4.620320 5.751779
v -11.928052 4.620321 5.751779
v -12.573677 7.325139 0.605524
v -12.573683 6.912488 0.411502
v -0.764075 6.912487 0.411502
v 0.000000 6.912487 0.411502
v -11.928055 6.912487 0.411502
v -11.928049 7.325139 0.605524
v -0.764069 7.091628 0.495731
v 0.000000 7.091628 0.495731
v -11.928049 7.091629 0.495731
v -12.573677 7.621494 -0.024775
v -12.573683 7.208844 -0.218797
v -0.764075 7.208843 -0.218797
v 0.000000 7.208843 -0.218797
v -11.928055 7.208844 -0.218797
v -11.928049 7.621494 -0.024775
v -0.764069 7.387983 -0.134567
v 0.000000 7.387983 -0.134567
v -11.928049 7.387984 -0.134567
v -0.764075 6.631645 1.008804
v 0.000000 6.631645 1.008804
v -11.928055 6.631645 1.008805
v -11.928049 7.044297 1.202827
v -0.764070 6.810786 1.093034
v 0.000000 6.810786 1.093034
v -11.928049 6.810787 1.093034
v -12.573677 7.044297 1.202826
v -12.573683 6.631646 1.008804
vt 0.8173 0.9732
vt 0.8006 0.9732
vt 0.8006 0.9614
vt 0.8173 0.9614
vt 0.4003 0.0217
vt 0.4003 0.0088
vt 0.4201 0.0088
vt 0.4201 0.0217
vt 0.6349 0.9479
vt 0.6348 0.9609
vt 0.3457 0.9608
vt 0.3457 0.9478
vt 0.7983 0.9737
vt 0.7983 0.9855
vt 0.5091 0.9855
vt 0.5091 0.9737
vt 0.7093 0.0217
vt 0.7093 0.0088
vt 0.7260 0.0088
vt 0.7260 0.0217
vt 0.8326 0.9732
vt 0.8326 0.9614
vt 0.5114 0.9732
vt 0.5114 0.9614
vt 0.3259 0.9608
vt 0.3259 0.9478
vt 0.4893 0.9855
vt 0.4893 0.9737
vt 0.4916 0.9732
vt 0.4916 0.9614
vt 0.8150 0.9737
vt 0.8150 0.9855
vt 0.6516 0.9479
vt 0.6516 0.9609
vt 0.6516 0.8156
vt 0.6349 0.8155
vt 0.4201 0.1541
vt 0.7093 0.1541
vt 0.4794 0.9931
vt 0.7686 0.9931
vt 0.7686 0.9998
vt 0.4794 0.9998
vt 0.8280 0.9737
vt 0.8280 0.9855
vt 0.7260 0.1541
vt 0.4596 0.9931
vt 0.4596 0.9998
vt 0.4003 0.1541
vt 0.4003 0.3379
vt 0.4003 0.3226
vt 0.4201 0.3226
vt 0.4201 0.3379
vt 0.7403 0.7079
vt 0.7403 0.7231
vt 0.4511 0.7231
vt 0.4511 0.7079
vt 0.7093 0.3379
vt 0.7093 0.3226
vt 0.7260 0.3226
vt 0.7260 0.3379
vt 0.4313 0.7231
vt 0.4313 0.7079
vt 0.7570 0.7079
vt 0.7570 0.7231
vt 0.9659 0.9732
vt 0.9659 0.9614
vt 0.4003 0.5277
vt 0.4003 0.6601
vt 0.3805 0.6601
vt 0.3805 0.5277
vt 0.6894 0.5277
vt 0.6894 0.6601
vt 0.7686 0.9926
vt 0.4795 0.9926
vt 0.4795 0.9859
vt 0.7686 0.9859
vt 0.9010 0.9926
vt 0.9010 0.9859
vt 0.4597 0.9926
vt 0.4597 0.9859
vt 0.9019 0.9931
vt 0.9190 0.9931
vt 0.9190 0.9998
vt 0.9019 0.9998
vt 0.6894 0.4926
vt 0.6894 0.5097
vt 0.4003 0.5097
vt 0.4003 0.4926
vt 0.3805 0.5097
vt 0.3805 0.4926
vt 0.9603 0.9737
vt 0.9784 0.9737
vt 0.9784 0.9855
vt 0.9603 0.9855
vt 0.4003 0.1893
vt 0.4003 0.1722
vt 0.4201 0.1722
vt 0.4201 0.1893
vt 0.7093 0.1893
vt 0.7093 0.1722
vt 0.7260 0.1722
vt 0.7260 0.1893
vt 0.7570 0.8565
vt 0.7570 0.8736
vt 0.7403 0.8736
vt 0.7403 0.8565
vt 0.9190 0.9926
vt 0.9190 0.9859
vt 0.6516 0.7975
vt 0.6349 0.7975
vt 0.4003 0.3593
vt 0.3805 0.3593
vt 0.6894 0.3593
vt 0.9830 0.9732
vt 0.9830 0.9614
vt 0.1659 0.9732
vt 0.1659 0.9614
vt 0.1827 0.9614
vt 0.1827 0.9732
vt 0.3805 0.0217
vt 0.3805 0.0088
vt 0.0170 0.9477
vt 0.3061 0.9478
vt 0.3061 0.9608
vt 0.0170 0.9607
vt 0.1804 0.9737
vt 0.4695 0.9737
vt 0.4695 0.9855
vt 0.1804 0.9855
vt 0.0914 0.0217
vt 0.0746 0.0217
vt 0.0746 0.0088
vt 0.0914 0.0088
vt 0.1507 0.9732
vt 0.1507 0.9614
vt 0.4718 0.9614
vt 0.4718 0.9732
vt 0.1636 0.9737
vt 0.1636 0.9855
vt 0.0002 0.9477
vt 0.0002 0.9607
vt 0.0003 0.8153
vt 0.0170 0.8153
vt 0.3805 0.1541
vt 0.0914 0.1541
vt 0.4398 0.9931
vt 0.4398 0.9998
vt 0.1506 0.9998
vt 0.1506 0.9931
vt 0.1507 0.9855
vt 0.1507 0.9737
vt 0.0746 0.1541
vt 0.3805 0.3379
vt 0.3805 0.3226
vt 0.1224 0.7079
vt 0.4115 0.7079
vt 0.4115 0.7231
vt 0.1224 0.7231
vt 0.0914 0.3379
vt 0.0746 0.3379
vt 0.0746 0.3226
vt 0.0914 0.3226
vt 0.1056 0.7079
vt 0.1056 0.7231
vt 0.0173 0.9732
vt 0.0173 0.9614
vt 0.3607 0.5277
vt 0.3607 0.6601
vt 0.0715 0.5277
vt 0.0715 0.6601
vt 0.1507 0.9926
vt 0.1507 0.9859
vt 0.4399 0.9859
vt 0.4399 0.9926
vt 0.0183 0.9926
vt 0.0183 0.9859
vt 0.0173 0.9931
vt 0.0173 0.9998
vt 0.0002 0.9998
vt 0.0002 0.9931
vt 0.0715 0.4926
vt 0.3607 0.4926
vt 0.3607 0.5097
vt 0.0715 0.5097
vt 0.0183 0.9737
vt 0.0183 0.9855
vt 0.0002 0.9855
vt 0.0002 0.9737
vt 0.3805 0.1893
vt 0.3805 0.1722
vt 0.0914 0.1893
vt 0.0746 0.1893
vt 0.0746 0.1722
vt 0.0914 0.1722
vt 0.1056 0.8565
vt 0.1224 0.8565
vt 0.1224 0.8736
vt 0.1056 0.8736
vt 0.0002 0.9926
vt 0.0002 0.9859
vt 0.0003 0.7973
vt 0.0170 0.7973
vt 0.3607 0.3593
vt 0.0715 0.3593
vt 0.0002 0.9732
vt 0.0002 0.9614
vn 0.0000 -0.4255 0.9050
vn 0.0000 -0.9050 -0.4255
vn -0.0000 0.9050 0.4255
vn 0.0000 0.4255 -0.9050
vn 1.0000 0.0000 0.0000
vn -1.0000 0.0000 0.0000
usemtl Material
s off
f 57/83/23 67/84/23 65/85/23 60/86/23
f 126/87/24 117/88/24 62/89/24 69/90/24
f 74/91/25 66/92/25 58/93/25 71/94/25
f 66/95/26 68/96/26 62/97/26 58/98/26
f 73/99/24 68/100/24 64/101/24 72/102/24
f 79/103/27 57/83/27 60/86/27 80/104/27
f 67/84/23 59/105/23 63/106/23 65/85/23
f 71/94/25 58/93/25 116/107/25 127/108/25
f 58/98/26 62/97/26 117/109/26 116/110/26
f 59/105/23 114/111/23 115/112/23 63/106/23
f 69/90/24 62/89/24 68/100/24 73/99/24
f 61/113/26 64/114/26 68/96/26 66/95/26
f 70/115/25 61/116/25 66/92/25 74/91/25
f 92/117/25 70/115/25 74/91/25 96/118/25
f 94/119/24 69/90/24 73/99/24 95/120/24
f 76/121/26 78/122/26 84/123/26 83/124/26
f 61/113/27 70/125/27 72/126/27 64/114/27
f 95/120/24 73/99/24 72/102/24 93/127/24
f 133/128/26 76/121/26 83/124/26 142/129/26
f 156/130/24 126/87/24 69/90/24 94/119/24
f 115/131/24 132/132/24 75/133/24 63/134/24
f 67/135/25 78/136/25 76/137/25 59/138/25
f 65/139/24 77/140/24 80/141/24 60/142/24
f 59/138/25 76/137/25 133/143/25 114/144/25
f 63/134/24 75/133/24 77/140/24 65/139/24
f 57/145/25 79/146/25 78/136/25 67/135/25
f 104/147/27 79/103/27 80/104/27 105/148/27
f 97/149/25 81/150/25 139/151/25 160/152/25
f 98/153/25 82/154/25 81/150/25 97/149/25
f 74/155/23 71/156/23 81/157/23 82/158/23
f 96/159/28 74/155/28 82/158/28 98/160/28
f 71/156/23 127/161/23 139/162/23 81/157/23
f 101/163/28 89/164/28 91/165/28 103/166/28
f 103/167/25 91/168/25 90/169/25 102/170/25
f 102/170/25 90/169/25 151/171/25 167/172/25
f 92/173/27 85/174/27 86/175/27 93/176/27
f 163/177/24 147/178/24 87/179/24 99/180/24
f 100/181/24 88/182/24 86/183/24 105/184/24
f 99/180/24 87/179/24 88/182/24 100/181/24
f 104/185/25 85/186/25 89/187/25 101/188/25
f 70/125/27 92/173/27 93/176/27 72/126/27
f 89/189/28 96/159/28 98/160/28 91/190/28
f 91/168/25 98/153/25 97/149/25 90/169/25
f 90/169/25 97/149/25 160/152/25 151/171/25
f 147/178/24 156/130/24 94/119/24 87/179/24
f 88/182/24 95/120/24 93/127/24 86/183/24
f 87/179/24 94/119/24 95/120/24 88/182/24
f 85/191/25 92/117/25 96/118/25 89/192/25
f 79/146/25 104/185/25 101/188/25 78/136/25
f 75/133/24 99/180/24 100/181/24 77/140/24
f 77/140/24 100/181/24 105/184/24 80/141/24
f 132/132/24 163/177/24 99/180/24 75/133/24
f 83/193/25 102/170/25 167/172/25 142/194/25
f 84/195/25 103/167/25 102/170/25 83/193/25
f 78/122/28 101/163/28 103/166/28 84/123/28
f 85/196/27 104/147/27 105/148/27 86/197/27
f 106/198/23 109/199/23 118/200/23 120/201/23
f 126/87/24 122/202/24 111/203/24 117/88/24
f 129/204/25 124/205/25 107/206/25 119/207/25
f 119/208/26 107/209/26 111/210/26 121/211/26
f 128/212/24 125/213/24 113/214/24 121/215/24
f 136/216/28 137/217/28 109/199/28 106/198/28
f 120/201/23 118/200/23 112/218/23 108/219/23
f 124/205/25 127/108/25 116/107/25 107/206/25
f 107/209/26 116/110/26 117/109/26 111/210/26
f 108/219/23 112/218/23 115/112/23 114/111/23
f 122/202/24 128/212/24 121/215/24 111/203/24
f 110/220/26 119/208/26 121/211/26 113/221/26
f 123/222/25 129/204/25 119/207/25 110/223/25
f 153/224/25 158/225/25 129/204/25 123/222/25
f 155/226/24 157/227/24 128/212/24 122/202/24
f 131/228/26 141/229/26 143/230/26 135/231/26
f 110/220/28 113/221/28 125/232/28 123/233/28
f 157/227/24 154/234/24 125/213/24 128/212/24
f 133/128/26 142/129/26 141/229/26 131/228/26
f 156/130/24 155/226/24 122/202/24 126/87/24
f 115/131/24 112/235/24 130/236/24 132/132/24
f 120/237/25 108/238/25 131/239/25 135/240/25
f 118/241/24 109/242/24 137/243/24 134/244/24
f 108/238/25 114/144/25 133/143/25 131/239/25
f 112/235/24 118/241/24 134/244/24 130/236/24
f 106/245/25 120/237/25 135/240/25 136/246/25
f 169/247/28 170/248/28 137/217/28 136/216/28
f 159/249/25 160/152/25 139/151/25 138/250/25
f 161/251/25 159/249/25 138/250/25 140/252/25
f 129/253/23 140/254/23 138/255/23 124/256/23
f 158/257/27 161/258/27 140/254/27 129/253/27
f 124/256/23 138/255/23 139/162/23 127/161/23
f 165/259/27 168/260/27 152/261/27 149/262/27
f 168/263/25 166/264/25 150/265/25 152/266/25
f 166/264/25 167/172/25 151/171/25 150/265/25
f 153/267/28 154/268/28 145/269/28 144/270/28
f 163/177/24 162/271/24 146/272/24 147/178/24
f 164/273/24 170/274/24 145/275/24 148/276/24
f 162/271/24 164/273/24 148/276/24 146/272/24
f 169/277/25 165/278/25 149/279/25 144/280/25
f 123/233/28 125/232/28 154/268/28 153/267/28
f 149/281/27 152/282/27 161/258/27 158/257/27
f 152/266/25 150/265/25 159/249/25 161/251/25
f 150/265/25 151/171/25 160/152/25 159/249/25
f 147/178/24 146/272/24 155/226/24 156/130/24
f 148/276/24 145/275/24 154/234/24 157/227/24
f 146/272/24 148/276/24 157/227/24 155/226/24
f 144/283/25 149/284/25 158/225/25 153/224/25
f 136/246/25 135/240/25 165/278/25 169/277/25
f 130/236/24 134/244/24 164/273/24 162/271/24
f 134/244/24 137/243/24 170/274/24 164/273/24
f 132/132/24 130/236/24 162/271/24 163/177/24
f 141/285/25 142/194/25 167/172/25 166/264/25
f 143/286/25 141/285/25 166/264/25 168/263/25
f 135/231/27 143/230/27 168/260/27 165/259/27
f 144/287/28 145/288/28 170/248/28 169/247/28
