# Blender v2.78 (sub 0) OBJ File: 'PhoneAddict.blend'
# www.blender.org
mtllib PhoneAddict.mtl
o enemy:Mesh6
v 0.452707 2.524169 0.267414
v 0.552912 2.562151 0.141330
v 0.537597 2.617445 0.130744
v 0.446981 2.579046 0.260500
v 0.387612 2.637784 -0.139770
v 0.401808 2.577357 -0.138743
v 0.291365 2.746531 -0.260510
v 0.286139 2.819142 -0.228777
v 0.499413 2.618199 -0.038788
v 0.516198 2.563538 -0.032230
v 0.495202 3.804400 1.077845
v 0.500461 3.658608 0.695294
v 0.375643 3.681037 0.615646
v 0.358010 3.820526 0.928780
v 0.549938 1.517079 0.563176
v 0.520171 1.574003 0.577074
v 0.554843 1.571636 0.439995
v 0.584961 1.526987 0.444103
v 0.526689 1.536109 0.684827
v 0.498447 1.589658 0.708851
v 0.434014 3.358096 1.060284
v 0.515796 3.440519 1.116577
v 0.526793 3.513277 1.283624
v 0.428576 3.452797 1.199177
v 0.482137 3.515614 0.503717
v 0.376743 3.477264 0.290119
v 0.592769 1.802311 0.671330
v 0.551243 1.870608 0.660843
v 0.600917 1.882418 0.516031
v 0.641825 1.839135 0.489825
v 0.569621 1.826150 0.804406
v 0.531477 1.881266 0.785316
v 0.426485 3.159414 0.736782
v 0.509662 3.361638 0.955834
v 0.375257 2.998352 0.012041
v 0.224184 3.149753 -0.005374
v 0.505048 3.385914 0.736904
v 0.418440 3.126505 0.315003
v 0.430680 2.966151 0.324656
v 0.403583 2.844034 0.349249
v 0.206051 3.358428 1.228685
v 0.131474 3.363423 1.288986
v 0.182190 3.557012 1.420636
v 0.512740 3.650357 1.275122
v 0.169479 3.739075 1.308621
v 0.217504 3.879033 0.922123
v 0.231221 3.703979 0.499004
v 0.238927 3.522233 0.211575
v 0.147822 3.191234 -0.052244
v 0.165545 2.890160 -0.323159
v 0.161943 2.943714 -0.282462
v 0.229757 2.524527 0.320289
v 0.232783 2.476175 0.307063
v 0.251761 2.907885 0.571062
v 0.215893 2.749555 0.450492
v 0.245375 3.136260 0.909176
v -0.038249 3.256018 1.157341
v -0.061010 3.343285 1.254651
v -0.222323 3.258826 2.293299
v -0.222612 3.115168 2.205610
v -0.036740 3.105679 2.172022
v -0.038406 3.239571 2.250053
v -0.202698 3.394038 2.237601
v -0.070496 3.354368 2.236623
v -0.005761 3.635715 0.461871
v -0.005242 3.844302 0.959697
v -0.005641 3.501578 0.194584
v -0.005382 3.203971 -0.070571
v -0.010249 2.899386 -0.309562
v -0.009601 2.963264 -0.269979
v -0.009855 2.478518 0.365429
v -0.010439 2.429580 0.344409
v -0.005388 2.815574 0.612491
v -0.007678 2.706267 0.504805
v -0.003337 3.047670 0.873751
v 0.044092 3.247067 1.517837
v -0.108080 3.306956 1.507377
v 0.037180 3.417779 1.666474
v 0.012996 3.530082 1.706727
v -0.043960 3.692352 1.290175
v -0.109734 3.573592 1.685777
v 0.590697 3.774772 1.049579
v 0.633379 3.625257 0.729290
v 0.589212 3.658844 1.195617
v 0.577425 3.511797 1.153522
v 0.584146 3.560990 1.254191
v 0.620472 3.399760 0.630285
v 0.603186 3.429699 0.894329
v 0.581525 3.414339 1.030088
v 0.785217 3.453052 0.766883
v 0.719344 3.199449 0.638342
v 0.807864 3.425854 0.953860
v 0.672172 3.217276 1.039112
v 0.740273 3.435843 1.086011
v 0.669132 3.037785 0.568233
v 0.602046 2.902563 0.743280
v 0.598483 2.969846 0.918978
v 0.842136 2.937848 0.653277
v 0.758326 2.875692 0.583741
v 0.825062 2.892042 0.777156
v 0.699037 2.773742 0.829693
v 0.794981 2.861152 0.836725
v 0.698427 2.837696 0.550581
v 0.631487 2.750813 0.692316
v 0.629463 2.731018 0.776876
v 0.760954 2.802135 0.569055
v 0.838461 2.862266 0.633019
v 0.835904 2.740021 0.579616
v 0.750002 2.670756 0.525418
v 0.820145 2.811979 0.746776
v 0.819119 2.728008 0.720039
v 0.794081 2.784889 0.789335
v 0.705631 2.714026 0.781020
v 0.695131 2.654811 0.789804
v 0.791747 2.718454 0.779522
v 0.648549 2.687698 0.669826
v 0.707545 2.768148 0.541978
v 0.690097 2.635329 0.509514
v 0.630463 2.601765 0.674450
v 0.644731 2.685122 0.729774
v 0.627382 2.616772 0.744905
v 0.701904 2.160082 0.791304
v 0.608078 2.126210 0.804684
v 0.589371 2.021740 0.834189
v 0.672594 1.984186 0.822728
v 0.734235 2.163588 0.693124
v 0.709033 1.976413 0.696405
v 0.757851 2.174867 0.562460
v 0.741198 2.005522 0.552750
v 0.671472 2.133410 0.536833
v 0.653429 1.984577 0.520695
v 0.609266 2.114029 0.526528
v 0.594483 1.988665 0.503844
v 0.554532 2.093154 0.671583
v 0.536557 1.970438 0.663999
v 0.540981 2.106694 0.774709
v 0.516587 2.010585 0.804760
v 0.754448 2.402870 0.797128
v 0.638161 2.341752 0.817137
v 0.792291 2.412776 0.692669
v 0.818874 2.428658 0.523918
v 0.712527 2.357821 0.491869
v 0.638065 2.323608 0.483534
v 0.568804 2.291427 0.669132
v 0.557798 2.308170 0.776448
v 0.784864 2.599096 0.783767
v 0.674330 2.531870 0.801216
v 0.817848 2.610362 0.704624
v 0.838722 2.625375 0.542927
v 0.740962 2.551477 0.494274
v 0.671125 2.512564 0.483114
v 0.603643 2.474675 0.668138
v 0.597405 2.491212 0.754808
v 0.700268 1.810576 0.519584
v 0.663166 1.768280 0.679906
v 0.634049 1.786886 0.793880
v 0.569079 1.966959 0.857309
v 0.498787 1.972222 0.833004
v 0.487551 1.840995 0.864033
v 0.539266 1.812414 0.886891
v 0.611099 1.642685 0.475852
v 0.577308 1.643006 0.621787
v 0.639597 1.598072 0.482054
v 0.605411 1.586021 0.607916
v 0.556667 1.658713 0.756981
v 0.583940 1.604582 0.731654
v 0.482458 1.675404 0.743295
v 0.520158 1.651995 0.750274
v 0.503881 1.613923 0.783204
v 0.463095 1.628484 0.770920
v 0.540383 1.747426 0.803946
v 0.511384 1.782498 0.792850
v 0.520452 1.735730 0.855436
v 0.484685 1.755317 0.840844
v 0.417111 1.874457 -0.101503
v 0.257828 1.821935 -0.116970
v 0.534232 1.845309 -0.025580
v 0.599539 1.834558 0.032724
v 0.610004 1.848156 0.137789
v 0.580587 1.844401 0.210707
v 0.431400 1.869413 0.270976
v -0.007398 2.317317 0.280033
v 0.294436 1.882292 0.258772
v 0.493329 1.328597 -0.018246
v 0.404419 1.282917 0.010405
v 0.547472 1.295076 0.015360
v 0.577560 1.267549 0.059054
v 0.602762 1.264943 0.135050
v 0.594523 1.251596 0.189561
v 0.512092 1.250050 0.271341
v 0.097719 1.825289 0.018347
v 0.158830 1.808309 -0.076975
v 0.326863 1.257931 0.073569
v 0.295796 1.252672 0.152761
v 0.130893 1.850485 0.105078
v 0.319642 1.251229 0.215841
v 0.184449 1.867815 0.215875
v 0.357040 1.246669 0.285778
v 0.424273 1.247025 0.303812
v 0.425827 1.210688 0.026673
v 0.505762 1.245243 0.002704
v 0.519389 1.182075 -0.009008
v 0.417021 1.165557 0.008807
v 0.554206 1.206530 0.042370
v 0.564505 1.140207 0.030676
v 0.578441 1.175096 0.086986
v 0.579618 1.101443 0.073546
v 0.595496 1.166341 0.150379
v 0.595339 1.074453 0.137540
v 0.589184 1.150075 0.198025
v 0.581125 1.051463 0.177572
v 0.517859 1.147790 0.266518
v 0.509963 1.053757 0.246958
v 0.322983 1.178113 0.156759
v 0.349292 1.188780 0.084894
v 0.330324 1.144591 0.067838
v 0.301489 1.129534 0.140086
v 0.344498 1.167301 0.214579
v 0.322426 1.109568 0.197444
v 0.378550 1.154525 0.280011
v 0.357467 1.081851 0.266138
v 0.436655 1.148928 0.296688
v 0.420667 1.064263 0.281694
v 0.303831 0.827422 -0.133619
v 0.486964 0.974784 -0.108869
v 0.256543 0.292002 -0.276819
v 0.184038 0.297175 -0.264992
v 0.508415 0.822895 -0.088573
v 0.279120 0.288517 -0.248503
v 0.499469 0.692721 -0.053916
v 0.310229 0.272081 -0.195253
v 0.515026 0.634703 0.011747
v 0.328653 0.255125 -0.135917
v 0.498577 0.609730 0.047430
v 0.317152 0.252501 -0.104780
v 0.424403 0.609920 0.116815
v 0.276979 0.263253 -0.026679
v 0.162878 0.764383 0.012939
v 0.197325 0.788416 -0.062363
v 0.135740 0.300245 -0.227772
v 0.118897 0.300720 -0.188735
v 0.184644 0.731218 0.070932
v 0.138258 0.294433 -0.133108
v 0.228148 0.679067 0.154091
v 0.186891 0.279485 -0.042705
v 0.308322 0.639322 0.166776
v 0.216403 0.272733 -0.002538
v 0.213219 0.195149 -0.327314
v 0.131470 0.203051 -0.307984
v 0.236405 0.184914 -0.300153
v 0.284467 0.170848 -0.239737
v 0.370417 0.150788 -0.080153
v 0.394146 0.189637 -0.020244
v 0.339609 0.181971 0.086515
v 0.074129 0.200516 -0.266623
v 0.061534 0.181480 -0.208136
v 0.134225 0.141152 -0.052967
v 0.207826 0.119650 0.078595
v 0.246707 0.178499 0.117745
v 0.181290 0.089517 -0.301448
v 0.109846 0.089555 -0.278501
v 0.235175 0.078322 -0.244064
v 0.408035 0.064150 -0.009385
v 0.431892 0.053824 0.057246
v 0.697901 0.159018 0.224822
v 0.585877 0.135511 0.371458
v 0.605919 0.031838 0.414781
v 0.716813 0.056693 0.261898
v 0.066957 0.087086 -0.251322
v 0.056531 0.073595 -0.210529
v 0.137549 0.039482 -0.041402
v 0.233175 0.022888 0.119899
v 0.278905 0.001749 0.196811
v 0.451957 0.125836 0.481023
v 0.468555 0.023852 0.519079
v 0.121829 0.078530 -0.247518
v 0.170591 0.062379 -0.170954
v 0.330818 0.046522 0.051612
v 0.370983 0.009455 0.164457
v -0.005337 2.731820 -0.159350
v -0.004872 2.597102 -0.019927
v -0.006222 2.347896 0.126159
v -0.139679 3.020297 1.553973
v -0.004880 3.107388 1.512925
v 0.023400 3.082402 1.617568
v -0.154081 2.981104 1.632357
v 0.072981 3.369756 1.821088
v 0.068639 3.195977 1.665310
v -0.019199 3.501627 1.852540
v -0.133209 3.542796 1.834211
v -0.209373 3.001703 2.040162
v -0.031817 3.034135 2.051418
v 0.006752 3.446241 2.151004
v -0.177046 3.514110 2.129400
v 0.060178 3.278356 2.118927
v 0.061134 3.148491 2.028375
v -0.015421 3.025037 1.928247
v -0.191031 2.981881 1.896767
v 0.020373 3.487049 2.000608
v -0.152189 3.559516 1.980225
v 0.084989 3.321100 1.965624
v 0.082005 3.161855 1.768396
v 0.011601 3.030546 1.724348
v -0.163361 2.947625 1.677727
v -0.044014 3.153873 1.417312
v -0.002123 3.181965 1.425536
v -0.034122 3.099757 1.480753
v -0.057575 3.094815 1.442885
v -0.106804 3.153300 1.402256
v -0.104131 3.208267 1.417506
v -0.128828 3.038966 1.488138
v -0.119770 3.062009 1.437834
v -0.481852 2.507945 0.273617
v -0.474848 2.563441 0.268524
v -0.557157 2.600026 0.134449
v -0.573959 2.544477 0.142598
v -0.384188 2.627634 -0.118001
v -0.298591 2.828431 -0.211599
v -0.306184 2.762383 -0.240993
v -0.397463 2.566010 -0.119113
v -0.502221 2.602192 -0.029323
v -0.519466 2.546197 -0.025093
v -0.506535 3.807983 1.066132
v -0.369046 3.818255 0.926223
v -0.385772 3.659664 0.615291
v -0.508830 3.631623 0.693384
v -0.518505 1.849730 1.496241
v -0.568555 1.781323 1.405034
v -0.535363 1.805565 1.369990
v -0.482064 1.895062 1.465635
v -0.477086 1.942455 1.569645
v -0.441061 1.992519 1.548718
v -0.444505 3.379039 1.062204
v -0.447511 3.475087 1.179919
v -0.545402 3.537323 1.260765
v -0.526103 3.473182 1.116741
v -0.391643 3.460290 0.296988
v -0.498536 3.491620 0.512221
v -0.517627 2.135141 1.377535
v -0.588599 2.044664 1.223317
v -0.542118 2.086722 1.210633
v -0.471610 2.171948 1.321001
v -0.475454 2.241334 1.455741
v -0.436739 2.264220 1.402274
v -0.443305 3.153839 0.752597
v -0.523361 3.361099 0.968288
v -0.234641 3.149940 -0.000880
v -0.382699 2.996096 0.021778
v -0.523004 3.371534 0.749312
v -0.433702 3.116181 0.327775
v -0.443351 2.959470 0.334461
v -0.416138 2.840601 0.353296
v -0.256824 3.380896 1.201438
v -0.242997 3.397877 1.246785
v -0.306017 3.596026 1.360333
v -0.536864 3.669751 1.243664
v -0.238372 3.770522 1.259976
v -0.227937 3.879970 0.919877
v -0.242405 3.692615 0.498297
v -0.251242 3.513624 0.213971
v -0.159563 3.192195 -0.051035
v -0.179671 2.900475 -0.315430
v -0.174806 2.950895 -0.274574
v -0.250682 2.517755 0.326833
v -0.254585 2.468993 0.313610
v -0.264495 2.904720 0.581256
v -0.229638 2.747106 0.454452
v -0.255123 3.141191 0.913061
v -0.387972 3.270148 2.201113
v -0.391082 3.136675 2.122412
v -0.334374 3.377450 2.199679
v -0.265229 3.274123 1.474531
v -0.270127 3.444659 1.623450
v -0.239072 3.552130 1.671436
v -0.640479 3.599600 0.726616
v -0.599033 3.775096 1.039761
v -0.601720 3.670378 1.176773
v -0.596520 3.583525 1.234006
v -0.586532 3.532865 1.148978
v -0.626704 3.415559 0.910870
v -0.646898 3.361131 0.650965
v -0.601213 3.415999 1.045216
v -0.766831 3.175110 0.674832
v -0.806166 3.445396 0.777665
v -0.831954 3.438817 0.965771
v -0.761436 3.453381 1.096214
v -0.716026 3.226548 1.075965
v -0.681663 2.879400 0.808750
v -0.733607 3.003102 0.621156
v -0.675111 2.966317 0.971664
v -0.839266 2.853388 0.651021
v -0.916289 2.930320 0.713246
v -0.904367 2.895167 0.841144
v -0.879244 2.868165 0.901545
v -0.796332 2.780792 0.899039
v -0.730588 2.741069 0.766429
v -0.783664 2.806185 0.622267
v -0.731495 2.735836 0.851649
v -0.850574 2.774256 0.641636
v -0.815009 2.607664 0.670012
v -0.924901 2.693324 0.666939
v -0.923286 2.847975 0.695832
v -0.918346 2.732375 0.795701
v -0.912427 2.813307 0.811364
v -0.891196 2.794423 0.854047
v -0.895752 2.743105 0.851145
v -0.801261 2.732384 0.878234
v -0.811630 2.743278 0.852821
v -0.746073 2.719236 0.763531
v -0.708750 2.681322 0.822199
v -0.743346 2.587480 0.683562
v -0.799651 2.731969 0.620607
v -0.722740 2.721378 0.862532
v -0.749281 2.731333 0.813408
v -0.643819 2.463639 1.220841
v -0.568178 2.377417 1.363254
v -0.485377 2.404982 1.342173
v -0.525637 2.462586 1.249287
v -0.676659 2.387221 1.149580
v -0.615247 2.290115 1.279178
v -0.687319 2.295138 1.049063
v -0.659064 2.216004 1.156921
v -0.591201 2.274873 1.054616
v -0.582837 2.171256 1.144994
v -0.526729 2.267443 1.057464
v -0.526970 2.153667 1.127871
v -0.465908 2.345643 1.174190
v -0.449746 2.244300 1.253407
v -0.450644 2.426523 1.238402
v -0.415540 2.370018 1.325898
v -0.792285 2.596765 1.056779
v -0.649240 2.613029 1.111037
v -0.810455 2.525897 0.980439
v -0.808065 2.415660 0.849553
v -0.682494 2.381201 0.869532
v -0.601365 2.376805 0.883073
v -0.547422 2.498293 1.035432
v -0.552522 2.583612 1.100675
v -0.875472 2.691875 0.909221
v -0.755167 2.698593 0.963886
v -0.896280 2.649848 0.844310
v -0.890093 2.559948 0.718386
v -0.762108 2.503563 0.739124
v -0.683549 2.492631 0.754126
v -0.644182 2.612437 0.910074
v -0.656937 2.678284 0.958381
v -0.641574 2.053146 1.266683
v -0.586945 2.126868 1.409925
v -0.542725 2.213948 1.477870
v -0.463129 2.379040 1.396027
v -0.437324 2.284179 1.523430
v -0.387401 2.283314 1.485173
v -0.396251 2.359433 1.372158
v -0.525994 1.983994 1.451977
v -0.579459 1.889783 1.348513
v -0.610761 1.866733 1.384979
v -0.560795 1.938370 1.482584
v -0.520885 2.032467 1.557880
v -0.485582 2.083991 1.537520
v -0.406798 2.081023 1.513107
v -0.387665 2.063977 1.564796
v -0.427324 2.067145 1.585276
v -0.444626 2.073884 1.535795
v -0.422292 2.195121 1.475512
v -0.451996 2.180954 1.508940
v -0.427331 2.204999 1.553336
v -0.392515 2.204597 1.527894
v -0.251834 1.811577 -0.107724
v -0.409650 1.859222 -0.099614
v -0.533903 1.827877 -0.037083
v -0.604890 1.815518 0.013790
v -0.626373 1.826568 0.117469
v -0.604728 1.821172 0.192961
v -0.464126 1.846063 0.266900
v -0.327996 1.860552 0.264953
v -0.404600 1.264776 -0.001192
v -0.491078 1.311459 -0.037439
v -0.548259 1.276922 -0.010488
v -0.582682 1.248200 0.029176
v -0.615481 1.243615 0.101860
v -0.612915 1.228997 0.156607
v -0.539118 1.225849 0.246372
v -0.109030 1.810846 0.041449
v -0.310972 1.230926 0.150783
v -0.333612 1.237990 0.068921
v -0.159193 1.796195 -0.057824
v -0.150828 1.833450 0.124465
v -0.341362 1.228129 0.211033
v -0.214812 1.847632 0.230258
v -0.385997 1.222096 0.276647
v -0.454910 1.222117 0.287651
v -0.426406 1.190660 0.010506
v -0.415299 1.142039 -0.007992
v -0.515480 1.161994 -0.035550
v -0.504342 1.227025 -0.020348
v -0.565037 1.119092 -0.001446
v -0.556507 1.187290 0.013140
v -0.585463 1.079735 0.039254
v -0.585357 1.154892 0.054354
v -0.608514 1.052611 0.101180
v -0.609284 1.144700 0.115555
v -0.599074 1.029011 0.142252
v -0.607717 1.127458 0.163135
v -0.535017 1.028924 0.218365
v -0.543660 1.123560 0.238514
v -0.337465 1.154170 0.149661
v -0.314509 1.101608 0.133834
v -0.335446 1.118114 0.059193
v -0.356056 1.166387 0.075644
v -0.365093 1.142518 0.204828
v -0.341726 1.081411 0.188578
v -0.406037 1.128869 0.266253
v -0.384350 1.053575 0.253097
v -0.465793 1.123496 0.276832
v -0.449325 1.037140 0.262016
v -0.298426 0.798385 -0.141188
v -0.181565 0.265469 -0.264071
v -0.252519 0.262369 -0.283205
v -0.478088 0.951521 -0.134098
v -0.277875 0.259475 -0.257325
v -0.506555 0.799700 -0.117004
v -0.314664 0.243786 -0.207517
v -0.504925 0.669150 -0.082646
v -0.339639 0.226939 -0.150700
v -0.528700 0.611296 -0.019341
v -0.331503 0.223828 -0.118591
v -0.516664 0.585673 0.017620
v -0.299372 0.233103 -0.036775
v -0.449893 0.583326 0.094118
v -0.174859 0.730481 0.018315
v -0.124479 0.266974 -0.181590
v -0.137259 0.267100 -0.222136
v -0.200825 0.755893 -0.059881
v -0.203315 0.697692 0.073559
v -0.149582 0.260949 -0.128186
v -0.256478 0.646446 0.151505
v -0.207635 0.246983 -0.043400
v -0.338639 0.609032 0.155741
v -0.241396 0.240929 -0.006569
v -0.127110 0.170430 -0.301904
v -0.206550 0.163335 -0.329597
v -0.232622 0.153401 -0.305016
v -0.287005 0.139855 -0.250002
v -0.389022 0.118522 -0.100451
v -0.419470 0.157570 -0.043991
v -0.376581 0.152775 0.068146
v -0.068290 0.148850 -0.195340
v -0.074430 0.167532 -0.254837
v -0.157174 0.112314 -0.047999
v -0.244043 0.092824 0.075543
v -0.287631 0.151595 0.109182
v -0.109517 0.057058 -0.269753
v -0.178437 0.057355 -0.300146
v -0.239051 0.047177 -0.248984
v -0.432481 0.032239 -0.032388
v -0.463199 0.022593 0.031478
v -0.747265 0.125904 0.167645
v -0.768473 0.023887 0.204326
v -0.674281 0.003452 0.368640
v -0.651299 0.106733 0.325846
v -0.063562 0.041498 -0.196396
v -0.069663 0.054571 -0.238208
v -0.160539 0.011211 -0.035029
v -0.271913 -0.003881 0.115620
v -0.325312 -0.024546 0.187557
v -0.548814 -0.000457 0.487188
v -0.529796 0.101163 0.449291
v -0.124637 0.046386 -0.240034
v -0.180376 0.031409 -0.168085
v -0.362004 0.016945 0.036843
v -0.413487 -0.018960 0.145385
v -0.300862 3.110766 1.572169
v -0.241305 3.128068 1.479825
v -0.337373 3.231491 1.608467
v -0.354351 3.407135 1.761260
v -0.253178 3.522094 1.819782
v -0.375054 3.064158 2.003363
v -0.368539 3.479069 2.098461
v -0.438978 3.322018 2.049043
v -0.437317 3.192091 1.958590
v -0.358556 3.055051 1.880207
v -0.333493 3.518002 1.951065
v -0.413406 3.364696 1.895847
v -0.383940 3.202611 1.703162
v -0.327626 3.060219 1.676854
v -0.170268 3.164916 1.399635
v -0.174455 3.105039 1.426521
v -0.206144 3.114804 1.456669
v -0.207394 3.199920 1.396797
v -0.609401 2.092541 1.257389
v -0.318948 2.410570 2.119539
v 0.207705 2.477218 1.917527
v -0.082748 2.159189 1.055377
v -0.577561 1.958405 1.296143
v -0.050908 2.025053 1.094131
v -0.287108 2.276435 2.158293
v 0.239546 2.343083 1.956281
v -0.542976 2.179155 0.208953
v -0.072497 2.122414 0.035695
v -0.127835 2.098370 0.129147
v -0.313274 2.287448 -0.232252
v -0.020738 2.320290 -0.232213
v -0.461221 2.192712 -0.080667
v -0.601729 2.190601 0.125081
v -0.044037 2.398853 -0.351167
v -0.313694 2.166996 0.176388
v -0.177303 2.377220 -0.344525
v -0.031507 2.264324 -0.138442
v -0.562178 2.180858 -0.005652
v 0.317442 2.281467 -0.236947
v 0.037149 2.392165 -0.356090
v 0.020004 2.267346 -0.144313
v 0.290603 2.177794 0.171334
v 0.557875 2.199088 0.000201
v 0.173653 2.366630 -0.349174
v 0.108127 2.105386 0.123619
v 0.514853 2.199394 0.211818
v 0.055142 2.129034 0.028402
v 0.582086 2.210981 0.132342
v 0.011585 2.321485 -0.239585
v 0.465294 2.208594 -0.085231
v -0.509059 2.345479 0.231554
v -0.033097 2.235771 0.050366
v -0.070150 2.202595 0.183252
v -0.306297 2.535738 -0.266463
v -0.009183 2.535365 -0.222974
v -0.425765 2.377026 -0.103949
v -0.588943 2.370565 0.131579
v -0.020978 2.671614 -0.358046
v -0.277996 2.317593 0.232850
v -0.181875 2.659380 -0.360839
v -0.010857 2.440289 -0.113084
v -0.540822 2.363527 -0.015372
v 0.001430 2.439914 -0.111724
v 0.019439 2.238355 0.045585
v -0.000761 2.533168 -0.223790
v 0.286743 2.498948 -0.273376
v 0.004443 2.649265 -0.352863
v 0.256536 2.325319 0.226035
v 0.537042 2.381351 -0.016061
v 0.160546 2.628107 -0.359418
v 0.049529 2.205676 0.178284
v 0.480360 2.363223 0.229146
v 0.568480 2.390104 0.134354
v 0.430826 2.390237 -0.115056
v 0.362045 2.066341 -0.164664
v 0.079879 2.066427 -0.209658
v 0.376885 2.042276 0.232711
v 0.578707 2.016823 0.016462
v 0.198560 2.064964 -0.231204
v 0.202169 2.006682 0.172477
v 0.549222 2.025842 0.208684
v 0.597918 2.030827 0.137930
v 0.499763 2.026951 -0.055405
v 0.080045 2.050492 0.006527
v 0.130978 2.007005 0.137651
v 0.048255 2.052577 -0.093383
v -0.575745 2.003640 0.198823
v -0.157377 1.991545 0.151450
v -0.230730 1.991856 0.181321
v -0.352651 2.061044 -0.163920
v -0.057374 2.044830 -0.074732
v -0.497562 2.010294 -0.058875
v -0.615434 2.009223 0.123149
v -0.079897 2.063014 -0.191157
v -0.408012 2.022494 0.235232
v -0.192228 2.062366 -0.218402
v -0.096422 2.039030 0.022287
v -0.583534 1.998188 0.004069
v -0.449077 1.584391 -0.069520
v -0.620927 1.535091 0.109665
v -0.251940 1.516777 0.204060
v -0.608822 1.525085 0.174784
v -0.508361 1.537316 0.272279
v -0.210922 1.502865 0.126139
v -0.243586 1.499841 0.024843
v -0.593509 1.531766 0.021267
v -0.540084 1.551839 -0.024557
v -0.325050 1.526811 -0.043597
v -0.313495 1.528375 0.295113
v -0.406078 1.541021 0.312295
v 0.229600 1.538296 0.192086
v 0.477392 1.561921 0.286259
v 0.606383 1.556549 0.136420
v 0.240126 1.517124 0.013435
v 0.587555 1.547999 0.200134
v 0.197019 1.522326 0.110655
v 0.371467 1.565964 0.315250
v 0.454088 1.600640 -0.060894
v 0.328221 1.542960 -0.046727
v 0.588389 1.550997 0.045743
v 0.281237 1.552380 0.288778
v 0.539993 1.569680 -0.005888
v 0.479881 2.675117 0.142625
v 0.164329 3.018506 -0.229092
v -0.495724 2.662724 0.151742
v -0.392260 2.733816 -0.095487
v -0.433433 2.607759 0.247891
v 0.220325 2.570785 0.331777
v 0.449482 2.744232 0.006583
v 0.413503 2.617196 0.241409
v -0.237641 2.566056 0.337093
v -0.008747 2.529925 0.380569
v -0.176621 3.022526 -0.224212
v -0.459300 2.729768 0.023897
v -0.007504 3.031779 -0.225563
v 0.390503 2.739927 -0.112027
v -0.292058 2.922089 -0.164698
v 0.280751 2.917849 -0.176344
v 0.451212 2.776173 0.193712
v -0.465187 2.766545 0.204603
v -0.389752 2.835114 -0.058421
v -0.418641 2.688405 0.271665
v 0.216905 2.635061 0.368833
v 0.426782 2.887621 0.099761
v 0.402679 2.694766 0.266077
v -0.232403 2.631435 0.373548
v -0.008201 2.594393 0.420654
v -0.439519 2.874705 0.118069
v 0.385289 2.839246 -0.072273
v -0.273114 3.010546 -0.106382
v 0.262197 3.008500 -0.115020
v 0.159724 3.086409 -0.165213
v -0.171759 3.088843 -0.161936
v -0.006464 3.098077 -0.169878
vt 0.1499 0.0205
vt 0.1147 0.0144
vt 0.1124 0.0198
vt 0.1471 0.0262
vt 0.7610 0.0200
vt 0.7597 0.0084
vt 0.7218 0.0200
vt 0.7237 0.0326
vt 0.7903 0.0059
vt 0.7898 0.0000
vt 0.0724 0.0000
vt 0.0698 0.0051
vt 0.8015 0.3264
vt 0.8034 0.2521
vt 0.7710 0.2357
vt 0.7681 0.2936
vt 0.1527 0.8403
vt 0.1602 0.8229
vt 0.1168 0.8223
vt 0.1216 0.8388
vt 0.1819 0.8527
vt 0.1973 0.8465
vt 0.0852 0.2267
vt 0.0582 0.2397
vt 0.0538 0.3019
vt 0.0797 0.2776
vt 0.7993 0.2036
vt 0.7660 0.1821
vt 0.9020 0.2791
vt 0.9013 0.2950
vt 0.9295 0.2934
vt 0.9363 0.2822
vt 0.8744 0.2809
vt 0.8740 0.2962
vt 0.0883 0.1685
vt 0.0481 0.1875
vt 0.7680 0.0855
vt 0.7349 0.1057
vt 0.8526 0.1567
vt 0.7945 0.0683
vt 0.0920 0.0667
vt 0.0420 0.0593
vt 0.0000 0.1536
vt 0.1269 0.0664
vt 0.1466 0.2957
vt 0.1531 0.3431
vt 0.0944 0.4012
vt 0.0425 0.3610
vt 0.7146 0.3705
vt 0.7523 0.4161
vt 0.8186 0.3901
vt 0.7219 0.2898
vt 0.7227 0.2220
vt 0.7212 0.1781
vt 0.6965 0.1088
vt 0.6873 0.0197
vt 0.6888 0.0347
vt 0.1811 0.0279
vt 0.1822 0.0209
vt 0.1493 0.1561
vt 0.1752 0.0663
vt 0.1557 0.2183
vt 0.2219 0.2975
vt 0.2219 0.3397
vt 0.3577 0.9097
vt 0.3900 0.8846
vt 0.3565 0.8632
vt 0.3404 0.8801
vt 0.3202 0.9158
vt 0.3226 0.8916
vt 0.6490 0.2198
vt 0.6490 0.2969
vt 0.6490 0.1723
vt 0.6490 0.1100
vt 0.6490 0.0188
vt 0.6490 0.0347
vt 0.2219 0.0265
vt 0.2219 0.0191
vt 0.2219 0.1537
vt 0.2219 0.0661
vt 0.2219 0.2182
vt 0.1764 0.3971
vt 0.2219 0.3988
vt 0.1534 0.4397
vt 0.6859 0.4636
vt 0.7063 0.4772
vt 0.6490 0.3770
vt 0.6490 0.4634
vt 0.1558 0.6468
vt 0.1809 0.7090
vt 0.2102 0.6744
vt 0.1789 0.6347
vt 0.2328 0.7411
vt 0.2476 0.6840
vt 0.2936 0.7306
vt 0.3415 0.6903
vt 0.3306 0.6723
vt 0.2877 0.6913
vt 0.1062 0.5663
vt 0.1460 0.6112
vt 0.1587 0.5992
vt 0.1176 0.5599
vt 0.3665 0.6520
vt 0.3671 0.6407
vt 0.4169 0.6374
vt 0.4146 0.6246
vt 0.2274 0.6101
vt 0.1974 0.5762
vt 0.2651 0.6156
vt 0.3390 0.6082
vt 0.3001 0.6241
vt 0.1801 0.5566
vt 0.1518 0.5164
vt 0.3646 0.5927
vt 0.3939 0.5719
vt 0.2483 0.5497
vt 0.2191 0.5344
vt 0.2824 0.5541
vt 0.3365 0.5555
vt 0.3018 0.5567
vt 0.1996 0.5253
vt 0.1689 0.5004
vt 0.3641 0.5558
vt 0.3828 0.5513
vt 0.2244 0.5224
vt 0.2521 0.5379
vt 0.2554 0.5174
vt 0.2277 0.4998
vt 0.2853 0.5417
vt 0.2881 0.5275
vt 0.3021 0.5432
vt 0.3379 0.5418
vt 0.3414 0.5314
vt 0.3056 0.5320
vt 0.1769 0.4921
vt 0.2063 0.5132
vt 0.2103 0.4890
vt 0.1745 0.4780
vt 0.3667 0.5429
vt 0.3675 0.5297
vt 0.3812 0.5425
vt 0.3814 0.5318
vt 0.1519 0.9943
vt 0.1939 0.9932
vt 0.2022 0.9697
vt 0.1666 0.9603
vt 0.1180 0.9881
vt 0.1250 0.9523
vt 0.0784 0.9771
vt 0.0847 0.9435
vt 0.0434 0.9548
vt 0.0523 0.9234
vt 0.0206 0.9406
vt 0.0288 0.9139
vt 0.9008 0.3253
vt 0.9289 0.3249
vt 0.9313 0.3080
vt 0.9003 0.3097
vt 0.8818 0.3290
vt 0.8741 0.3164
vt 0.2226 1.0000
vt 0.2336 0.9800
vt 0.3243 0.4817
vt 0.3597 0.4811
vt 0.3708 0.4520
vt 0.3352 0.4507
vt 0.3012 0.4771
vt 0.3077 0.4454
vt 0.2676 0.4680
vt 0.2747 0.4359
vt 0.2380 0.4497
vt 0.2438 0.4195
vt 0.2173 0.4383
vt 0.2212 0.4086
vt 0.1759 0.4297
vt 0.1774 0.4009
vt 0.3873 0.4823
vt 0.4089 0.4928
vt 0.4268 0.4700
vt 0.3993 0.4543
vt 0.3128 0.5122
vt 0.3480 0.5105
vt 0.2939 0.5085
vt 0.2606 0.4987
vt 0.2326 0.4799
vt 0.2139 0.4682
vt 0.1745 0.4580
vt 0.3749 0.5095
vt 0.3923 0.5156
vt 0.0910 0.9040
vt 0.0668 0.8929
vt 0.1368 0.9104
vt 0.2015 0.9242
vt 0.1731 0.9199
vt 0.0456 0.8958
vt 0.2129 0.9576
vt 0.2418 0.9685
vt 0.2498 0.9372
vt 0.2284 0.9273
vt 0.9302 0.2553
vt 0.9046 0.2559
vt 0.1115 0.8609
vt 0.0962 0.8525
vt 0.1453 0.8671
vt 0.1948 0.8827
vt 0.1779 0.8787
vt 0.8785 0.2576
vt 0.9278 0.2378
vt 0.9043 0.2375
vt 0.8804 0.2393
vt 0.8537 0.3029
vt 0.8669 0.3145
vt 0.2373 0.8666
vt 0.2235 0.8808
vt 0.2362 0.8869
vt 0.2511 0.8805
vt 0.8645 0.2771
vt 0.8601 0.2872
vt 0.2331 0.9127
vt 0.2141 0.9060
vt 0.2512 0.9154
vt 0.8483 0.2941
vt 0.8533 0.2680
vt 0.8462 0.2757
vt 0.8358 0.2794
vt 0.7850 0.8025
vt 0.8340 0.8220
vt 0.8433 0.7942
vt 0.7993 0.7727
vt 0.8876 0.8132
vt 0.8906 0.7850
vt 0.9267 0.8074
vt 0.9242 0.7794
vt 0.4496 0.8696
vt 0.4980 0.8607
vt 0.4923 0.8377
vt 0.4504 0.8462
vt 0.5320 0.8487
vt 0.5210 0.8269
vt 0.5757 0.8289
vt 0.5660 0.8067
vt 0.6099 0.8044
vt 0.5950 0.7885
vt 0.8322 0.7157
vt 0.8672 0.7359
vt 0.8911 0.6775
vt 0.8652 0.6587
vt 0.9029 0.7290
vt 0.9151 0.6730
vt 0.9295 0.7244
vt 0.9347 0.6695
vt 0.4479 0.8023
vt 0.4794 0.7941
vt 0.4665 0.7505
vt 0.4455 0.7584
vt 0.4999 0.7848
vt 0.4787 0.7427
vt 0.5346 0.7680
vt 0.5032 0.7294
vt 0.7839 0.6671
vt 0.8062 0.6952
vt 0.8408 0.6398
vt 0.8191 0.6218
vt 0.7659 0.6388
vt 0.8017 0.6044
vt 0.5729 0.7322
vt 0.5811 0.7016
vt 0.5469 0.6859
vt 0.5332 0.7045
vt 0.5579 0.7525
vt 0.5209 0.7166
vt 0.8754 0.6380
vt 0.9015 0.6572
vt 0.9072 0.6377
vt 0.8814 0.6181
vt 0.9250 0.6565
vt 0.9309 0.6402
vt 0.9440 0.6579
vt 0.9504 0.6442
vt 0.4433 0.7439
vt 0.4610 0.7351
vt 0.4517 0.7226
vt 0.4339 0.7330
vt 0.4714 0.7276
vt 0.4614 0.7151
vt 0.4924 0.7154
vt 0.4820 0.7030
vt 0.8250 0.6034
vt 0.8481 0.6187
vt 0.8561 0.5996
vt 0.8340 0.5883
vt 0.8057 0.5910
vt 0.8141 0.5810
vt 0.5206 0.6922
vt 0.5354 0.6774
vt 0.5311 0.6630
vt 0.5129 0.6777
vt 0.5090 0.7031
vt 0.5001 0.6892
vt 0.9128 0.0000
vt 0.8932 0.0036
vt 0.9134 0.0309
vt 0.9218 0.0245
vt 0.8864 0.0147
vt 0.9091 0.0362
vt 0.8821 0.0240
vt 0.9040 0.0444
vt 0.8739 0.0311
vt 0.8988 0.0546
vt 0.8707 0.0357
vt 0.8962 0.0592
vt 0.8639 0.0451
vt 0.8868 0.0689
vt 0.8358 0.0839
vt 0.8304 0.0939
vt 0.8534 0.1051
vt 0.8581 0.0993
vt 0.8221 0.1097
vt 0.8490 0.1125
vt 0.8417 0.0760
vt 0.8644 0.0923
vt 0.8485 0.0638
vt 0.8736 0.0828
vt 0.8548 0.0560
vt 0.8788 0.0778
vt 0.9229 0.0362
vt 0.9302 0.0269
vt 0.9204 0.0402
vt 0.9152 0.0492
vt 0.9144 0.0611
vt 0.9111 0.0686
vt 0.9026 0.0797
vt 0.8625 0.1117
vt 0.8686 0.1083
vt 0.8551 0.1167
vt 0.8781 0.1030
vt 0.8878 0.1002
vt 0.8932 0.0906
vt 0.9369 0.0378
vt 0.9431 0.0290
vt 0.9302 0.0454
vt 0.9247 0.0577
vt 0.9260 0.0596
vt 0.9524 0.0881
vt 0.9447 0.1054
vt 0.9541 0.1116
vt 0.9635 0.0862
vt 0.8675 0.1247
vt 0.8714 0.1224
vt 0.8617 0.1270
vt 0.8797 0.1165
vt 0.8888 0.1123
vt 0.8935 0.1131
vt 0.9327 0.1185
vt 0.9358 0.1291
vt 0.4277 0.0943
vt 0.4284 0.0900
vt 0.4179 0.0874
vt 0.4208 0.0921
vt 0.4386 0.0949
vt 0.4447 0.0844
vt 0.4326 0.0789
vt 0.4209 0.0741
vt 0.4569 0.0671
vt 0.4437 0.0621
vt 0.4267 0.0597
vt 0.4571 0.0616
vt 0.4438 0.0523
vt 0.4295 0.0517
vt 0.4887 0.0237
vt 0.4673 0.0086
vt 0.4442 0.0000
vt 0.7281 0.7272
vt 0.7453 0.7794
vt 0.7716 0.7506
vt 0.7487 0.7123
vt 0.7141 0.6817
vt 0.7300 0.6732
vt 0.6232 0.7681
vt 0.6251 0.7127
vt 0.6153 0.7173
vt 0.6127 0.7600
vt 0.3900 0.7611
vt 0.3628 0.7573
vt 0.3492 0.7802
vt 0.3900 0.7762
vt 0.3158 0.7603
vt 0.2740 0.8049
vt 0.2902 0.8247
vt 0.3194 0.7903
vt 0.2544 0.8229
vt 0.2654 0.8466
vt 0.2295 0.8468
vt 0.2447 0.8660
vt 0.3899 0.8493
vt 0.3603 0.8441
vt 0.3004 0.8767
vt 0.2830 0.9087
vt 0.3218 0.8600
vt 0.3364 0.8421
vt 0.3582 0.8270
vt 0.3899 0.8263
vt 0.2827 0.8620
vt 0.2599 0.8892
vt 0.3052 0.8414
vt 0.3259 0.8055
vt 0.3525 0.7967
vt 0.3900 0.7894
vt 0.3743 0.7375
vt 0.3632 0.7408
vt 0.3711 0.7494
vt 0.3790 0.7425
vt 0.3900 0.7294
vt 0.3728 0.7204
vt 0.3900 0.7499
vt 0.3900 0.7422
vt 0.3175 0.7125
vt 0.4288 0.6747
vt 0.4206 0.6825
vt 0.4027 0.6970
vt 0.9787 0.5965
vt 0.9564 0.5907
vt 0.9300 0.5876
vt 0.9033 0.5625
vt 0.8771 0.5439
vt 0.8549 0.5353
vt 0.8334 0.5305
vt 0.5156 0.6167
vt 0.4909 0.6335
vt 0.4735 0.6467
vt 0.4491 0.6624
vt 0.2219 0.0463
vt 0.1781 0.0471
vt 0.1370 0.0463
vt 0.0971 0.0550
vt 0.1319 0.0563
vt 0.1022 0.0432
vt 0.0559 0.0322
vt 0.7924 0.0371
vt 0.7645 0.0527
vt 0.7293 0.0692
vt 0.6946 0.0903
vt 0.7321 0.0874
vt 0.6490 0.0911
vt 0.1499 0.0205
vt 0.1471 0.0262
vt 0.1124 0.0198
vt 0.1147 0.0144
vt 0.7610 0.0200
vt 0.7237 0.0326
vt 0.7218 0.0200
vt 0.7597 0.0084
vt 0.7903 0.0059
vt 0.7898 0.0000
vt 0.0698 0.0051
vt 0.0724 0.0000
vt 0.8015 0.3264
vt 0.7681 0.2936
vt 0.7710 0.2357
vt 0.8034 0.2521
vt 0.1527 0.8403
vt 0.1216 0.8388
vt 0.1168 0.8223
vt 0.1602 0.8229
vt 0.1819 0.8527
vt 0.1973 0.8465
vt 0.0852 0.2267
vt 0.0797 0.2776
vt 0.0538 0.3019
vt 0.0582 0.2397
vt 0.7660 0.1821
vt 0.7993 0.2036
vt 0.9020 0.2791
vt 0.9363 0.2822
vt 0.9295 0.2934
vt 0.9013 0.2950
vt 0.8744 0.2809
vt 0.8740 0.2962
vt 0.0883 0.1685
vt 0.0481 0.1875
vt 0.7349 0.1057
vt 0.7680 0.0855
vt 0.8526 0.1567
vt 0.7945 0.0683
vt 0.0000 0.1536
vt 0.0420 0.0593
vt 0.0920 0.0667
vt 0.1269 0.0664
vt 0.1466 0.2957
vt 0.1531 0.3431
vt 0.0944 0.4012
vt 0.0425 0.3610
vt 0.7146 0.3705
vt 0.8186 0.3901
vt 0.7523 0.4161
vt 0.7219 0.2898
vt 0.7227 0.2220
vt 0.7212 0.1781
vt 0.6965 0.1088
vt 0.6873 0.0197
vt 0.6888 0.0347
vt 0.1811 0.0279
vt 0.1822 0.0209
vt 0.1493 0.1561
vt 0.1752 0.0663
vt 0.1557 0.2183
vt 0.3404 0.8801
vt 0.3565 0.8632
vt 0.3226 0.8916
vt 0.1764 0.3971
vt 0.1534 0.4397
vt 0.7063 0.4772
vt 0.6859 0.4636
vt 0.1558 0.6468
vt 0.1789 0.6347
vt 0.2102 0.6744
vt 0.1809 0.7090
vt 0.2476 0.6840
vt 0.2328 0.7411
vt 0.2936 0.7306
vt 0.2877 0.6913
vt 0.3306 0.6723
vt 0.3415 0.6903
vt 0.1062 0.5663
vt 0.1176 0.5599
vt 0.1587 0.5992
vt 0.1460 0.6112
vt 0.3671 0.6407
vt 0.3665 0.6520
vt 0.4146 0.6246
vt 0.4169 0.6374
vt 0.1974 0.5762
vt 0.2274 0.6101
vt 0.2651 0.6156
vt 0.3001 0.6241
vt 0.3390 0.6082
vt 0.1518 0.5164
vt 0.1801 0.5566
vt 0.3646 0.5927
vt 0.3939 0.5719
vt 0.2191 0.5344
vt 0.2483 0.5497
vt 0.2824 0.5541
vt 0.3018 0.5567
vt 0.3365 0.5555
vt 0.1689 0.5004
vt 0.1996 0.5253
vt 0.3641 0.5558
vt 0.3828 0.5513
vt 0.2244 0.5224
vt 0.2277 0.4998
vt 0.2554 0.5174
vt 0.2521 0.5379
vt 0.2881 0.5275
vt 0.2853 0.5417
vt 0.3021 0.5432
vt 0.3056 0.5320
vt 0.3414 0.5314
vt 0.3379 0.5418
vt 0.1769 0.4921
vt 0.1745 0.4780
vt 0.2103 0.4890
vt 0.2063 0.5132
vt 0.3675 0.5297
vt 0.3667 0.5429
vt 0.3814 0.5318
vt 0.3812 0.5425
vt 0.1519 0.9943
vt 0.1666 0.9603
vt 0.2022 0.9697
vt 0.1939 0.9932
vt 0.1180 0.9881
vt 0.1250 0.9523
vt 0.0784 0.9771
vt 0.0847 0.9435
vt 0.0434 0.9548
vt 0.0523 0.9234
vt 0.0206 0.9406
vt 0.0288 0.9139
vt 0.9008 0.3253
vt 0.9003 0.3097
vt 0.9313 0.3080
vt 0.9289 0.3249
vt 0.8818 0.3290
vt 0.8741 0.3164
vt 0.2336 0.9800
vt 0.2226 1.0000
vt 0.3243 0.4817
vt 0.3352 0.4507
vt 0.3708 0.4520
vt 0.3597 0.4811
vt 0.3012 0.4771
vt 0.3077 0.4454
vt 0.2676 0.4680
vt 0.2747 0.4359
vt 0.2380 0.4497
vt 0.2438 0.4195
vt 0.2173 0.4383
vt 0.2212 0.4086
vt 0.1759 0.4297
vt 0.1774 0.4009
vt 0.3873 0.4823
vt 0.3993 0.4543
vt 0.4268 0.4700
vt 0.4089 0.4928
vt 0.3128 0.5122
vt 0.3480 0.5105
vt 0.2939 0.5085
vt 0.2606 0.4987
vt 0.2326 0.4799
vt 0.2139 0.4682
vt 0.1745 0.4580
vt 0.3749 0.5095
vt 0.3923 0.5156
vt 0.0668 0.8929
vt 0.0910 0.9040
vt 0.1368 0.9104
vt 0.1731 0.9199
vt 0.2015 0.9242
vt 0.0456 0.8958
vt 0.2129 0.9576
vt 0.2284 0.9273
vt 0.2498 0.9372
vt 0.2418 0.9685
vt 0.9046 0.2559
vt 0.9302 0.2553
vt 0.0962 0.8525
vt 0.1115 0.8609
vt 0.1453 0.8671
vt 0.1779 0.8787
vt 0.1948 0.8827
vt 0.8785 0.2576
vt 0.9043 0.2375
vt 0.9278 0.2378
vt 0.8804 0.2393
vt 0.8669 0.3145
vt 0.8537 0.3029
vt 0.2373 0.8666
vt 0.2511 0.8805
vt 0.2362 0.8869
vt 0.2235 0.8808
vt 0.8601 0.2872
vt 0.8645 0.2771
vt 0.2141 0.9060
vt 0.2331 0.9127
vt 0.2512 0.9154
vt 0.8483 0.2941
vt 0.8462 0.2757
vt 0.8533 0.2680
vt 0.8358 0.2794
vt 0.7850 0.8025
vt 0.7993 0.7727
vt 0.8433 0.7942
vt 0.8340 0.8220
vt 0.8906 0.7850
vt 0.8876 0.8132
vt 0.9242 0.7794
vt 0.9267 0.8074
vt 0.4496 0.8696
vt 0.4504 0.8462
vt 0.4923 0.8377
vt 0.4980 0.8607
vt 0.5210 0.8269
vt 0.5320 0.8487
vt 0.5660 0.8067
vt 0.5757 0.8289
vt 0.5950 0.7885
vt 0.6099 0.8044
vt 0.8322 0.7157
vt 0.8652 0.6587
vt 0.8911 0.6775
vt 0.8672 0.7359
vt 0.9151 0.6730
vt 0.9029 0.7290
vt 0.9347 0.6695
vt 0.9295 0.7244
vt 0.4479 0.8023
vt 0.4455 0.7584
vt 0.4665 0.7505
vt 0.4794 0.7941
vt 0.4787 0.7427
vt 0.4999 0.7848
vt 0.5032 0.7294
vt 0.5346 0.7680
vt 0.7839 0.6671
vt 0.8191 0.6218
vt 0.8408 0.6398
vt 0.8062 0.6952
vt 0.7659 0.6388
vt 0.8017 0.6044
vt 0.5729 0.7322
vt 0.5332 0.7045
vt 0.5469 0.6859
vt 0.5811 0.7016
vt 0.5579 0.7525
vt 0.5209 0.7166
vt 0.8754 0.6380
vt 0.8814 0.6181
vt 0.9072 0.6377
vt 0.9015 0.6572
vt 0.9309 0.6402
vt 0.9250 0.6565
vt 0.9504 0.6442
vt 0.9440 0.6579
vt 0.4433 0.7439
vt 0.4339 0.7330
vt 0.4517 0.7226
vt 0.4610 0.7351
vt 0.4614 0.7151
vt 0.4714 0.7276
vt 0.4820 0.7030
vt 0.4924 0.7154
vt 0.8250 0.6034
vt 0.8340 0.5883
vt 0.8561 0.5996
vt 0.8481 0.6187
vt 0.8057 0.5910
vt 0.8141 0.5810
vt 0.5206 0.6922
vt 0.5129 0.6777
vt 0.5311 0.6630
vt 0.5354 0.6774
vt 0.5090 0.7031
vt 0.5001 0.6892
vt 0.9128 0.0000
vt 0.9218 0.0245
vt 0.9134 0.0309
vt 0.8932 0.0036
vt 0.9091 0.0362
vt 0.8864 0.0147
vt 0.9040 0.0444
vt 0.8821 0.0240
vt 0.8988 0.0546
vt 0.8739 0.0311
vt 0.8962 0.0592
vt 0.8707 0.0357
vt 0.8868 0.0689
vt 0.8639 0.0451
vt 0.8358 0.0839
vt 0.8581 0.0993
vt 0.8534 0.1051
vt 0.8304 0.0939
vt 0.8490 0.1125
vt 0.8221 0.1097
vt 0.8417 0.0760
vt 0.8644 0.0923
vt 0.8485 0.0638
vt 0.8736 0.0828
vt 0.8548 0.0560
vt 0.8788 0.0778
vt 0.9302 0.0269
vt 0.9229 0.0362
vt 0.9204 0.0402
vt 0.9152 0.0492
vt 0.9144 0.0611
vt 0.9111 0.0686
vt 0.9026 0.0797
vt 0.8686 0.1083
vt 0.8625 0.1117
vt 0.8551 0.1167
vt 0.8781 0.1030
vt 0.8878 0.1002
vt 0.8932 0.0906
vt 0.9431 0.0290
vt 0.9369 0.0378
vt 0.9302 0.0454
vt 0.9247 0.0577
vt 0.9260 0.0596
vt 0.9524 0.0881
vt 0.9635 0.0862
vt 0.9541 0.1116
vt 0.9447 0.1054
vt 0.8714 0.1224
vt 0.8675 0.1247
vt 0.8617 0.1270
vt 0.8797 0.1165
vt 0.8888 0.1123
vt 0.8935 0.1131
vt 0.9358 0.1291
vt 0.9327 0.1185
vt 0.4277 0.0943
vt 0.4208 0.0921
vt 0.4179 0.0874
vt 0.4284 0.0900
vt 0.4386 0.0949
vt 0.4326 0.0789
vt 0.4447 0.0844
vt 0.4209 0.0741
vt 0.4437 0.0621
vt 0.4569 0.0671
vt 0.4267 0.0597
vt 0.4438 0.0523
vt 0.4571 0.0616
vt 0.4295 0.0517
vt 0.4673 0.0086
vt 0.4887 0.0237
vt 0.4442 0.0000
vt 0.7281 0.7272
vt 0.7487 0.7123
vt 0.7716 0.7506
vt 0.7453 0.7794
vt 0.7141 0.6817
vt 0.7300 0.6732
vt 0.6232 0.7681
vt 0.6127 0.7600
vt 0.6153 0.7173
vt 0.6251 0.7127
vt 0.3492 0.7802
vt 0.3628 0.7573
vt 0.3158 0.7603
vt 0.3194 0.7903
vt 0.2902 0.8247
vt 0.2740 0.8049
vt 0.2654 0.8466
vt 0.2544 0.8229
vt 0.3603 0.8441
vt 0.3004 0.8767
vt 0.3218 0.8600
vt 0.3364 0.8421
vt 0.3582 0.8270
vt 0.2827 0.8620
vt 0.3052 0.8414
vt 0.3259 0.8055
vt 0.3525 0.7967
vt 0.3743 0.7375
vt 0.3790 0.7425
vt 0.3711 0.7494
vt 0.3632 0.7408
vt 0.4206 0.6825
vt 0.4288 0.6747
vt 0.4027 0.6970
vt 0.9564 0.5907
vt 0.9787 0.5965
vt 0.9300 0.5876
vt 0.9033 0.5625
vt 0.8771 0.5439
vt 0.8549 0.5353
vt 0.8334 0.5305
vt 0.4909 0.6335
vt 0.5156 0.6167
vt 0.4735 0.6467
vt 0.4491 0.6624
vt 0.1781 0.0471
vt 0.1370 0.0463
vt 0.0971 0.0550
vt 0.1319 0.0563
vt 0.1022 0.0432
vt 0.0559 0.0322
vt 0.7924 0.0371
vt 0.7645 0.0527
vt 0.7293 0.0692
vt 0.6946 0.0903
vt 0.7321 0.0874
vt 0.3337 0.3516
vt 0.3337 0.1861
vt 0.4549 0.1861
vt 0.4549 0.3516
vt 0.6201 0.1454
vt 0.4718 0.1454
vt 0.4718 0.1101
vt 0.6201 0.1101
vt 0.6336 0.3899
vt 0.4700 0.3899
vt 0.4700 0.1657
vt 0.6336 0.1657
vt 0.4653 0.1464
vt 0.3241 0.1464
vt 0.3241 0.1087
vt 0.4653 0.1087
vt 0.4685 0.4384
vt 0.3201 0.4384
vt 0.3201 0.4173
vt 0.4685 0.4173
vt 0.6201 0.4384
vt 0.4718 0.4384
vt 0.4718 0.4173
vt 0.6201 0.4173
vt 0.6398 0.8362
vt 0.6248 0.8203
vt 0.6337 0.7763
vt 0.6442 0.7844
vt 0.6350 0.7081
vt 0.6448 0.7036
vt 0.6824 0.6986
vt 0.6983 0.6901
vt 0.7076 0.7421
vt 0.6871 0.7571
vt 0.6928 0.8372
vt 0.7191 0.8083
vt 0.7707 0.8323
vt 0.7563 0.8621
vt 0.5950 0.8732
vt 0.5853 0.8510
vt 0.5539 0.8923
vt 0.5429 0.8705
vt 0.5094 0.9068
vt 0.5037 0.8837
vt 0.4482 0.9162
vt 0.4489 0.8929
vt 0.8814 0.8696
vt 0.8845 0.8414
vt 0.9291 0.8354
vt 0.9316 0.8634
vt 0.8155 0.8774
vt 0.8248 0.8497
vt 0.6398 0.8362
vt 0.6442 0.7844
vt 0.6337 0.7763
vt 0.6248 0.8203
vt 0.6448 0.7036
vt 0.6350 0.7081
vt 0.6824 0.6986
vt 0.6871 0.7571
vt 0.7076 0.7421
vt 0.6983 0.6901
vt 0.6928 0.8372
vt 0.7563 0.8621
vt 0.7707 0.8323
vt 0.7191 0.8083
vt 0.5950 0.8732
vt 0.5853 0.8510
vt 0.5539 0.8923
vt 0.5429 0.8705
vt 0.5094 0.9068
vt 0.5037 0.8837
vt 0.4482 0.9162
vt 0.4489 0.8929
vt 0.8814 0.8696
vt 0.9316 0.8634
vt 0.9291 0.8354
vt 0.8845 0.8414
vt 0.8155 0.8774
vt 0.8248 0.8497
vt 0.7420 0.8919
vt 0.8062 0.9051
vt 0.8783 0.8978
vt 0.9341 0.8914
vt 0.4474 0.9396
vt 0.5151 0.9298
vt 0.5649 0.9140
vt 0.6046 0.8954
vt 0.6547 0.8521
vt 0.6547 0.8715
vt 0.6665 0.7720
vt 0.6665 0.8661
vt 0.6665 0.7071
vt 0.6547 0.7925
vt 0.6546 0.6990
vt 0.7420 0.8919
vt 0.8062 0.9051
vt 0.8783 0.8978
vt 0.9341 0.8914
vt 0.4474 0.9396
vt 0.5151 0.9298
vt 0.5649 0.9140
vt 0.6046 0.8954
vt 0.6926 0.0717
vt 0.6490 0.0723
vt 0.7663 0.0691
vt 0.7935 0.0527
vt 0.0489 0.0458
vt 0.1766 0.0567
vt 0.2219 0.0562
vt 0.6926 0.0717
vt 0.7663 0.0691
vt 0.7935 0.0527
vt 0.0489 0.0458
vt 0.1766 0.0567
vn 0.4372 -0.1626 0.8846
vn 0.9673 0.0905 0.2370
vn 0.8960 0.4277 0.1198
vn 0.5677 0.2724 0.7769
vn 0.7760 0.2194 -0.5914
vn 0.6952 0.0484 -0.7172
vn 0.6145 0.0821 -0.7846
vn 0.7544 0.2962 -0.5857
vn 0.8551 0.3101 -0.4154
vn 0.8739 0.0845 -0.4787
vn 0.3791 0.8823 0.2788
vn 0.5624 0.7008 -0.4389
vn 0.4704 0.7848 -0.4035
vn 0.3121 0.9428 -0.1171
vn -0.1237 -0.9923 -0.0020
vn -0.8199 0.5625 -0.1060
vn -0.7004 0.5368 -0.4703
vn 0.0064 -0.9117 -0.4108
vn -0.2308 -0.9304 0.2847
vn -0.7950 0.5401 0.2761
vn 0.4677 -0.7355 0.4902
vn 0.4581 -0.7536 0.4715
vn 0.5273 -0.3530 0.7729
vn 0.4158 -0.7987 0.4349
vn 0.9208 0.1781 -0.3470
vn 0.6396 0.4792 -0.6011
vn -0.9612 0.2483 -0.1201
vn -0.9872 -0.0275 -0.1571
vn -0.8810 -0.0009 -0.4731
vn -0.5787 0.2525 -0.7754
vn -0.2679 -0.4409 0.8566
vn -0.9747 0.0810 -0.2086
vn 0.6768 -0.6242 0.3902
vn 0.8551 -0.4917 0.1647
vn 0.8409 0.3046 -0.4473
vn 0.6602 0.4177 -0.6242
vn 0.9249 -0.3780 -0.0415
vn 0.9907 -0.0461 -0.1282
vn 0.9939 -0.0977 0.0508
vn 0.7654 -0.4233 0.4847
vn 0.3196 -0.8352 0.4476
vn 0.4087 -0.7470 0.5244
vn 0.6927 0.0213 0.7209
vn 0.4075 0.3652 0.8370
vn 0.1037 0.8525 0.5123
vn -0.0312 0.9943 -0.1016
vn 0.0740 0.8914 -0.4471
vn 0.2435 0.7205 -0.6493
vn 0.3154 0.6096 -0.7272
vn 0.2510 0.1696 -0.9530
vn 0.3769 0.5133 -0.7710
vn 0.2931 -0.0780 0.9529
vn 0.2074 -0.3958 0.8946
vn 0.4193 -0.6904 0.5895
vn 0.4324 -0.5788 0.6914
vn 0.3551 -0.7610 0.5429
vn -0.0378 -0.8519 0.5224
vn -0.0778 -0.9919 0.1008
vn -0.1516 -0.1764 0.9726
vn -0.1600 -0.6720 0.7231
vn 0.4292 -0.6329 0.6444
vn 0.4959 -0.2014 0.8447
vn -0.0733 0.5221 0.8497
vn 0.3772 0.3812 0.8440
vn -0.0144 0.8940 -0.4478
vn -0.0025 0.9993 -0.0366
vn -0.0136 0.7613 -0.6482
vn -0.0049 0.6578 -0.7532
vn -0.0290 0.2048 -0.9784
vn -0.0035 0.5794 -0.8151
vn 0.0159 -0.2817 0.9594
vn 0.0224 -0.4773 0.8784
vn 0.0126 -0.7266 0.6869
vn 0.0108 -0.6342 0.7731
vn -0.0022 -0.7908 0.6121
vn 0.8681 -0.4856 -0.1029
vn -0.0485 -0.8388 -0.5423
vn 0.9739 0.0436 0.2226
vn 0.4812 0.7668 0.4247
vn 0.0194 0.9269 0.3749
vn 0.0331 0.9371 0.3474
vn 0.7990 0.5964 -0.0768
vn 0.6623 0.4803 -0.5750
vn 0.8709 0.3933 0.2947
vn 0.3163 -0.7035 0.6364
vn 0.8607 0.0179 0.5088
vn 0.8522 -0.2649 -0.4512
vn -0.7906 0.0749 -0.6077
vn -0.8035 -0.2654 0.5328
vn 0.9500 0.1386 -0.2799
vn 0.5769 0.1658 -0.7998
vn 0.9887 -0.0793 0.1274
vn -0.0952 -0.4626 0.8815
vn 0.8252 -0.1612 0.5413
vn -0.8571 0.3026 -0.4169
vn -0.9684 0.2324 -0.0910
vn -0.9215 0.0353 0.3868
vn 0.8960 -0.0917 -0.4344
vn 0.4917 0.1082 -0.8640
vn 0.9481 -0.2985 0.1097
vn 0.0669 -0.5300 0.8454
vn 0.6068 -0.4852 0.6296
vn -0.7036 0.2353 -0.6705
vn -0.9665 0.1692 -0.1928
vn -0.8038 -0.2368 0.5458
vn 0.3649 0.2096 -0.9072
vn 0.9018 -0.1851 -0.3905
vn 0.8834 -0.0941 -0.4590
vn 0.2511 0.2409 -0.9375
vn 0.9209 -0.3769 0.0991
vn 0.9400 -0.3247 0.1045
vn 0.5648 -0.5458 0.6190
vn -0.0847 -0.3573 0.9302
vn -0.0973 0.1199 0.9880
vn 0.6093 -0.2390 0.7560
vn -0.9066 0.3681 -0.2064
vn -0.6604 0.3744 -0.6509
vn -0.7281 0.4878 -0.4816
vn -0.8715 0.4698 -0.1406
vn -0.8898 0.1798 0.4194
vn -0.7389 0.4346 0.5150
vn 0.7039 -0.3481 0.6192
vn -0.0068 0.0435 0.9990
vn 0.1505 0.0565 0.9870
vn 0.7048 -0.3715 0.6044
vn 0.8901 -0.4392 0.1221
vn 0.8859 -0.4470 0.1238
vn 0.8084 -0.4450 -0.3854
vn 0.8765 -0.3657 -0.3130
vn 0.1768 -0.1207 -0.9768
vn 0.2049 0.0793 -0.9756
vn -0.7898 0.3175 -0.5248
vn -0.7776 0.3223 -0.5398
vn -0.9105 0.3798 -0.1634
vn -0.9435 0.2922 -0.1561
vn -0.8425 0.3876 0.3741
vn -0.8811 0.4274 0.2024
vn 0.6642 -0.3287 0.6714
vn -0.0333 0.0043 0.9994
vn 0.8907 -0.4417 0.1075
vn 0.8206 -0.3842 -0.4230
vn 0.1837 -0.1629 -0.9694
vn -0.7737 0.3008 -0.5576
vn -0.9090 0.3853 -0.1589
vn -0.7997 0.3416 0.4937
vn 0.6616 -0.2594 0.7035
vn -0.0497 0.0910 0.9946
vn 0.9246 -0.3649 0.1092
vn 0.8856 -0.2361 -0.4000
vn 0.2049 0.0628 -0.9768
vn -0.7393 0.4135 -0.5315
vn -0.8796 0.4524 -0.1474
vn -0.7567 0.4300 0.4925
vn 0.8521 -0.4551 -0.2584
vn 0.8330 -0.5423 0.1096
vn 0.6759 -0.5328 0.5093
vn 0.6296 -0.1050 0.7698
vn -0.7999 0.4587 0.3871
vn -0.7363 0.3605 0.5726
vn 0.4534 -0.2925 0.8419
vn -0.6020 0.5775 -0.5514
vn -0.7942 0.5980 -0.1080
vn 0.7741 -0.6057 -0.1842
vn 0.7202 -0.6871 0.0955
vn -0.8336 0.3020 0.4625
vn 0.5960 -0.7061 0.3824
vn -0.5244 0.5156 -0.6776
vn 0.7616 -0.4539 -0.4625
vn 0.1000 -0.8235 0.5584
vn -0.9494 -0.0580 0.3087
vn 0.8531 -0.4002 -0.3349
vn -0.5733 0.4110 -0.7088
vn 0.2923 -0.6154 0.7320
vn -0.9011 0.2283 0.3686
vn 0.0269 -0.4105 -0.9115
vn 0.5233 -0.1314 -0.8420
vn 0.4044 -0.1592 -0.9006
vn -0.0316 -0.3570 -0.9336
vn 0.6253 -0.0260 -0.7799
vn 0.6164 -0.0294 -0.7869
vn 0.8706 0.0835 -0.4848
vn 0.9038 0.0199 -0.4274
vn 0.9803 0.0993 0.1707
vn 0.9917 0.0600 0.1139
vn 0.4993 0.2458 0.8308
vn 0.6446 0.0808 0.7602
vn -0.0514 0.2078 0.9768
vn 0.1913 0.1601 0.9684
vn -0.3096 0.2278 0.9232
vn -0.1045 0.2273 0.9682
vn -0.2457 -0.3082 -0.9190
vn 0.2638 -0.1142 -0.9578
vn 0.1812 -0.1602 -0.9703
vn -0.3055 -0.3033 -0.9026
vn 0.6074 -0.0637 -0.7919
vn 0.6454 -0.0711 -0.7605
vn 0.8666 0.0035 -0.4989
vn 0.9216 -0.0471 -0.3853
vn 0.9998 -0.0150 0.0109
vn 0.9995 -0.0195 -0.0242
vn 0.8219 0.1509 0.5493
vn 0.7835 0.0063 0.6214
vn 0.4040 0.0490 0.9134
vn 0.5130 0.0019 0.8584
vn -0.9470 -0.3185 0.0423
vn -0.6623 -0.3638 -0.6550
vn -0.7054 -0.3850 -0.5951
vn -0.9362 -0.3512 -0.0090
vn -0.8851 -0.1828 0.4281
vn -0.8734 -0.2485 0.4189
vn -0.6485 -0.0812 0.7569
vn -0.6122 -0.1729 0.7716
vn 0.0107 0.0116 0.9999
vn 0.0515 -0.0476 0.9975
vn -0.4244 0.0330 -0.9049
vn 0.1078 -0.0668 -0.9919
vn 0.2202 0.3490 -0.9109
vn -0.4239 0.3950 -0.8151
vn 0.7897 0.0439 -0.6119
vn 0.8926 0.0998 -0.4398
vn 0.9500 -0.0029 -0.3122
vn 0.9651 -0.0204 -0.2610
vn 0.9956 -0.0409 -0.0849
vn 0.9926 -0.0674 -0.1008
vn 0.8029 -0.0942 0.5886
vn 0.7867 -0.2423 0.5678
vn 0.5424 -0.1118 0.8327
vn 0.5003 -0.2624 0.8251
vn -0.9995 0.0087 0.0296
vn -0.7912 0.0851 -0.6056
vn -0.7292 0.4344 -0.5288
vn -0.9434 0.3294 0.0389
vn -0.9016 -0.0433 0.4304
vn -0.8721 0.1561 0.4637
vn -0.6074 -0.0857 0.7897
vn -0.6270 -0.0046 0.7790
vn 0.1201 -0.1271 0.9846
vn 0.1019 -0.2253 0.9690
vn -0.3456 0.3576 -0.8676
vn 0.2175 0.3131 -0.9245
vn 0.1546 0.1788 -0.9717
vn -0.3405 0.3007 -0.8909
vn 0.8076 -0.0678 -0.5859
vn 0.7424 -0.0945 -0.6633
vn 0.8916 -0.1728 -0.4186
vn 0.8616 -0.1658 -0.4798
vn 0.9535 -0.2573 -0.1567
vn 0.9292 -0.1851 -0.3199
vn 0.7505 -0.4221 0.5085
vn 0.9324 -0.1244 0.3393
vn 0.4820 -0.4144 0.7720
vn 0.6159 0.0193 0.7876
vn -0.9750 0.2212 0.0224
vn -0.7409 0.3743 -0.5577
vn -0.7190 0.3114 -0.6214
vn -0.9821 0.1884 -0.0012
vn -0.9009 0.0295 0.4331
vn -0.9138 0.0331 0.4047
vn -0.7146 -0.1049 0.6917
vn -0.8400 -0.0145 0.5424
vn 0.0138 -0.3421 0.9396
vn -0.2906 -0.0668 0.9545
vn 0.0284 0.1367 -0.9902
vn -0.3928 0.2199 -0.8929
vn 0.7390 -0.1901 -0.6463
vn 0.8189 -0.1542 -0.5528
vn 0.8688 -0.0792 -0.4888
vn 0.5176 0.8336 -0.1930
vn 0.0572 0.9849 0.1636
vn -0.7728 0.2838 -0.5677
vn -0.9444 0.1788 0.2759
vn -0.8660 0.1525 0.4762
vn -0.8439 0.1329 0.5197
vn -0.4781 0.7436 0.4674
vn -0.1256 -0.3489 -0.9287
vn -0.4257 -0.3062 -0.8515
vn 0.4533 -0.7727 -0.4444
vn 0.4109 -0.7390 -0.5339
vn 0.5366 -0.7610 -0.3646
vn 0.4508 -0.7081 -0.5435
vn 0.6235 0.6913 -0.3653
vn 0.2296 0.9192 0.3200
vn 0.4016 -0.8905 0.2137
vn 0.6395 -0.7131 -0.2872
vn -0.7984 -0.2318 -0.5557
vn -0.8741 -0.4433 0.1986
vn -0.5229 -0.8339 0.1768
vn -0.4999 -0.8457 0.1868
vn -0.7116 -0.5758 0.4027
vn -0.5151 0.6120 0.6001
vn -0.4409 -0.6255 0.6437
vn -0.0314 -0.9733 -0.2275
vn 0.0449 -0.9831 -0.1774
vn 0.0867 -0.9786 -0.1864
vn 0.1167 -0.9888 -0.0927
vn -0.9682 -0.2461 -0.0443
vn -0.8764 -0.3062 -0.3717
vn -0.6341 -0.4464 -0.6314
vn -0.9570 -0.2893 0.0211
vn -0.1188 -0.4437 -0.8883
vn -0.9607 -0.1591 0.2274
vn -0.9058 -0.1122 0.4085
vn -0.9951 0.0660 -0.0736
vn -0.6793 0.1426 0.7199
vn -0.0201 -0.9061 -0.4226
vn 0.7692 -0.5601 -0.3077
vn 0.7599 -0.5768 -0.2997
vn -0.0085 -0.8743 -0.4853
vn 0.9652 0.2545 -0.0596
vn 0.9857 -0.0421 -0.1634
vn 0.6579 0.7515 0.0490
vn 0.0782 0.9949 0.0633
vn -0.1294 -0.9302 0.3434
vn 0.3930 -0.8481 0.3553
vn 0.6213 0.5955 0.5094
vn 0.0063 0.8677 0.4970
vn 0.9271 -0.0048 0.3747
vn 0.9221 -0.3291 0.2033
vn 0.5752 -0.8094 0.1182
vn -0.0964 -0.9930 0.0683
vn 0.7015 0.6981 0.1432
vn 0.0691 0.9898 0.1249
vn 0.9880 0.1394 0.0662
vn 0.9686 -0.2482 -0.0130
vn 0.6247 -0.7805 -0.0258
vn -0.0711 -0.9912 -0.1117
vn 0.3772 -0.2311 -0.8968
vn 0.5909 0.3390 -0.7321
vn 0.6868 -0.6640 -0.2956
vn 0.4589 -0.6248 -0.6317
vn 0.1226 -0.1649 -0.9787
vn 0.1614 0.6309 -0.7589
vn -0.0359 -0.9424 -0.3325
vn 0.0278 -0.7465 -0.6648
vn 0.0159 -0.3655 0.9307
vn 0.3533 -0.1945 0.9151
vn 0.6038 0.1280 0.7868
vn 0.9832 0.0793 0.1643
vn 0.7131 -0.2400 0.6587
vn 0.8676 0.3738 0.3278
vn 0.8950 0.3640 -0.2578
vn 0.7957 0.2702 -0.5421
vn 0.7134 0.3769 -0.5908
vn 0.3552 0.6540 -0.6680
vn 0.7055 0.4987 -0.5036
vn -0.0114 0.6731 -0.7395
vn -0.4539 -0.1696 0.8748
vn -0.5817 0.2891 0.7603
vn -0.9057 0.4206 0.0532
vn -0.9853 0.0964 0.1411
vn -0.7966 0.2324 -0.5580
vn -0.7962 0.2797 -0.5365
vn -0.6932 0.1425 -0.7065
vn -0.7281 0.0544 -0.6833
vn -0.8212 0.2974 -0.4870
vn -0.8224 0.0906 -0.5616
vn -0.4120 0.8840 0.2211
vn -0.3461 0.9232 -0.1672
vn -0.5007 0.7608 -0.4129
vn -0.5758 0.6813 -0.4520
vn 0.0317 -0.7300 0.6828
vn -0.1457 -0.9299 0.3377
vn 0.6747 -0.0497 -0.7364
vn 0.8452 0.1976 -0.4966
vn 0.1824 -0.5076 0.8420
vn 0.8712 0.4459 -0.2054
vn -0.4305 -0.7109 0.5562
vn -0.4559 -0.7849 0.4197
vn -0.5456 -0.3302 0.7703
vn -0.3610 -0.7380 0.5701
vn -0.6634 0.4661 -0.5854
vn -0.9283 0.1705 -0.3303
vn 0.9541 -0.0507 -0.2953
vn 0.4847 -0.4379 -0.7572
vn 0.8017 -0.4575 -0.3847
vn 0.9578 -0.2553 -0.1319
vn 0.3189 0.1974 0.9270
vn 0.9509 -0.1878 -0.2460
vn -0.6660 -0.6171 0.4191
vn -0.7608 -0.5310 0.3732
vn -0.6801 0.4052 -0.6109
vn -0.8451 0.2879 -0.4504
vn -0.9081 -0.4016 -0.1187
vn -0.9892 -0.0532 -0.1366
vn -0.9940 -0.0959 0.0522
vn -0.7638 -0.4210 0.4893
vn -0.3785 -0.8037 0.4592
vn -0.5817 -0.7267 0.3655
vn -0.8017 0.1563 0.5769
vn -0.4171 0.4123 0.8099
vn -0.0892 0.8821 0.4625
vn 0.0267 0.9933 -0.1122
vn -0.1090 0.8893 -0.4441
vn -0.2754 0.7169 -0.6405
vn -0.3318 0.6105 -0.7191
vn -0.2911 0.2012 -0.9353
vn -0.3969 0.5233 -0.7541
vn -0.2670 -0.0460 0.9626
vn -0.1530 -0.3973 0.9048
vn -0.4016 -0.6976 0.5933
vn -0.4201 -0.5811 0.6970
vn -0.3524 -0.7439 0.5679
vn -0.7341 -0.0938 0.6725
vn -0.6898 -0.5350 0.4878
vn -0.5223 0.4599 0.7181
vn -0.8639 -0.3351 -0.3760
vn -0.9754 0.2064 -0.0772
vn -0.4515 0.8435 0.2911
vn -0.6636 0.4695 -0.5824
vn -0.7575 0.6209 -0.2017
vn -0.8492 0.4682 0.2444
vn -0.8430 0.0405 0.5363
vn -0.2863 -0.6590 0.6955
vn 0.9874 0.1197 -0.1037
vn 0.3098 0.5507 -0.7751
vn 0.8612 -0.5001 0.0909
vn -0.5463 0.1437 -0.8251
vn -0.9032 0.1940 -0.3829
vn -0.9955 0.0926 0.0217
vn -0.7332 -0.1724 0.6577
vn 0.0570 -0.3819 0.9225
vn 0.9920 0.0984 -0.0791
vn 0.8791 0.1931 -0.4357
vn 0.9238 -0.0568 0.3786
vn -0.4594 0.0864 -0.8840
vn -0.8999 -0.0238 -0.4355
vn -0.9751 -0.1752 0.1362
vn -0.6456 -0.3838 0.6602
vn -0.1363 -0.5479 0.8254
vn 0.9693 -0.1282 -0.2097
vn 0.7323 0.0752 -0.6768
vn 0.6815 -0.4709 0.5602
vn -0.3123 -0.0176 -0.9498
vn -0.1978 -0.4236 -0.8840
vn -0.7906 -0.4239 -0.4418
vn -0.8903 -0.1576 -0.4273
vn -0.9390 -0.3375 0.0665
vn -0.9568 -0.2669 0.1149
vn -0.6409 -0.4008 0.6547
vn -0.6926 0.0585 0.7189
vn -0.1619 0.8242 0.5427
vn -0.1304 -0.0738 0.9887
vn 0.8439 0.1321 -0.5200
vn 0.6793 0.5857 -0.4422
vn 0.6682 0.2173 -0.7116
vn 0.6019 0.1264 -0.7885
vn 0.3127 0.9470 -0.0741
vn 0.9441 0.0550 0.3251
vn -0.5964 0.0571 0.8007
vn -0.6348 0.2033 0.7454
vn -0.0428 0.7222 0.6904
vn 0.0064 0.7423 0.6701
vn -0.7464 -0.4016 0.5308
vn -0.8610 -0.2182 0.4594
vn -0.6407 -0.7587 0.1182
vn -0.8560 -0.5060 0.1060
vn -0.0709 -0.8197 -0.5683
vn -0.2755 -0.6193 -0.7352
vn 0.8474 -0.0415 -0.5293
vn 0.7463 -0.2372 -0.6219
vn 0.8461 0.2558 -0.4676
vn 0.9331 0.0127 -0.3594
vn 0.7699 0.6234 -0.1368
vn 0.8985 0.3848 -0.2115
vn -0.6193 0.0412 0.7841
vn -0.1324 0.7133 0.6883
vn -0.7165 -0.5153 0.4703
vn -0.5830 -0.8122 0.0198
vn 0.0397 -0.8205 -0.5703
vn 0.7393 0.0585 -0.6708
vn 0.7571 0.4238 -0.4971
vn 0.5701 0.8215 0.0111
vn -0.6892 0.1524 0.7084
vn -0.2247 0.8012 0.5546
vn -0.8027 -0.4588 0.3811
vn -0.7117 -0.6951 -0.1015
vn -0.0293 -0.6855 -0.7275
vn 0.6813 0.1660 -0.7129
vn 0.7014 0.5113 -0.4967
vn 0.3999 0.9159 -0.0350
vn -0.9210 -0.3554 0.1597
vn -0.8593 -0.1796 0.4788
vn -0.6406 0.0627 0.7653
vn -0.5397 0.5228 0.6598
vn -0.3683 0.4182 0.8303
vn 0.8120 0.5674 0.1368
vn 0.8522 0.5176 -0.0763
vn 0.8250 0.2224 -0.5196
vn 0.5687 -0.0678 -0.8197
vn -0.8485 -0.4240 0.3166
vn -0.7657 -0.3050 0.5663
vn -0.6051 -0.1467 0.7825
vn 0.9135 0.3942 0.1010
vn 0.4764 -0.1628 -0.8640
vn 0.9732 0.0483 0.2250
vn -0.0894 -0.1930 0.9771
vn -0.8377 -0.5459 0.0111
vn 0.5163 -0.2591 -0.8163
vn -0.9112 -0.4067 0.0655
vn -0.2467 0.0979 0.9641
vn 0.9500 0.3037 0.0728
vn 0.0248 -0.3799 -0.9247
vn 0.1069 -0.3535 -0.9293
vn -0.3327 -0.1525 -0.9306
vn -0.4940 -0.1383 -0.8584
vn -0.5351 -0.0162 -0.8446
vn -0.5621 -0.0281 -0.8266
vn -0.8542 0.0271 -0.5192
vn -0.8258 0.0919 -0.5564
vn -0.9986 0.0530 0.0085
vn -0.9912 0.0538 0.1213
vn -0.7193 0.0657 0.6916
vn -0.5799 0.2274 0.7823
vn -0.2735 0.1432 0.9511
vn 0.0582 0.1615 0.9852
vn 0.0482 0.2695 0.9618
vn 0.3738 0.1385 0.9171
vn 0.3471 -0.2844 -0.8936
vn 0.3992 -0.2733 -0.8752
vn -0.0803 -0.1351 -0.9876
vn -0.2008 -0.1114 -0.9733
vn -0.5617 -0.0542 -0.8256
vn -0.5574 -0.0422 -0.8292
vn -0.8750 -0.0397 -0.4825
vn -0.8298 0.0323 -0.5571
vn -0.9914 -0.0229 -0.1292
vn -0.9996 -0.0158 -0.0242
vn -0.8433 -0.0120 0.5373
vn -0.8647 0.1363 0.4834
vn -0.5983 -0.0216 0.8010
vn -0.4741 0.0304 0.8799
vn 0.9432 -0.3029 0.1362
vn 0.9371 -0.3391 0.0826
vn 0.7703 -0.3577 -0.5280
vn 0.7287 -0.3846 -0.5666
vn 0.8417 -0.1758 0.5105
vn 0.8254 -0.2526 0.5049
vn 0.5725 -0.0883 0.8151
vn 0.5281 -0.1876 0.8282
vn 0.0304 0.0650 0.9974
vn -0.1546 -0.0737 0.9852
vn 0.5157 0.0556 -0.8550
vn 0.5183 0.3900 -0.7611
vn -0.1126 0.2912 -0.9500
vn -0.0069 -0.0193 -0.9998
vn -0.8385 0.1176 -0.5321
vn -0.7175 0.0531 -0.6945
vn -0.9328 0.0018 -0.3604
vn -0.9099 0.0048 -0.4147
vn -0.9768 -0.0582 -0.2063
vn -0.9809 -0.0395 -0.1904
vn -0.8461 -0.2224 0.4844
vn -0.8596 -0.0928 0.5024
vn -0.5853 -0.2586 0.7685
vn -0.6240 -0.1237 0.7716
vn 0.9917 0.0071 0.1285
vn 0.9447 0.2978 0.1375
vn 0.7898 0.4158 -0.4509
vn 0.8501 0.0917 -0.5186
vn 0.8528 -0.0578 0.5190
vn 0.8238 0.1272 0.5524
vn 0.5258 -0.1001 0.8447
vn 0.5456 -0.0264 0.8377
vn -0.2182 -0.1485 0.9645
vn -0.2026 -0.2332 0.9511
vn 0.4417 0.3507 -0.8258
vn 0.4345 0.2945 -0.8512
vn -0.0497 0.1922 -0.9801
vn -0.1133 0.3261 -0.9385
vn -0.6732 -0.0708 -0.7361
vn -0.7460 -0.0394 -0.6648
vn -0.8122 -0.1407 -0.5662
vn -0.8493 -0.1439 -0.5080
vn -0.8943 -0.1619 -0.4173
vn -0.9398 -0.2278 -0.2547
vn -0.9679 -0.1285 0.2158
vn -0.8102 -0.4015 0.4271
vn -0.6972 0.0308 0.7162
vn -0.5689 -0.4034 0.7167
vn 0.9741 0.1903 0.1224
vn 0.9811 0.1661 0.0995
vn 0.7836 0.2977 -0.5453
vn 0.8043 0.3531 -0.4779
vn 0.8529 -0.0007 0.5220
vn 0.8684 0.0120 0.4957
vn 0.6373 -0.1300 0.7596
vn 0.7770 -0.0312 0.6288
vn -0.1183 -0.3465 0.9306
vn 0.1735 -0.0591 0.9831
vn 0.4866 0.2120 -0.8475
vn 0.0761 0.1329 -0.9882
vn -0.6699 -0.1776 -0.7209
vn -0.7589 -0.1433 -0.6352
vn -0.8097 -0.0819 -0.5811
vn -0.5024 0.8239 -0.2622
vn -0.0828 0.9865 0.1411
vn 0.9106 0.1827 0.3708
vn 0.8304 0.2742 -0.4850
vn 0.8137 0.1558 0.5601
vn 0.7821 0.1474 0.6054
vn 0.4068 0.7593 0.5079
vn 0.5099 -0.3157 -0.8002
vn 0.2143 -0.3552 -0.9099
vn -0.3569 -0.7410 -0.5688
vn -0.4078 -0.7722 -0.4872
vn -0.4912 -0.7754 -0.3967
vn -0.3785 -0.7249 -0.5756
vn -0.5912 0.6744 -0.4424
vn -0.5938 -0.7287 -0.3411
vn -0.4085 -0.8937 0.1854
vn -0.2768 0.9202 0.2769
vn 0.8440 -0.4471 0.2961
vn 0.8488 -0.2412 -0.4705
vn 0.5136 -0.8231 0.2424
vn 0.4916 -0.8332 0.2531
vn 0.6711 -0.5573 0.4889
vn 0.3788 -0.6071 0.6986
vn 0.4382 0.6300 0.6412
vn 0.0471 -0.9760 -0.2124
vn -0.0243 -0.9855 -0.1678
vn -0.0533 -0.9826 -0.1781
vn -0.0908 -0.9921 -0.0867
vn 0.9841 -0.1776 -0.0002
vn 0.9601 -0.2595 0.1042
vn 0.7047 -0.3854 -0.5957
vn 0.6569 -0.4287 -0.6203
vn 0.9516 -0.1234 0.2814
vn 0.8685 -0.0854 0.4882
vn 0.7651 0.5859 0.2670
vn 0.5927 0.1628 0.7888
vn -0.7361 -0.4460 -0.5091
vn -0.7398 -0.4281 -0.5190
vn -0.8960 0.1225 -0.4269
vn -0.8544 0.4137 -0.3144
vn -0.5083 0.8535 -0.1143
vn -0.6135 -0.7601 0.2144
vn -0.6257 0.7045 0.3348
vn -0.9809 0.1621 0.1076
vn -0.9847 -0.1623 -0.0636
vn -0.7148 -0.6966 -0.0624
vn -0.5845 0.8106 -0.0368
vn -0.9299 0.3071 -0.2023
vn -0.9560 -0.0798 -0.2824
vn -0.7174 -0.6630 -0.2136
vn -0.1521 -0.1848 -0.9709
vn -0.3688 -0.5524 -0.7476
vn -0.6829 -0.5442 -0.4874
vn -0.3023 0.4171 -0.8571
vn -0.3225 -0.1709 0.9310
vn -0.5441 0.1880 0.8177
vn -0.9760 0.0963 0.1951
vn -0.7251 -0.2512 0.6412
vn -0.8903 0.3537 0.2867
vn -0.8772 0.3628 -0.3143
vn -0.8297 0.2746 -0.4861
vn -0.7616 0.3858 -0.5207
vn -0.3683 0.6626 -0.6521
vn -0.7349 0.4484 -0.5088
vn -0.7810 -0.5076 -0.3639
vn -0.5302 -0.4493 -0.7191
vn -0.3216 -0.2371 -0.9167
vn -0.6567 -0.2164 -0.7224
vn -0.5301 -0.4493 -0.7191
vn -0.2800 -0.4136 -0.8663
vn -0.3014 -0.3300 -0.8946
vn 0.2223 -0.9367 0.2706
vn 0.3014 0.3300 0.8946
vn 0.9272 0.1173 -0.3557
vn -0.9272 -0.1173 0.3557
vn 0.5882 -0.5209 0.6186
vn 0.5396 -0.1717 0.8242
vn -0.3478 -0.9291 -0.1259
vn -0.7275 0.3862 -0.5671
vn 0.9860 -0.1345 0.0990
vn 0.9970 -0.0690 -0.0352
vn 0.9789 -0.1630 -0.1233
vn 0.9943 -0.0555 -0.0915
vn 0.6513 -0.0018 -0.7588
vn 0.5686 -0.2109 -0.7952
vn -0.2578 -0.3195 -0.9118
vn -0.4149 -0.0615 -0.9078
vn -0.0449 -0.3295 0.9431
vn 0.0850 -0.0710 0.9938
vn -0.5308 -0.0522 0.8459
vn -0.5099 -0.0725 0.8572
vn -0.9809 0.1347 0.1401
vn -0.9878 0.1175 0.1026
vn -0.8012 0.0964 -0.5906
vn -0.8060 0.0255 -0.5913
vn -0.7289 0.0358 -0.6837
vn -0.6507 0.0231 -0.7590
vn -0.6147 0.0619 -0.7863
vn -0.5247 -0.1737 -0.8334
vn -0.5299 -0.5826 0.6163
vn 0.6589 0.7498 0.0606
vn -0.0058 -0.2702 -0.9628
vn -0.6537 -0.2379 0.7184
vn -0.9977 -0.0606 -0.0313
vn -0.9904 -0.1290 0.0495
vn -0.9953 -0.0640 -0.0720
vn -0.9771 -0.1534 -0.1477
vn 0.0038 0.0708 -0.9975
vn 0.2644 0.2166 -0.9398
vn 0.3616 -0.1618 -0.9182
vn -0.0062 -0.1817 -0.9833
vn -0.9947 -0.0178 -0.1010
vn -0.9623 -0.1082 -0.2494
vn 0.1181 -0.3317 0.9360
vn -0.1556 -0.1427 0.9775
vn 0.4982 -0.0445 0.8659
vn 0.4645 -0.0471 0.8843
vn 0.9807 0.0662 0.1840
vn 0.9538 0.0658 0.2930
vn 0.8531 0.0805 -0.5155
vn 0.8703 0.0138 -0.4923
vn 0.6881 0.0483 -0.7240
vn 0.6914 -0.0450 -0.7211
vn 0.6246 0.1408 -0.7682
vn 0.5412 -0.1841 -0.8205
vn 0.0215 -0.6265 0.7792
vn -0.0141 -0.5127 -0.8584
vn 0.0220 0.1935 -0.9809
vn 0.0037 -0.8305 -0.5569
vn -0.1883 0.8593 -0.4755
vn -0.4200 0.5516 -0.7206
vn 0.0115 0.6291 -0.7772
vn -0.8594 0.2878 -0.4227
vn -0.9607 0.2146 -0.1763
vn -0.3838 -0.4564 0.8028
vn 0.0121 -0.5460 0.8377
vn 0.4057 0.5629 -0.7202
vn 0.8256 0.3743 -0.4222
vn 0.9660 0.1955 -0.1690
vn 0.3969 -0.4646 0.7916
usemtl (null)
s 1
f 1/1/1 2/2/2 3/3/3 4/4/4
f 5/5/5 6/6/6 7/7/7 8/8/8
f 9/9/9 10/10/10 6/6/6 5/5/5
f 3/3/3 2/2/2 10/11/10 9/12/9
f 11/13/11 12/14/12 13/15/13 14/16/14
f 15/17/15 16/18/16 17/19/17 18/20/18
f 19/21/19 20/22/20 16/18/16 15/17/15
f 21/23/21 22/24/22 23/25/23 24/26/24
f 12/14/12 25/27/25 26/28/26 13/15/13
f 27/29/27 28/30/28 29/31/29 30/32/30
f 31/33/31 32/34/32 28/30/28 27/29/27
f 33/35/33 34/36/34 22/24/22 21/23/21
f 25/27/25 35/37/35 36/38/36 26/28/26
f 37/39/37 38/40/38 35/37/35 25/27/25
f 34/36/34 39/41/39 38/42/38 37/43/37
f 40/44/40 39/41/39 34/36/34 33/35/33
f 41/45/41 24/26/24 23/25/23 42/46/42
f 43/47/43 42/46/42 23/25/23 44/48/44
f 45/49/45 43/50/43 44/51/44 11/13/11
f 46/52/46 45/49/45 11/13/11 14/16/14
f 47/53/47 46/52/46 14/16/14 13/15/13
f 48/54/48 47/53/47 13/15/13 26/28/26
f 49/55/49 48/54/48 26/28/26 36/38/36
f 50/56/50 51/57/51 8/8/8 7/7/7
f 52/58/52 53/59/53 1/1/1 4/4/4
f 54/60/54 55/61/55 40/44/40 33/35/33
f 56/62/56 54/60/54 33/35/33 21/23/21
f 41/45/41 56/62/56 21/23/21 24/26/24
f 57/63/57 41/45/41 42/46/42 58/64/58
f 59/65/59 60/66/60 61/67/61 62/68/62
f 63/69/63 59/65/59 62/68/62 64/70/64
f 65/71/65 66/72/66 46/52/46 47/53/47
f 67/73/67 65/71/65 47/53/47 48/54/48
f 68/74/68 67/73/67 48/54/48 49/55/49
f 69/75/69 70/76/70 51/57/51 50/56/50
f 71/77/71 72/78/72 53/59/53 52/58/52
f 73/79/73 74/80/74 55/61/55 54/60/54
f 75/81/75 73/79/73 54/60/54 56/62/56
f 57/63/57 75/81/75 56/62/56 41/45/41
f 58/64/58 42/46/42 76/82/76 77/83/77
f 42/46/42 43/47/43 78/84/78 76/82/76
f 43/50/43 45/49/45 79/85/79 78/86/78
f 45/49/45 80/87/80 81/88/81 79/85/79
f 12/89/12 11/90/11 82/91/82 83/92/83
f 11/90/11 44/93/44 84/94/84 82/91/82
f 23/95/23 22/96/22 85/97/85 86/98/86
f 44/93/44 23/95/23 86/98/86 84/94/84
f 37/99/37 25/100/25 87/101/87 88/102/88
f 25/100/25 12/89/12 83/92/83 87/101/87
f 22/96/22 34/103/34 89/104/89 85/97/85
f 34/103/34 37/105/37 88/106/88 89/104/89
f 83/92/83 82/91/82 90/107/90 91/108/91
f 82/91/82 84/94/84 92/109/92 90/107/90
f 86/98/86 85/97/85 93/110/93 94/111/94
f 84/94/84 86/98/86 94/111/94 92/109/92
f 88/102/88 87/101/87 95/112/95 96/113/96
f 87/101/87 83/92/83 91/108/91 95/112/95
f 85/97/85 89/104/89 97/114/97 93/110/93
f 89/104/89 88/106/88 96/115/96 97/114/97
f 91/108/91 90/107/90 98/116/98 99/117/99
f 90/107/90 92/109/92 100/118/100 98/116/98
f 94/111/94 93/110/93 101/119/101 102/120/102
f 92/109/92 94/111/94 102/120/102 100/118/100
f 96/113/96 95/112/95 103/121/103 104/122/104
f 95/112/95 91/108/91 99/117/99 103/121/103
f 93/110/93 97/114/97 105/123/105 101/119/101
f 97/114/97 96/115/96 104/124/104 105/123/105
f 106/125/106 107/126/107 108/127/108 109/128/109
f 107/126/107 110/129/110 111/130/111 108/127/108
f 112/131/112 113/132/113 114/133/114 115/134/115
f 110/129/110 112/131/112 115/134/115 111/130/111
f 116/135/116 117/136/117 118/137/118 119/138/119
f 117/136/117 106/125/106 109/128/109 118/137/118
f 113/132/113 120/139/120 121/140/121 114/133/114
f 120/139/120 116/141/116 119/142/119 121/140/121
f 122/143/122 123/144/123 124/145/124 125/146/125
f 126/147/126 122/143/122 125/146/125 127/148/127
f 128/149/128 126/147/126 127/148/127 129/150/129
f 130/151/130 128/149/128 129/150/129 131/152/131
f 132/153/132 130/151/130 131/152/131 133/154/133
f 134/155/134 132/156/132 133/157/133 135/158/135
f 136/159/136 134/155/134 135/158/135 137/160/137
f 123/144/123 136/161/136 137/162/137 124/145/124
f 138/163/138 139/164/139 123/165/123 122/166/122
f 140/167/140 138/163/138 122/166/122 126/168/126
f 141/169/141 140/167/140 126/168/126 128/170/128
f 142/171/142 141/169/141 128/170/128 130/172/130
f 143/173/143 142/171/142 130/172/130 132/174/132
f 144/175/144 143/173/143 132/174/132 134/176/134
f 145/177/145 144/178/144 134/179/134 136/180/136
f 139/164/139 145/177/145 136/180/136 123/165/123
f 146/181/146 147/182/147 139/164/139 138/163/138
f 148/183/148 146/181/146 138/163/138 140/167/140
f 149/184/149 148/183/148 140/167/140 141/169/141
f 150/185/150 149/184/149 141/169/141 142/171/142
f 151/186/151 150/185/150 142/171/142 143/173/143
f 152/187/152 151/186/151 143/173/143 144/175/144
f 153/188/153 152/189/152 144/178/144 145/177/145
f 147/182/147 153/188/153 145/177/145 139/164/139
f 131/152/131 129/150/129 154/190/154 30/191/30
f 129/150/129 127/148/127 155/192/155 154/190/154
f 125/146/125 124/145/124 31/193/31 156/194/156
f 127/148/127 125/146/125 156/194/156 155/192/155
f 135/158/135 133/157/133 29/31/29 28/30/28
f 133/154/133 131/152/131 30/191/30 29/195/29
f 157/196/157 158/197/158 159/198/159 160/199/160
f 137/160/137 135/158/135 28/30/28 32/34/32
f 27/29/27 30/32/30 161/200/161 162/201/162
f 30/191/30 154/190/154 163/202/163 161/203/161
f 154/190/154 155/192/155 164/204/164 163/202/163
f 156/194/156 31/193/31 165/205/165 166/206/166
f 31/33/31 27/29/27 162/201/162 165/207/165
f 155/192/155 156/194/156 166/206/166 164/204/164
f 162/201/162 161/200/161 17/208/17 16/209/16
f 161/203/161 163/202/163 18/20/18 17/19/17
f 163/202/163 164/204/164 15/17/15 18/20/18
f 166/206/166 165/205/165 20/22/20 19/21/19
f 165/207/165 162/201/162 16/209/16 20/210/20
f 164/204/164 166/206/166 19/21/19 15/17/15
f 124/145/124 137/162/137 158/197/158 157/196/157
f 137/160/137 32/34/32 159/211/159 158/212/158
f 167/213/167 168/214/168 169/215/169 170/216/170
f 31/193/31 124/145/124 157/196/157 160/199/160
f 32/34/32 31/33/31 171/217/171 172/218/172
f 31/193/31 160/199/160 173/219/173 171/220/171
f 160/199/160 159/198/159 174/221/174 173/219/173
f 159/211/159 32/34/32 172/218/172 174/222/174
f 172/218/172 171/217/171 168/223/168 167/224/167
f 171/220/171 173/219/173 169/215/169 168/214/168
f 173/219/173 174/221/174 170/216/170 169/215/169
f 174/222/174 172/218/172 167/224/167 170/225/170
f 650/226/175 646/227/176 175/228/177 176/229/178
f 646/227/176 654/230/179 177/231/180 175/228/177
f 654/230/179 649/232/181 178/233/182 177/231/180
f 649/234/181 653/235/183 179/236/184 178/237/182
f 653/235/183 652/238/185 180/239/186 179/236/184
f 652/238/185 648/240/187 181/241/188 180/239/186
f 648/240/187 651/242/189 183/243/190 181/241/188
f 690/244/191 689/245/192 184/246/193 185/247/194
f 689/245/192 693/248/195 186/249/196 184/246/193
f 693/248/195 691/250/197 187/251/198 186/249/196
f 691/252/197 684/253/199 188/254/200 187/255/198
f 684/253/199 686/256/201 189/257/202 188/254/200
f 686/256/201 683/258/203 190/259/204 189/257/202
f 687/260/205 685/261/206 193/262/207 194/263/208
f 685/261/206 690/244/191 185/247/194 193/262/207
f 682/264/209 687/260/205 194/263/208 196/265/210
f 692/266/211 682/267/209 196/268/210 198/269/212
f 688/270/213 692/266/211 198/269/212 199/271/214
f 683/258/203 688/270/213 199/271/214 190/259/204
f 200/272/215 201/273/216 202/274/217 203/275/218
f 201/273/216 204/276/219 205/277/220 202/274/217
f 204/276/219 206/278/221 207/279/222 205/277/220
f 206/280/221 208/281/223 209/282/224 207/283/222
f 208/281/223 210/284/225 211/285/226 209/282/224
f 210/284/225 212/286/227 213/287/228 211/285/226
f 214/288/229 215/289/230 216/290/231 217/291/232
f 215/289/230 200/272/215 203/275/218 216/290/231
f 218/292/233 214/288/229 217/291/232 219/293/234
f 220/294/235 218/295/233 219/296/234 221/297/236
f 222/298/237 220/294/235 221/297/236 223/299/238
f 212/286/227 222/298/237 223/299/238 213/287/228
f 224/300/239 225/301/240 226/302/241 227/303/242
f 225/301/240 228/304/243 229/305/244 226/302/241
f 228/304/243 230/306/245 231/307/246 229/305/244
f 230/306/245 232/308/247 233/309/248 231/307/246
f 232/308/247 234/310/249 235/311/250 233/309/248
f 234/310/249 236/312/251 237/313/252 235/311/250
f 238/314/253 239/315/254 240/316/255 241/317/256
f 239/315/254 224/318/239 227/319/242 240/316/255
f 242/320/257 238/314/253 241/317/256 243/321/258
f 244/322/259 242/320/257 243/321/258 245/323/260
f 246/324/261 244/322/259 245/323/260 247/325/262
f 236/312/251 246/324/261 247/325/262 237/313/252
f 227/303/242 226/302/241 248/326/263 249/327/264
f 226/302/241 229/305/244 250/328/265 248/326/263
f 229/305/244 231/307/246 251/329/266 250/328/265
f 231/307/246 233/309/248 252/330/267 251/329/266
f 233/309/248 235/311/250 253/331/268 252/330/267
f 235/311/250 237/313/252 254/332/269 253/331/268
f 241/317/256 240/316/255 255/333/270 256/334/271
f 240/316/255 227/319/242 249/335/264 255/333/270
f 243/321/258 241/317/256 256/334/271 257/336/272
f 245/323/260 243/321/258 257/336/272 258/337/273
f 247/325/262 245/323/260 258/337/273 259/338/274
f 237/313/252 247/325/262 259/338/274 254/332/269
f 249/327/264 248/326/263 260/339/275 261/340/276
f 248/326/263 250/328/265 260/339/275
f 250/328/265 251/329/266 262/341/277 260/339/278
f 251/329/266 252/330/267 263/342/279 262/341/277
f 252/330/267 253/331/268 264/343/280 263/342/279
f 265/344/281 266/345/282 267/346/283 268/347/284
f 256/334/271 255/333/270 269/348/285 270/349/286
f 255/333/270 249/335/264 261/350/276 269/348/285
f 257/336/272 256/334/271 270/349/286 271/351/287
f 258/337/273 257/336/272 271/351/287 272/352/288
f 259/338/274 258/337/273 272/352/288 273/353/289
f 266/345/282 274/354/290 275/355/291 267/346/283
f 261/356/276 276/357/292 270/358/286 269/359/285
f 260/360/278 276/357/292 261/356/276
f 276/357/292 260/360/278 262/361/277 277/362/293
f 270/358/286 276/357/292 277/362/293 271/363/287
f 277/362/293 262/361/277 263/364/279 278/365/294
f 271/363/287 277/362/293 278/365/294 272/366/288
f 278/365/294 263/364/279 264/367/280 279/368/295
f 272/366/288 278/365/294 279/368/295 273/369/289
f 253/331/268 254/332/269 266/345/282 265/344/281
f 279/368/295 264/367/280 268/370/284 267/371/283
f 264/343/280 253/331/268 265/344/281 268/347/284
f 254/332/269 259/338/274 274/354/290 266/345/282
f 259/338/274 273/353/289 275/355/291 274/354/290
f 273/369/289 279/368/295 267/371/283 275/372/291
f 66/72/66 80/87/80 45/49/45 46/52/46
f 657/373/296 647/374/297 192/375/298 191/376/299
f 647/374/300 650/226/175 176/229/178 192/375/298
f 655/377/301 657/373/296 191/376/299 195/378/302
f 656/379/303 655/380/301 195/381/302 197/382/304
f 651/242/189 656/379/303 197/382/304 183/243/190
f 283/383/305 284/384/306 285/385/307 286/386/308
f 76/387/76 78/388/78 287/389/309 288/390/310
f 78/388/78 79/391/79 289/392/311 287/389/309
f 79/391/79 81/393/81 290/394/312 289/392/311
f 76/387/76 288/390/310 285/385/307 284/384/306
f 61/67/61 60/66/60 291/395/313 292/396/314
f 293/397/315 294/398/316 63/69/63 64/70/64
f 295/399/317 293/397/315 64/70/64 62/68/62
f 296/400/318 295/399/317 62/68/62 61/67/61
f 297/401/319 296/400/318 61/67/61 292/396/314
f 298/402/320 297/401/319 292/396/314 291/395/313
f 299/403/321 300/404/322 294/398/316 293/397/315
f 301/405/323 299/403/321 293/397/315 295/399/317
f 302/406/324 301/405/323 295/399/317 296/400/318
f 303/407/325 302/406/324 296/400/318 297/401/319
f 304/408/326 303/407/325 297/401/319 298/402/320
f 289/392/311 290/394/312 300/404/322 299/403/321
f 287/389/309 289/392/311 299/403/321 301/405/323
f 288/390/310 287/389/309 301/405/323 302/406/324
f 285/385/307 288/390/310 302/406/324 303/407/325
f 286/386/308 285/385/307 303/407/325 304/408/326
f 305/409/327 306/410/328 307/411/329 308/412/330
f 306/410/328 305/409/327 309/413/331 310/414/332
f 308/412/330 307/411/329 311/415/333 312/416/334
f 309/413/331 305/409/327 308/412/330 312/416/334
f 77/417/77 76/387/76 306/410/328 310/414/332
f 76/387/76 284/384/306 307/411/329 306/410/328
f 284/384/306 283/383/305 311/415/333 307/411/329
f 100/118/100 102/120/102 112/131/112 110/129/110
f 98/116/98 100/118/100 110/129/110 107/126/107
f 99/117/99 98/116/98 107/126/107 106/125/106
f 103/121/103 99/117/99 106/125/106 117/136/117
f 104/122/104 103/121/103 117/136/117 116/135/116
f 105/123/105 104/124/104 116/141/116 120/139/120
f 101/119/101 105/123/105 120/139/120 113/132/113
f 102/120/102 101/119/101 113/132/113 112/131/112
f 111/130/111 115/134/115 146/181/146 148/183/148
f 108/127/108 111/130/111 148/183/148 149/184/149
f 109/128/109 108/127/108 149/184/149 150/185/150
f 118/137/118 109/128/109 150/185/150 151/186/151
f 119/138/119 118/137/118 151/186/151 152/187/152
f 121/140/121 119/142/119 152/189/152 153/188/153
f 114/133/114 121/140/121 153/188/153 147/182/147
f 115/134/115 114/133/114 147/182/147 146/181/146
f 188/254/200 189/257/202 210/284/225 208/281/223
f 187/255/198 188/254/200 208/281/223 206/280/221
f 186/249/196 187/251/198 206/278/221 204/276/219
f 184/246/193 186/249/196 204/276/219 201/273/216
f 185/247/194 184/246/193 201/273/216 200/272/215
f 193/262/207 185/247/194 200/272/215 215/289/230
f 194/263/208 193/262/207 215/289/230 214/288/229
f 196/265/210 194/263/208 214/288/229 218/292/233
f 198/269/212 196/268/210 218/295/233 220/294/235
f 199/271/214 198/269/212 220/294/235 222/298/237
f 190/259/204 199/271/214 222/298/237 212/286/227
f 189/257/202 190/259/204 212/286/227 210/284/225
f 209/282/224 211/285/226 234/418/249 232/419/247
f 207/283/222 209/282/224 232/419/247 230/420/245
f 205/277/220 207/279/222 230/421/245 228/422/243
f 202/274/217 205/277/220 228/422/243 225/423/240
f 203/275/218 202/274/217 225/423/240 224/424/239
f 216/290/231 203/275/218 224/424/239 239/425/254
f 217/291/232 216/290/231 239/425/254 238/426/253
f 219/293/234 217/291/232 238/426/253 242/427/257
f 221/297/236 219/296/234 242/428/257 244/429/259
f 223/299/238 221/297/236 244/429/259 246/430/261
f 213/287/228 223/299/238 246/430/261 236/431/251
f 211/285/226 213/287/228 236/431/251 234/418/249
f 703/432/335 71/77/71 52/58/52 699/433/336
f 699/433/336 52/58/52 4/4/4 701/434/337
f 710/435/338 39/41/39 40/44/40 716/436/339
f 694/437/340 3/3/3 9/12/9 700/438/341
f 700/439/341 9/9/9 5/5/5 707/440/342
f 707/440/342 5/5/5 8/8/8 709/441/343
f 723/442/344 49/55/49 36/38/36 722/443/345
f 725/444/346 68/74/68 49/55/49 723/442/344
f 313/445/347 314/446/348 315/447/349 316/448/350
f 317/449/351 318/450/352 319/451/353 320/452/354
f 321/453/355 317/449/351 320/452/354 322/454/356
f 315/447/349 321/455/355 322/456/356 316/448/350
f 323/457/357 324/458/358 325/459/359 326/460/360
f 327/461/361 328/462/362 329/463/363 330/464/364
f 331/465/365 327/461/361 330/464/364 332/466/366
f 333/467/367 334/468/368 335/469/369 336/470/370
f 326/460/360 325/459/359 337/471/371 338/472/372
f 339/473/373 340/474/374 341/475/375 342/476/376
f 343/477/377 339/473/373 342/476/376 344/478/378
f 345/479/379 333/467/367 336/470/370 346/480/380
f 338/472/372 337/471/371 347/481/381 348/482/382
f 349/483/383 338/472/372 348/482/382 350/484/384
f 346/480/380 349/485/383 350/486/384 351/487/385
f 352/488/386 345/479/379 346/480/380 351/487/385
f 353/489/387 354/490/388 335/469/369 334/468/368
f 355/491/389 356/492/390 335/469/369 354/490/388
f 357/493/391 323/457/357 356/494/390 355/495/389
f 358/496/392 324/458/358 323/457/357 357/493/391
f 359/497/393 325/459/359 324/458/358 358/496/392
f 360/498/394 337/471/371 325/459/359 359/497/393
f 361/499/395 347/481/381 337/471/371 360/498/394
f 362/500/396 319/451/353 318/450/352 363/501/397
f 364/502/398 314/446/348 313/445/347 365/503/399
f 366/504/400 345/479/379 352/488/386 367/505/401
f 368/506/402 333/467/367 345/479/379 366/504/400
f 353/489/387 334/468/368 333/467/367 368/506/402
f 57/63/57 58/64/58 354/490/388 353/489/387
f 59/65/59 369/507/403 370/508/404 60/66/60
f 63/69/63 371/509/405 369/507/403 59/65/59
f 65/71/65 359/497/393 358/496/392 66/72/66
f 67/73/67 360/498/394 359/497/393 65/71/65
f 68/74/68 361/499/395 360/498/394 67/73/67
f 69/75/69 362/500/396 363/501/397 70/76/70
f 71/77/71 364/502/398 365/503/399 72/78/72
f 73/79/73 366/504/400 367/505/401 74/80/74
f 75/81/75 368/506/402 366/504/400 73/79/73
f 57/63/57 353/489/387 368/506/402 75/81/75
f 58/64/58 77/83/77 372/510/406 354/490/388
f 354/490/388 372/510/406 373/511/407 355/491/389
f 355/495/389 373/512/407 374/513/408 357/493/391
f 357/493/391 374/513/408 81/88/81 80/87/80
f 326/514/360 375/515/409 376/516/410 323/517/357
f 323/517/357 376/516/410 377/518/411 356/519/390
f 335/520/369 378/521/412 379/522/413 336/523/370
f 356/519/390 377/518/411 378/521/412 335/520/369
f 349/524/383 380/525/414 381/526/415 338/527/372
f 338/527/372 381/526/415 375/515/409 326/514/360
f 336/523/370 379/522/413 382/528/416 346/529/380
f 346/529/380 382/528/416 380/530/414 349/531/383
f 375/515/409 383/532/417 384/533/418 376/516/410
f 376/516/410 384/533/418 385/534/419 377/518/411
f 378/521/412 386/535/420 387/536/421 379/522/413
f 377/518/411 385/534/419 386/535/420 378/521/412
f 380/525/414 388/537/422 389/538/423 381/526/415
f 381/526/415 389/538/423 383/532/417 375/515/409
f 379/522/413 387/536/421 390/539/424 382/528/416
f 382/528/416 390/539/424 388/540/422 380/530/414
f 383/532/417 391/541/425 392/542/426 384/533/418
f 384/533/418 392/542/426 393/543/427 385/534/419
f 386/535/420 394/544/428 395/545/429 387/536/421
f 385/534/419 393/543/427 394/544/428 386/535/420
f 388/537/422 396/546/430 397/547/431 389/538/423
f 389/538/423 397/547/431 391/541/425 383/532/417
f 387/536/421 395/545/429 398/548/432 390/539/424
f 390/539/424 398/548/432 396/549/430 388/540/422
f 399/550/433 400/551/434 401/552/435 402/553/436
f 402/553/436 401/552/435 403/554/437 404/555/438
f 405/556/439 406/557/440 407/558/441 408/559/442
f 404/555/438 403/554/437 406/557/440 405/556/439
f 409/560/443 410/561/444 411/562/445 412/563/446
f 412/563/446 411/562/445 400/551/434 399/550/433
f 408/559/442 407/558/441 413/564/447 414/565/448
f 414/565/448 413/564/447 410/566/444 409/567/443
f 415/568/449 416/569/450 417/570/451 418/571/452
f 419/572/453 420/573/454 416/569/450 415/568/449
f 421/574/455 422/575/456 420/573/454 419/572/453
f 423/576/457 424/577/458 422/575/456 421/574/455
f 425/578/459 426/579/460 424/577/458 423/576/457
f 427/580/461 428/581/462 426/582/460 425/583/459
f 429/584/463 430/585/464 428/581/462 427/580/461
f 418/571/452 417/570/451 430/586/464 429/587/463
f 431/588/465 415/589/449 418/590/452 432/591/466
f 433/592/467 419/593/453 415/589/449 431/588/465
f 434/594/468 421/595/455 419/593/453 433/592/467
f 435/596/469 423/597/457 421/595/455 434/594/468
f 436/598/470 425/599/459 423/597/457 435/596/469
f 437/600/471 427/601/461 425/599/459 436/598/470
f 438/602/472 429/603/463 427/604/461 437/605/471
f 432/591/466 418/590/452 429/603/463 438/602/472
f 439/606/473 431/588/465 432/591/466 440/607/474
f 441/608/475 433/592/467 431/588/465 439/606/473
f 442/609/476 434/594/468 433/592/467 441/608/475
f 443/610/477 435/596/469 434/594/468 442/609/476
f 444/611/478 436/598/470 435/596/469 443/610/477
f 445/612/479 437/600/471 436/598/470 444/611/478
f 446/613/480 438/602/472 437/605/471 445/614/479
f 440/607/474 432/591/466 438/602/472 446/613/480
f 424/577/458 340/615/374 447/616/481 422/575/456
f 422/575/456 447/616/481 448/617/482 420/573/454
f 416/569/450 449/618/483 343/619/377 417/570/451
f 420/573/454 448/617/482 449/618/483 416/569/450
f 428/581/462 342/476/376 341/475/375 426/582/460
f 426/579/460 341/620/375 340/615/374 424/577/458
f 450/621/484 451/622/485 452/623/486 453/624/487
f 430/585/464 344/478/378 342/476/376 428/581/462
f 339/473/373 454/625/488 455/626/489 340/474/374
f 340/615/374 455/627/489 456/628/490 447/616/481
f 447/616/481 456/628/490 457/629/491 448/617/482
f 449/618/483 458/630/492 459/631/493 343/619/377
f 343/477/377 459/632/493 454/625/488 339/473/373
f 448/617/482 457/629/491 458/630/492 449/618/483
f 454/625/488 330/633/364 329/634/363 455/626/489
f 455/627/489 329/463/363 328/462/362 456/628/490
f 456/628/490 328/462/362 327/461/361 457/629/491
f 458/630/492 331/465/365 332/466/366 459/631/493
f 459/632/493 332/635/366 330/633/364 454/625/488
f 457/629/491 327/461/361 331/465/365 458/630/492
f 417/570/451 450/621/484 453/624/487 430/586/464
f 430/585/464 453/636/487 452/637/486 344/478/378
f 460/638/494 461/639/495 462/640/496 463/641/497
f 343/619/377 451/622/485 450/621/484 417/570/451
f 344/478/378 464/642/498 465/643/499 343/477/377
f 343/619/377 465/644/499 466/645/500 451/622/485
f 451/622/485 466/645/500 467/646/501 452/623/486
f 452/637/486 467/647/501 464/642/498 344/478/378
f 464/642/498 460/648/494 463/649/497 465/643/499
f 465/644/499 463/641/497 462/640/496 466/645/500
f 466/645/500 462/640/496 461/639/495 467/646/501
f 467/647/501 461/650/495 460/648/494 464/642/498
f 667/651/502 468/652/503 469/653/504 661/654/505
f 661/654/505 469/653/504 470/655/506 663/656/507
f 663/656/507 470/655/506 471/657/508 669/658/509
f 669/659/509 471/660/508 472/661/510 664/662/511
f 664/662/511 472/661/510 473/663/512 658/664/513
f 658/664/513 473/663/512 474/665/514 666/666/515
f 666/666/515 474/665/514 475/667/516 660/668/517
f 679/669/518 476/670/519 477/671/520 670/672/521
f 670/672/521 477/671/520 478/673/522 678/674/523
f 678/674/523 478/673/522 479/675/524 677/676/525
f 677/677/525 479/678/524 480/679/526 671/680/527
f 671/680/527 480/679/526 481/681/528 673/682/529
f 673/682/529 481/681/528 482/683/530 674/684/531
f 675/685/532 484/686/533 485/687/534 676/688/535
f 676/688/535 485/687/534 476/670/519 679/669/518
f 672/689/536 488/690/537 484/686/533 675/685/532
f 680/691/538 490/692/539 488/693/537 672/694/536
f 681/695/540 491/696/541 490/692/539 680/691/538
f 674/684/531 482/683/530 491/696/541 681/695/540
f 492/697/542 493/698/543 494/699/544 495/700/545
f 495/700/545 494/699/544 496/701/546 497/702/547
f 497/702/547 496/701/546 498/703/548 499/704/549
f 499/705/549 498/706/548 500/707/550 501/708/551
f 501/708/551 500/707/550 502/709/552 503/710/553
f 503/710/553 502/709/552 504/711/554 505/712/555
f 506/713/556 507/714/557 508/715/558 509/716/559
f 509/716/559 508/715/558 493/698/543 492/697/542
f 510/717/560 511/718/561 507/714/557 506/713/556
f 512/719/562 513/720/563 511/721/561 510/722/560
f 514/723/564 515/724/565 513/720/563 512/719/562
f 505/712/555 504/711/554 515/724/565 514/723/564
f 516/725/566 517/726/567 518/727/568 519/728/569
f 519/728/569 518/727/568 520/729/570 521/730/571
f 521/730/571 520/729/570 522/731/572 523/732/573
f 523/732/573 522/731/572 524/733/574 525/734/575
f 525/734/575 524/733/574 526/735/576 527/736/577
f 527/736/577 526/735/576 528/737/578 529/738/579
f 530/739/580 531/740/581 532/741/582 533/742/583
f 533/742/583 532/741/582 517/743/567 516/744/566
f 534/745/584 535/746/585 531/740/581 530/739/580
f 536/747/586 537/748/587 535/746/585 534/745/584
f 538/749/588 539/750/589 537/748/587 536/747/586
f 529/738/579 528/737/578 539/750/589 538/749/588
f 517/726/567 540/751/590 541/752/591 518/727/568
f 518/727/568 541/752/591 542/753/592 520/729/570
f 520/729/570 542/753/592 543/754/593 522/731/572
f 522/731/572 543/754/593 544/755/594 524/733/574
f 524/733/574 544/755/594 545/756/595 526/735/576
f 526/735/576 545/756/595 546/757/596 528/737/578
f 531/740/581 547/758/597 548/759/598 532/741/582
f 532/741/582 548/759/598 540/760/590 517/743/567
f 535/746/585 549/761/599 547/758/597 531/740/581
f 537/748/587 550/762/600 549/761/599 535/746/585
f 539/750/589 551/763/601 550/762/600 537/748/587
f 528/737/578 546/757/596 551/763/601 539/750/589
f 540/751/590 552/764/602 553/765/603 541/752/591
f 541/752/591 553/765/604 542/753/592
f 542/753/592 553/765/604 554/766/605 543/754/593
f 543/754/593 554/766/605 555/767/606 544/755/594
f 544/755/594 555/767/606 556/768/607 545/756/595
f 557/769/608 558/770/609 559/771/610 560/772/611
f 547/758/597 561/773/612 562/774/613 548/759/598
f 548/759/598 562/774/613 552/775/602 540/760/590
f 549/761/599 563/776/614 561/773/612 547/758/597
f 550/762/600 564/777/615 563/776/614 549/761/599
f 551/763/601 565/778/616 564/777/615 550/762/600
f 560/772/611 559/771/610 566/779/617 567/780/618
f 552/781/602 562/782/613 561/783/612 568/784/619
f 553/785/603 552/781/602 568/784/619
f 568/784/619 569/786/620 554/787/605 553/785/604
f 561/783/612 563/788/614 569/786/620 568/784/619
f 569/786/620 570/789/621 555/790/606 554/787/605
f 563/788/614 564/791/615 570/789/621 569/786/620
f 570/789/621 571/792/622 556/793/607 555/790/606
f 564/791/615 565/794/616 571/792/622 570/789/621
f 545/756/595 557/769/608 560/772/611 546/757/596
f 571/792/622 559/795/610 558/796/609 556/793/607
f 556/768/607 558/770/609 557/769/608 545/756/595
f 546/757/596 560/772/611 567/780/618 551/763/601
f 551/763/601 567/780/618 566/779/617 565/778/616
f 565/794/616 566/797/617 559/795/610 571/792/622
f 66/72/66 358/496/392 357/493/391 80/87/80
f 662/798/623 483/799/624 486/800/625 665/801/626
f 665/801/626 486/800/625 468/652/503 667/651/502
f 668/802/627 487/803/628 483/799/624 662/798/623
f 659/804/629 489/805/630 487/806/628 668/807/627
f 660/668/517 475/667/516 489/805/630 659/804/629
f 283/383/305 286/386/308 572/808/631 573/809/632
f 372/810/406 574/811/633 575/812/634 373/813/407
f 373/813/407 575/812/634 576/814/635 374/815/408
f 374/815/408 576/814/635 290/394/312 81/393/81
f 372/810/406 573/809/632 572/808/631 574/811/633
f 370/508/404 577/816/636 291/395/313 60/66/60
f 578/817/637 371/509/405 63/69/63 294/398/316
f 579/818/638 369/507/403 371/509/405 578/817/637
f 580/819/639 370/508/404 369/507/403 579/818/638
f 581/820/640 577/816/636 370/508/404 580/819/639
f 298/402/320 291/395/313 577/816/636 581/820/640
f 582/821/641 578/817/637 294/398/316 300/404/322
f 583/822/642 579/818/638 578/817/637 582/821/641
f 584/823/643 580/819/639 579/818/638 583/822/642
f 585/824/644 581/820/640 580/819/639 584/823/643
f 304/408/326 298/402/320 581/820/640 585/824/644
f 576/814/635 582/821/641 300/404/322 290/394/312
f 575/812/634 583/822/642 582/821/641 576/814/635
f 574/811/633 584/823/643 583/822/642 575/812/634
f 572/808/631 585/824/644 584/823/643 574/811/633
f 286/386/308 304/408/326 585/824/644 572/808/631
f 586/825/645 587/826/646 588/827/647 589/828/648
f 589/828/648 310/414/332 309/413/331 586/825/645
f 587/826/646 312/416/334 311/415/333 588/827/647
f 309/413/331 312/416/334 587/826/646 586/825/645
f 77/417/77 310/414/332 589/828/648 372/810/406
f 372/810/406 589/828/648 588/827/647 573/809/632
f 573/809/632 588/827/647 311/415/333 283/383/305
f 393/543/427 404/555/438 405/556/439 394/544/428
f 392/542/426 402/553/436 404/555/438 393/543/427
f 391/541/425 399/550/433 402/553/436 392/542/426
f 397/547/431 412/563/446 399/550/433 391/541/425
f 396/546/430 409/560/443 412/563/446 397/547/431
f 398/548/432 414/565/448 409/567/443 396/549/430
f 395/545/429 408/559/442 414/565/448 398/548/432
f 394/544/428 405/556/439 408/559/442 395/545/429
f 403/554/437 441/608/475 439/606/473 406/557/440
f 401/552/435 442/609/476 441/608/475 403/554/437
f 400/551/434 443/610/477 442/609/476 401/552/435
f 411/562/445 444/611/478 443/610/477 400/551/434
f 410/561/444 445/612/479 444/611/478 411/562/445
f 413/564/447 446/613/480 445/614/479 410/566/444
f 407/558/441 440/607/474 446/613/480 413/564/447
f 406/557/440 439/606/473 440/607/474 407/558/441
f 480/679/526 501/708/551 503/710/553 481/681/528
f 479/678/524 499/705/549 501/708/551 480/679/526
f 478/673/522 497/702/547 499/704/549 479/675/524
f 477/671/520 495/700/545 497/702/547 478/673/522
f 476/670/519 492/697/542 495/700/545 477/671/520
f 485/687/534 509/716/559 492/697/542 476/670/519
f 484/686/533 506/713/556 509/716/559 485/687/534
f 488/690/537 510/717/560 506/713/556 484/686/533
f 490/692/539 512/719/562 510/722/560 488/693/537
f 491/696/541 514/723/564 512/719/562 490/692/539
f 482/683/530 505/712/555 514/723/564 491/696/541
f 481/681/528 503/710/553 505/712/555 482/683/530
f 500/707/550 525/829/575 527/830/577 502/709/552
f 498/706/548 523/831/573 525/829/575 500/707/550
f 496/701/546 521/832/571 523/833/573 498/703/548
f 494/699/544 519/834/569 521/832/571 496/701/546
f 493/698/543 516/835/566 519/834/569 494/699/544
f 508/715/558 533/836/583 516/835/566 493/698/543
f 507/714/557 530/837/580 533/836/583 508/715/558
f 511/718/561 534/838/584 530/837/580 507/714/557
f 513/720/563 536/839/586 534/840/584 511/721/561
f 515/724/565 538/841/588 536/839/586 513/720/563
f 504/711/554 529/842/579 538/841/588 515/724/565
f 502/709/552 527/830/577 529/842/579 504/711/554
f 703/432/335 702/843/649 364/502/398 71/77/71
f 702/843/649 698/844/650 314/446/348 364/502/398
f 711/845/651 713/846/652 352/488/386 351/487/385
f 696/847/653 705/848/654 321/455/355 315/447/349
f 705/849/654 697/850/655 317/449/351 321/453/355
f 697/850/655 708/851/656 318/450/352 317/449/351
f 724/852/657 721/853/658 347/481/381 361/499/395
f 725/444/346 724/852/657 361/499/395 68/74/68
f 590/854/659 591/855/660 592/856/661 593/857/662
f 594/858/663 590/859/664 593/860/665 595/861/665
f 596/862/666 594/863/666 595/864/666 597/865/666
f 592/866/667 591/867/667 596/868/667 597/869/667
f 595/870/668 593/871/668 592/872/668 597/873/668
f 590/874/669 594/875/669 596/876/669 591/877/669
f 624/878/670 600/879/671 599/880/672 623/881/673
f 623/881/673 599/880/672 608/882/674 632/883/675
f 632/884/675 608/885/674 602/886/676 626/887/677
f 629/888/678 605/889/679 607/890/680 631/891/681
f 626/887/677 602/886/676 605/889/679 629/888/678
f 630/892/682 606/893/683 600/879/671 624/878/670
f 622/894/684 598/895/685 606/893/683 630/892/682
f 628/896/686 604/897/687 598/895/685 622/894/684
f 633/898/688 609/899/689 604/897/687 628/896/686
f 627/900/690 603/901/691 609/902/689 633/903/688
f 625/904/692 601/905/693 603/901/691 627/900/690
f 631/891/681 607/890/680 601/905/693 625/904/692
f 642/906/694 635/907/695 618/908/696 616/909/697
f 635/907/695 634/910/698 612/911/699 618/908/696
f 634/912/698 636/913/700 620/914/701 612/915/699
f 638/916/702 641/917/703 615/918/704 611/919/705
f 636/913/700 638/916/706 611/919/707 620/914/701
f 639/920/708 642/906/694 616/909/697 613/921/709
f 643/922/710 639/920/708 613/921/709 617/923/711
f 644/924/712 643/922/710 617/923/711 619/925/713
f 640/926/714 644/924/712 619/925/713 614/927/715
f 645/928/716 640/929/714 614/930/715 621/931/717
f 637/932/718 645/928/716 621/931/717 610/933/719
f 641/917/703 637/932/718 610/933/719 615/918/704
f 362/934/396 631/891/681 625/904/692 319/935/353
f 319/935/353 625/904/692 627/900/690 320/936/354
f 320/936/354 627/900/690 633/903/688 322/937/356
f 322/938/356 633/898/688 628/896/686 316/939/350
f 316/939/350 628/896/686 622/894/684 313/940/347
f 313/940/347 622/894/684 630/892/682 365/941/399
f 365/941/399 630/892/682 624/878/670 182/942/720 72/943/72
f 280/944/721 626/887/677 629/888/678 69/945/722
f 69/945/722 629/888/678 631/891/681 362/934/396
f 281/946/723 632/884/675 626/887/677 280/944/721
f 282/947/724 623/881/673 632/883/675 281/948/723
f 182/942/720 624/878/670 623/881/673 282/947/724
f 50/949/50 7/950/7 637/932/718 641/917/703
f 7/950/7 6/951/6 645/928/716 637/932/718
f 6/951/6 10/952/10 640/929/714 645/928/716
f 10/953/10 2/954/2 644/924/712 640/926/714
f 2/954/2 1/955/1 643/922/710 644/924/712
f 1/955/1 53/956/53 639/920/708 643/922/710
f 53/956/53 72/943/72 182/942/720 642/906/694 639/920/708
f 280/944/721 69/945/722 638/916/706 636/913/700
f 69/945/69 50/949/50 641/917/703 638/916/702
f 281/946/723 280/944/721 636/913/700 634/912/698
f 282/947/724 281/948/723 634/910/698 635/907/695
f 182/942/720 282/947/724 635/907/695 642/906/694
f 616/909/697 618/908/696 656/379/303 651/242/189
f 618/908/696 612/911/699 655/380/301 656/379/303
f 612/915/699 620/914/701 657/373/296 655/377/301
f 611/919/705 615/918/704 650/226/175 647/374/300
f 620/914/701 611/919/707 647/374/297 657/373/296
f 613/921/709 616/909/697 651/242/189 648/240/187
f 617/923/711 613/921/709 648/240/187 652/238/185
f 619/925/713 617/923/711 652/238/185 653/235/183
f 614/927/715 619/925/713 653/235/183 649/234/181
f 621/931/717 614/930/715 649/232/181 654/230/179
f 610/933/719 621/931/717 654/230/179 646/227/176
f 615/918/704 610/933/719 646/227/176 650/226/175
f 600/879/671 660/668/517 659/804/629 599/880/672
f 599/880/672 659/804/629 668/807/627 608/882/674
f 608/885/674 668/802/627 662/798/623 602/886/676
f 605/889/679 665/801/626 667/651/502 607/890/680
f 602/886/676 662/798/623 665/801/626 605/889/679
f 606/893/683 666/666/515 660/668/517 600/879/671
f 598/895/685 658/664/513 666/666/515 606/893/683
f 604/897/687 664/662/511 658/664/513 598/895/685
f 609/899/689 669/659/509 664/662/511 604/897/687
f 603/901/691 663/656/507 669/658/509 609/902/689
f 601/905/693 661/654/505 663/656/507 603/901/691
f 607/890/680 667/651/502 661/654/505 601/905/693
f 474/665/514 674/684/531 681/695/540 475/667/516
f 475/667/516 681/695/540 680/691/538 489/805/630
f 489/805/630 680/691/538 672/694/536 487/806/628
f 487/803/628 672/689/536 675/685/532 483/799/624
f 486/800/625 676/688/535 679/669/518 468/652/503
f 483/799/624 675/685/532 676/688/535 486/800/625
f 473/663/512 673/682/529 674/684/531 474/665/514
f 472/661/510 671/680/527 673/682/529 473/663/512
f 471/660/508 677/677/525 671/680/527 472/661/510
f 470/655/506 678/674/523 677/676/525 471/657/508
f 469/653/504 670/672/521 678/674/523 470/655/506
f 468/652/503 679/669/518 670/672/521 469/653/504
f 181/241/188 183/243/190 688/270/213 683/258/203
f 183/243/190 197/382/304 692/266/211 688/270/213
f 197/382/304 195/381/302 682/267/209 692/266/211
f 195/378/302 191/376/299 687/260/205 682/264/209
f 192/375/298 176/229/178 690/244/191 685/261/206
f 191/376/299 192/375/298 685/261/206 687/260/205
f 180/239/186 181/241/188 683/258/203 686/256/201
f 179/236/184 180/239/186 686/256/201 684/253/199
f 178/237/182 179/236/184 684/253/199 691/252/197
f 177/231/180 178/233/182 691/250/197 693/248/195
f 175/228/177 177/231/180 693/248/195 689/245/192
f 176/229/178 175/228/177 689/245/192 690/244/191
f 70/76/70 363/501/397 704/957/725 706/958/726
f 363/501/397 318/450/352 708/851/656 704/957/725
f 712/959/727 721/853/658 708/851/656 697/850/655
f 719/960/728 712/959/727 697/850/655 705/849/654
f 711/845/651 719/961/728 705/848/654 696/847/653
f 315/447/349 314/446/348 698/844/650 696/847/653
f 717/962/729 713/846/652 698/844/650 702/843/649
f 718/963/730 717/962/729 702/843/649 703/432/335
f 70/76/70 706/958/726 695/964/731 51/57/51
f 51/57/51 695/964/731 709/441/343 8/8/8
f 720/965/732 707/440/342 709/441/343 722/443/345
f 715/966/733 700/439/341 707/440/342 720/965/732
f 710/435/338 694/437/340 700/438/341 715/967/733
f 3/3/3 694/437/340 701/434/337 4/4/4
f 714/968/734 699/433/336 701/434/337 716/436/339
f 718/963/730 703/432/335 699/433/336 714/968/734
f 74/80/74 718/963/730 714/968/734 55/61/55
f 55/61/55 714/968/734 716/436/339 40/44/40
f 39/41/39 710/435/338 715/967/733 38/42/38
f 38/40/38 715/966/733 720/965/732 35/37/35
f 35/37/35 720/965/732 722/443/345 36/38/36
f 74/80/74 367/505/401 717/962/729 718/963/730
f 367/505/401 352/488/386 713/846/652 717/962/729
f 351/487/385 350/486/384 719/961/728 711/845/651
f 350/484/384 348/482/382 712/959/727 719/960/728
f 348/482/382 347/481/381 721/853/658 712/959/727
f 706/958/726 704/957/725 724/852/657 725/444/346
f 704/957/725 708/851/656 721/853/658 724/852/657
f 696/847/653 698/844/650 713/846/652 711/845/651
f 706/958/726 725/444/346 723/442/344 695/964/731
f 695/964/731 723/442/344 722/443/345 709/441/343
f 694/437/340 710/435/338 716/436/339 701/434/337
