# Blender v2.78 (sub 0) OBJ File: 'PhoneAddict.blend'
# www.blender.org
mtllib PhoneAddictBakedMaybe.mtl
o enemy:Mesh6
v 0.452688 2.523865 0.267434
v 0.552891 2.561822 0.141324
v 0.537562 2.617114 0.130723
v 0.446951 2.578750 0.260508
v 0.387582 2.637311 -0.139815
v 0.401790 2.576891 -0.138764
v 0.291355 2.745926 -0.260655
v 0.286128 2.818547 -0.228982
v 0.499380 2.617798 -0.038818
v 0.516181 2.563144 -0.032246
v 0.495239 3.804999 1.076682
v 0.500484 3.658855 0.694279
v 0.375659 3.681221 0.614616
v 0.358041 3.820988 0.927606
v 0.550546 1.516943 0.561676
v 0.520715 1.573817 0.575644
v 0.555438 1.571679 0.438574
v 0.585602 1.527055 0.442630
v 0.527234 1.535778 0.683345
v 0.498927 1.589263 0.707435
v 0.434040 3.358764 1.059565
v 0.515842 3.441251 1.115771
v 0.526862 3.514122 1.282723
v 0.428627 3.453566 1.198346
v 0.482091 3.515681 0.502881
v 0.376714 3.477134 0.289309
v 0.593039 1.802068 0.670246
v 0.551445 1.870336 0.659840
v 0.601158 1.882402 0.515063
v 0.642121 1.839198 0.488811
v 0.569818 1.825696 0.803347
v 0.531624 1.880798 0.784321
v 0.426427 3.159771 0.736318
v 0.509652 3.362218 0.955138
v 0.375240 2.997961 0.011691
v 0.224187 3.149332 -0.005893
v 0.505000 3.386253 0.736202
v 0.418386 3.126417 0.314555
v 0.430633 2.966056 0.324367
v 0.403558 2.843930 0.349056
v 0.206172 3.359206 1.228014
v 0.131628 3.364230 1.288373
v 0.182256 3.557942 1.419877
v 0.512798 3.651157 1.274110
v 0.169500 3.739898 1.307529
v 0.217526 3.879487 0.920899
v 0.231237 3.704048 0.497951
v 0.238928 3.522024 0.210702
v 0.147832 3.190766 -0.052814
v 0.165545 2.889473 -0.323423
v 0.161942 2.943054 -0.282775
v 0.229741 2.524298 0.320348
v 0.232770 2.475914 0.307140
v 0.251733 2.908024 0.570804
v 0.215878 2.749532 0.450370
v 0.245377 3.136762 0.908674
v -0.038141 3.256701 1.156715
v -0.060829 3.344061 1.253945
v -0.225437 3.260586 2.292103
v -0.225383 3.116846 2.204550
v -0.039381 3.107322 2.171704
v -0.041352 3.241289 2.249602
v -0.205591 3.395745 2.236356
v -0.073387 3.356072 2.235936
v -0.005743 3.635737 0.460878
v -0.005220 3.844796 0.958506
v -0.005625 3.501347 0.193719
v -0.005372 3.203488 -0.071154
v -0.010246 2.898710 -0.309823
v -0.009596 2.962611 -0.270306
v -0.009856 2.478323 0.365518
v -0.010440 2.429341 0.344512
v -0.005383 2.815737 0.612279
v -0.007675 2.706277 0.504720
v -0.003329 3.048100 0.873320
v 0.044040 3.248091 1.517655
v -0.108093 3.307972 1.506605
v 0.036572 3.418943 1.666133
v 0.012251 3.531284 1.706183
v -0.043941 3.693161 1.289128
v -0.110398 3.574777 1.684741
v 0.590753 3.775340 1.048431
v 0.633401 3.625481 0.728295
v 0.589272 3.659566 1.194578
v 0.577496 3.512594 1.152639
v 0.584233 3.561812 1.253235
v 0.620321 3.399869 0.629609
v 0.603101 3.430186 0.893610
v 0.581488 3.415029 1.029368
v 0.785127 3.453209 0.766100
v 0.719031 3.199473 0.637939
v 0.807785 3.426267 0.953113
v 0.671951 3.217924 1.038685
v 0.740239 3.436503 1.085251
v 0.668679 3.037747 0.568073
v 0.601512 2.902829 0.743330
v 0.598020 2.970343 0.918944
v 0.841618 2.937797 0.653232
v 0.757746 2.875607 0.583800
v 0.824529 2.892184 0.777180
v 0.698402 2.774000 0.829919
v 0.794429 2.861398 0.836804
v 0.697811 2.837610 0.550707
v 0.630814 2.750912 0.692577
v 0.628789 2.731215 0.777158
v 0.760306 2.802040 0.569236
v 0.837865 2.862196 0.633109
v 0.835219 2.740008 0.579895
v 0.749391 2.670844 0.525631
v 0.819524 2.812061 0.746942
v 0.818433 2.728034 0.720311
v 0.793440 2.785022 0.789544
v 0.704939 2.714094 0.781301
v 0.694443 2.654726 0.790046
v 0.791056 2.718508 0.779801
v 0.647873 2.687607 0.670056
v 0.706870 2.768063 0.542213
v 0.689534 2.635400 0.509654
v 0.629869 2.601594 0.674547
v 0.644040 2.685066 0.730028
v 0.626741 2.616572 0.745053
v 0.701755 2.159785 0.790761
v 0.607960 2.125795 0.804060
v 0.589352 2.021264 0.833412
v 0.672619 1.983814 0.821928
v 0.734117 2.163462 0.692598
v 0.709111 1.976257 0.695607
v 0.757768 2.174950 0.561959
v 0.741297 2.005600 0.552004
v 0.671442 2.133437 0.536242
v 0.653561 1.984609 0.519889
v 0.609261 2.114006 0.525888
v 0.594617 1.988659 0.503022
v 0.554496 2.092870 0.670894
v 0.536653 1.970146 0.663131
v 0.540893 2.106251 0.774034
v 0.516590 2.010074 0.803941
v 0.754029 2.402631 0.796967
v 0.637812 2.341351 0.816826
v 0.791912 2.412712 0.692513
v 0.818538 2.428859 0.523794
v 0.712277 2.357955 0.491608
v 0.637854 2.323676 0.483198
v 0.568561 2.291161 0.668726
v 0.557499 2.307741 0.776061
v 0.784225 2.598970 0.783939
v 0.673761 2.531588 0.801241
v 0.817227 2.610323 0.704804
v 0.838151 2.625531 0.543110
v 0.740508 2.551637 0.494295
v 0.670715 2.512666 0.483056
v 0.603207 2.474447 0.668002
v 0.596912 2.490871 0.754710
v 0.700584 1.810659 0.518550
v 0.663468 1.768099 0.678799
v 0.634291 1.786514 0.792789
v 0.569109 1.966430 0.856447
v 0.498820 1.971653 0.832125
v 0.487711 1.840371 0.862966
v 0.539448 1.811812 0.885802
v 0.611607 1.642736 0.474551
v 0.577764 1.642816 0.620474
v 0.640149 1.598144 0.480701
v 0.605931 1.585881 0.606534
v 0.557057 1.658312 0.755683
v 0.584396 1.604245 0.730289
v 0.482836 1.674944 0.741993
v 0.520558 1.651565 0.748953
v 0.504309 1.613430 0.781824
v 0.463512 1.627966 0.769545
v 0.540664 1.746942 0.802766
v 0.511631 1.781999 0.791708
v 0.520726 1.735152 0.854233
v 0.484944 1.754723 0.839656
v 0.417300 1.874014 -0.101325
v 0.258027 1.821448 -0.116783
v 0.534429 1.844922 -0.025394
v 0.599740 1.834208 0.032914
v 0.610200 1.847838 0.137975
v 0.580784 1.844096 0.210894
v 0.431576 1.869087 0.271142
v -0.007400 2.316976 0.280124
v 0.294595 1.881934 0.258922
v 0.493687 1.328203 -0.017909
v 0.404805 1.282519 0.010768
v 0.547839 1.294706 0.015706
v 0.577931 1.267199 0.059404
v 0.603133 1.264623 0.135400
v 0.594898 1.251288 0.189915
v 0.512474 1.249735 0.271702
v 0.097907 1.824809 0.018524
v 0.159029 1.807813 -0.076788
v 0.327262 1.257539 0.073943
v 0.296194 1.252290 0.153136
v 0.131069 1.850042 0.105243
v 0.320037 1.250862 0.216213
v 0.184613 1.867419 0.216029
v 0.357432 1.246322 0.286148
v 0.424661 1.246695 0.304179
v 0.426252 1.210339 0.027071
v 0.506159 1.244872 0.003078
v 0.519827 1.181768 -0.008597
v 0.417469 1.165307 0.009224
v 0.554613 1.206182 0.042754
v 0.564939 1.139924 0.031083
v 0.578850 1.174760 0.087371
v 0.580036 1.101159 0.073940
v 0.595897 1.166023 0.150757
v 0.595741 1.074143 0.137920
v 0.589592 1.149763 0.198411
v 0.581515 1.051142 0.177942
v 0.518271 1.147473 0.266907
v 0.510359 1.053444 0.247333
v 0.323414 1.177784 0.157162
v 0.349725 1.188449 0.085299
v 0.330767 1.144364 0.068250
v 0.301925 1.129301 0.140492
v 0.344924 1.166975 0.214979
v 0.322853 1.109317 0.197842
v 0.378970 1.154202 0.280407
v 0.357879 1.081577 0.266525
v 0.437071 1.148607 0.297080
v 0.421070 1.063968 0.282074
v 0.304126 0.827359 -0.133348
v 0.487339 0.974610 -0.108521
v 0.256594 0.292018 -0.276774
v 0.184091 0.297216 -0.264949
v 0.508707 0.822719 -0.088300
v 0.279169 0.288513 -0.248458
v 0.499700 0.692535 -0.053697
v 0.310270 0.272041 -0.195214
v 0.515229 0.634482 0.011942
v 0.328683 0.255055 -0.135889
v 0.498767 0.609502 0.047615
v 0.317179 0.252425 -0.104754
v 0.424592 0.609697 0.116998
v 0.277008 0.263170 -0.026653
v 0.163140 0.764323 0.013180
v 0.197600 0.788372 -0.062111
v 0.135792 0.300293 -0.227729
v 0.118949 0.300761 -0.188694
v 0.184890 0.731124 0.071159
v 0.138306 0.294445 -0.133069
v 0.228369 0.678919 0.154298
v 0.186928 0.279444 -0.042673
v 0.308523 0.639132 0.166969
v 0.216435 0.272668 -0.002511
v 0.213229 0.195154 -0.327306
v 0.131483 0.203075 -0.307976
v 0.236410 0.184910 -0.300148
v 0.284465 0.170830 -0.239734
v 0.370412 0.150820 -0.080140
v 0.394141 0.189704 -0.020245
v 0.339604 0.182099 0.086519
v 0.074140 0.200553 -0.266617
v 0.061537 0.181518 -0.208134
v 0.134217 0.141202 -0.052958
v 0.207817 0.119765 0.078620
v 0.246699 0.178631 0.117745
v 0.181272 0.089531 -0.301442
v 0.109831 0.089581 -0.278492
v 0.235145 0.078328 -0.244074
v 0.408029 0.064230 -0.009324
v 0.431886 0.053936 0.057313
v 0.697892 0.159207 0.224844
v 0.585864 0.135773 0.371489
v 0.605904 0.032121 0.414863
v 0.716802 0.056900 0.261970
v 0.066941 0.087122 -0.251313
v 0.056512 0.073633 -0.210518
v 0.137537 0.039544 -0.041349
v 0.233166 0.023033 0.119977
v 0.278894 0.001931 0.196900
v 0.451941 0.126153 0.481056
v 0.468537 0.024187 0.519161
v 0.121811 0.078551 -0.247506
v 0.170577 0.062392 -0.170921
v 0.330811 0.046633 0.051680
v 0.370973 0.009620 0.164544
v -0.005335 2.731277 -0.159464
v -0.004872 2.596668 -0.019934
v -0.006224 2.347504 0.126230
v -0.139883 3.021358 1.553335
v -0.004920 3.108408 1.512725
v 0.022945 3.083521 1.617513
v -0.154595 2.982239 1.631698
v 0.071727 3.371065 1.820956
v 0.068006 3.197140 1.665318
v -0.020573 3.502968 1.851920
v -0.134509 3.544122 1.833102
v -0.211495 3.003224 2.039263
v -0.033983 3.035664 2.051188
v 0.004200 3.447864 2.150536
v -0.179510 3.515715 2.128143
v 0.057749 3.279948 2.118829
v 0.059060 3.149997 2.028404
v -0.017101 3.026449 1.928092
v -0.192588 2.983266 1.895960
v 0.018415 3.488529 2.000156
v -0.154065 3.560979 1.979024
v 0.083165 3.322547 1.965585
v 0.080956 3.163115 1.768497
v 0.010724 3.031766 1.724295
v -0.164055 2.948803 1.677063
v -0.043698 3.154803 1.416916
v -0.001841 3.182902 1.425264
v -0.034040 3.100747 1.480450
v -0.057350 3.095770 1.442497
v -0.106430 3.154216 1.401628
v -0.103819 3.209199 1.416839
v -0.128773 3.039964 1.487528
v -0.119523 3.062959 1.437241
v -0.481834 2.507641 0.273640
v -0.474816 2.563148 0.268534
v -0.557119 2.599691 0.134431
v -0.573938 2.544145 0.142595
v -0.384154 2.627152 -0.118046
v -0.298575 2.827850 -0.211798
v -0.306171 2.761793 -0.241134
v -0.397444 2.565532 -0.119133
v -0.502185 2.601782 -0.029351
v -0.519448 2.545793 -0.025107
v -0.506516 3.808587 1.064976
v -0.369026 3.818726 0.925057
v -0.385752 3.659853 0.614276
v -0.508811 3.631891 0.692396
v -0.518606 1.850209 1.496396
v -0.568672 1.781779 1.405215
v -0.535474 1.806001 1.370161
v -0.482154 1.895520 1.465773
v -0.477165 1.942951 1.569766
v -0.441128 1.992998 1.548821
v -0.444492 3.379645 1.061455
v -0.447501 3.475801 1.179081
v -0.545394 3.538111 1.259869
v -0.526092 3.473838 1.115904
v -0.391620 3.460173 0.296159
v -0.498509 3.491712 0.511362
v -0.517660 2.135575 1.377584
v -0.588653 2.045058 1.223400
v -0.542162 2.087101 1.210701
v -0.471634 2.172351 1.321038
v -0.475462 2.241787 1.455752
v -0.436742 2.264645 1.402277
v -0.443271 3.154150 0.752082
v -0.523342 3.361617 0.967554
v -0.234624 3.149527 -0.001401
v -0.382667 2.995714 0.021427
v -0.522979 3.371849 0.748565
v -0.433671 3.116091 0.327292
v -0.443311 2.959376 0.334154
v -0.416103 2.840508 0.353104
v -0.256707 3.381627 1.200636
v -0.242808 3.398649 1.245911
v -0.305901 3.596905 1.359225
v -0.536835 3.670524 1.242618
v -0.238350 3.771305 1.258854
v -0.227914 3.880430 0.918652
v -0.242385 3.692683 0.497250
v -0.251223 3.513421 0.213093
v -0.159553 3.191734 -0.051607
v -0.179662 2.899803 -0.315688
v -0.174795 2.950245 -0.274884
v -0.250667 2.517530 0.326894
v -0.254576 2.468736 0.313689
v -0.264470 2.904850 0.580982
v -0.229617 2.747089 0.454330
v -0.255111 3.141651 0.912537
v -0.390722 3.271823 2.199254
v -0.393524 3.138275 2.120668
v -0.337116 3.379123 2.197930
v -0.265126 3.275110 1.473239
v -0.270569 3.445787 1.621939
v -0.239683 3.553303 1.669946
v -0.640462 3.599896 0.725658
v -0.599019 3.775677 1.038638
v -0.601707 3.671088 1.175749
v -0.596514 3.584287 1.233066
v -0.586522 3.533549 1.148085
v -0.626673 3.416024 0.910079
v -0.646858 3.361360 0.650223
v -0.601188 3.416588 1.044428
v -0.766772 3.175350 0.674256
v -0.806136 3.445724 0.776846
v -0.831926 3.439312 0.964957
v -0.761414 3.454002 1.095389
v -0.715978 3.227154 1.075344
v -0.681576 2.879768 0.808441
v -0.733531 3.003296 0.620735
v -0.675030 2.966833 0.971282
v -0.839174 2.853599 0.650733
v -0.916206 2.930579 0.712889
v -0.904282 2.895542 0.840818
v -0.879155 2.868597 0.901246
v -0.796230 2.781224 0.898825
v -0.730481 2.741387 0.766252
v -0.783567 2.806376 0.622022
v -0.731386 2.736226 0.851479
v -0.850474 2.774461 0.641419
v -0.814925 2.607900 0.669894
v -0.924802 2.693562 0.666780
v -0.923193 2.848223 0.695551
v -0.918240 2.732706 0.795526
v -0.912329 2.813657 0.811117
v -0.891095 2.794810 0.853822
v -0.895643 2.743477 0.850969
v -0.801144 2.732741 0.878078
v -0.811517 2.743650 0.852650
v -0.745961 2.719514 0.763374
v -0.708648 2.681604 0.822055
v -0.743268 2.587709 0.683449
v -0.799548 2.732161 0.620428
v -0.722626 2.721691 0.862378
v -0.749165 2.731652 0.813250
v -0.643774 2.464045 1.220770
v -0.568154 2.377858 1.363215
v -0.485346 2.405396 1.342124
v -0.525592 2.462975 1.249217
v -0.676632 2.387609 1.149537
v -0.615243 2.290536 1.279171
v -0.687313 2.295491 1.049054
v -0.659078 2.216390 1.156941
v -0.591200 2.275207 1.054614
v -0.582861 2.171620 1.145031
v -0.526730 2.267762 1.057466
v -0.526998 2.154012 1.127914
v -0.465890 2.345990 1.174163
v -0.449753 2.244672 1.253417
v -0.450608 2.426891 1.238345
v -0.415517 2.370409 1.325862
v -0.792205 2.597150 1.056663
v -0.649159 2.613396 1.110911
v -0.810395 2.526255 0.980345
v -0.808030 2.415969 0.849499
v -0.682467 2.381488 0.869491
v -0.601339 2.377078 0.883034
v -0.547368 2.498609 1.035348
v -0.552449 2.583953 1.100560
v -0.875365 2.692236 0.909077
v -0.755060 2.698943 0.963738
v -0.896184 2.650179 0.844179
v -0.890020 2.560220 0.718285
v -0.762052 2.503821 0.739038
v -0.683496 2.492875 0.754044
v -0.644101 2.612730 0.909948
v -0.656839 2.678601 0.958234
v -0.641626 2.053569 1.266763
v -0.586980 2.127331 1.409978
v -0.542739 2.214425 1.477891
v -0.463105 2.379468 1.395987
v -0.437322 2.284649 1.523425
v -0.387399 2.283756 1.485168
v -0.396231 2.359836 1.372125
v -0.526063 1.984458 1.452083
v -0.579550 1.890221 1.348653
v -0.610857 1.867192 1.385128
v -0.560875 1.938854 1.482706
v -0.520942 2.032969 1.557967
v -0.485627 2.084477 1.537589
v -0.406844 2.081481 1.513178
v -0.387715 2.064450 1.564872
v -0.427373 2.067634 1.585351
v -0.444674 2.074360 1.535868
v -0.422311 2.195569 1.475540
v -0.452019 2.181422 1.508973
v -0.427348 2.205477 1.553360
v -0.392532 2.205057 1.527918
v -0.252064 1.811070 -0.107542
v -0.409873 1.858759 -0.099437
v -0.534136 1.827474 -0.036897
v -0.605127 1.815155 0.013979
v -0.626606 1.826241 0.117656
v -0.604962 1.820858 0.193149
v -0.464335 1.845729 0.267067
v -0.328184 1.860185 0.265104
v -0.405053 1.264359 -0.000832
v -0.491500 1.311045 -0.037103
v -0.548691 1.276534 -0.010144
v -0.583119 1.247833 0.029524
v -0.615917 1.243279 0.102209
v -0.613356 1.228676 0.156960
v -0.539568 1.225521 0.246731
v -0.109250 1.810348 0.041622
v -0.311440 1.230525 0.151154
v -0.334080 1.237579 0.069292
v -0.159424 1.795678 -0.057641
v -0.151034 1.832992 0.124628
v -0.341827 1.227745 0.211402
v -0.215006 1.847225 0.230412
v -0.386458 1.221734 0.277014
v -0.455367 1.221774 0.288016
v -0.426904 1.190295 0.010900
v -0.415823 1.141779 -0.007579
v -0.515994 1.161673 -0.035143
v -0.504809 1.226637 -0.019977
v -0.565546 1.118797 -0.001042
v -0.556985 1.186924 0.013520
v -0.585955 1.079438 0.039645
v -0.585837 1.154540 0.054737
v -0.608987 1.052286 0.101557
v -0.609755 1.144366 0.115931
v -0.599533 1.028673 0.142619
v -0.608196 1.127132 0.163518
v -0.535482 1.028593 0.218736
v -0.544145 1.123227 0.238901
v -0.337969 1.153826 0.150060
v -0.315018 1.101365 0.134235
v -0.335963 1.117880 0.059600
v -0.356563 1.166041 0.076045
v -0.365592 1.142177 0.205224
v -0.342223 1.081148 0.188972
v -0.406530 1.128531 0.266646
v -0.384832 1.053287 0.253480
v -0.466281 1.123160 0.277222
v -0.449797 1.036829 0.262393
v -0.298768 0.798324 -0.140921
v -0.181625 0.265515 -0.264028
v -0.252578 0.262389 -0.283161
v -0.478526 0.951344 -0.133753
v -0.277933 0.259472 -0.257280
v -0.506897 0.799518 -0.116732
v -0.314713 0.243743 -0.207477
v -0.505198 0.668955 -0.082428
v -0.339676 0.226863 -0.150671
v -0.528941 0.611063 -0.019146
v -0.331536 0.223746 -0.118564
v -0.516890 0.585431 0.017803
v -0.299407 0.233010 -0.036748
v -0.450116 0.583087 0.094300
v -0.175162 0.730420 0.018552
v -0.124537 0.267018 -0.181549
v -0.137318 0.267153 -0.222094
v -0.201143 0.755850 -0.059633
v -0.203600 0.697593 0.073783
v -0.149636 0.260961 -0.128147
v -0.256734 0.646287 0.151709
v -0.207678 0.246935 -0.043368
v -0.338875 0.608827 0.155932
v -0.241434 0.240855 -0.006542
v -0.127125 0.170463 -0.301897
v -0.206563 0.163344 -0.329589
v -0.232630 0.153400 -0.305009
v -0.287004 0.139835 -0.249998
v -0.389013 0.118540 -0.100433
v -0.419461 0.157618 -0.043984
v -0.376568 0.152885 0.068155
v -0.068292 0.148894 -0.195341
v -0.074441 0.167577 -0.254834
v -0.157161 0.112363 -0.047992
v -0.244026 0.092931 0.075567
v -0.287614 0.151715 0.109184
v -0.109498 0.057091 -0.269747
v -0.178417 0.057373 -0.300141
v -0.239017 0.047183 -0.248993
v -0.432470 0.032303 -0.032322
v -0.463185 0.022685 0.031551
v -0.747245 0.126052 0.167687
v -0.768449 0.024052 0.204415
v -0.674247 0.003692 0.368733
v -0.651270 0.106955 0.325890
v -0.063538 0.041542 -0.196389
v -0.069643 0.054614 -0.238203
v -0.160520 0.011273 -0.034982
v -0.271893 -0.003747 0.115693
v -0.325288 -0.024381 0.187643
v -0.548774 -0.000160 0.487275
v -0.529760 0.101443 0.449331
v -0.124615 0.046412 -0.240025
v -0.180359 0.031423 -0.168055
v -0.361989 0.017042 0.036913
v -0.413466 -0.018815 0.145474
v -0.301135 3.111846 1.570810
v -0.241217 3.129061 1.478710
v -0.337779 3.232606 1.606868
v -0.355364 3.408394 1.759408
v -0.254420 3.523407 1.818220
v -0.377028 3.065647 2.001751
v -0.370881 3.480647 2.096483
v -0.441127 3.323551 2.046936
v -0.439112 3.193538 1.956612
v -0.360044 3.056423 1.878670
v -0.335253 3.519440 1.949189
v -0.414950 3.366083 1.893801
v -0.384727 3.203816 1.701387
v -0.328313 3.061398 1.675436
v -0.169886 3.165831 1.398764
v -0.174167 3.105980 1.425682
v -0.205969 3.115774 1.455699
v -0.207006 3.200833 1.395760
v -0.609444 2.092952 1.257455
v -0.318918 2.411231 2.119488
v 0.207752 2.477680 1.917452
v -0.082775 2.159401 1.055419
v -0.577636 1.958824 1.296258
v -0.050966 2.025273 1.094223
v -0.287109 2.277103 2.158292
v 0.239561 2.343551 1.956256
v -0.543067 2.178827 0.209027
v -0.072531 2.121994 0.035735
v -0.127866 2.097967 0.129191
v -0.313342 2.286917 -0.232187
v -0.020767 2.319799 -0.232168
v -0.461327 2.192272 -0.080583
v -0.601831 2.190267 0.125164
v -0.044068 2.398296 -0.351127
v -0.313735 2.166615 0.176441
v -0.177345 2.376657 -0.344480
v -0.031527 2.263880 -0.138413
v -0.562287 2.180474 -0.005564
v 0.317505 2.280946 -0.236877
v 0.037178 2.391613 -0.356047
v 0.020020 2.266905 -0.144283
v 0.290635 2.177414 0.171384
v 0.557966 2.198715 0.000287
v 0.173693 2.366065 -0.349123
v 0.108152 2.104984 0.123653
v 0.514928 2.199069 0.211889
v 0.055171 2.128617 0.028438
v 0.582170 2.210653 0.132422
v 0.011611 2.320999 -0.239540
v 0.465383 2.208170 -0.085147
v -0.509090 2.345148 0.231600
v -0.033106 2.235351 0.050406
v -0.070160 2.202199 0.183309
v -0.306309 2.535182 -0.266467
v -0.009188 2.534854 -0.222962
v -0.425806 2.376568 -0.103916
v -0.588983 2.370228 0.131612
v -0.020981 2.670953 -0.358113
v -0.278006 2.317225 0.232905
v -0.181880 2.658751 -0.360895
v -0.010857 2.439855 -0.113068
v -0.540868 2.363133 -0.015335
v 0.001430 2.439479 -0.111706
v 0.019445 2.237936 0.045622
v -0.000757 2.532659 -0.223777
v 0.286759 2.498374 -0.273375
v 0.004450 2.648613 -0.352920
v 0.256541 2.324950 0.226089
v 0.537079 2.380969 -0.016026
v 0.160555 2.627435 -0.359479
v 0.049535 2.205276 0.178327
v 0.480382 2.362893 0.229189
v 0.568510 2.389771 0.134383
v 0.430860 2.389794 -0.115024
v 0.362173 2.065868 -0.164543
v 0.079991 2.065888 -0.209537
v 0.376988 2.041931 0.232809
v 0.578853 2.016461 0.016600
v 0.198679 2.064430 -0.231078
v 0.202248 2.006302 0.172553
v 0.549356 2.025528 0.208811
v 0.598059 2.030506 0.138064
v 0.499906 2.026546 -0.055270
v 0.080142 2.050043 0.006620
v 0.131074 2.006601 0.137741
v 0.048362 2.052082 -0.093271
v -0.575906 2.003320 0.198952
v -0.157491 1.991134 0.151540
v -0.230825 1.991473 0.181397
v -0.352797 2.060550 -0.163802
v -0.057497 2.044319 -0.074621
v -0.497731 2.009873 -0.058740
v -0.615603 2.008894 0.123285
v -0.080024 2.062459 -0.191040
v -0.408136 2.022144 0.235331
v -0.192364 2.061815 -0.218281
v -0.096535 2.038569 0.022381
v -0.583707 1.997814 0.004208
v -0.449395 1.583950 -0.069267
v -0.621262 1.534760 0.109932
v -0.252281 1.516343 0.204331
v -0.609159 1.524768 0.175054
v -0.508694 1.536991 0.272545
v -0.211268 1.502395 0.126413
v -0.243933 1.499354 0.025118
v -0.593845 1.531400 0.021535
v -0.540414 1.551442 -0.024295
v -0.325388 1.526334 -0.043328
v -0.313831 1.527988 0.295381
v -0.406409 1.540671 0.312560
v 0.229889 1.537880 0.192358
v 0.477674 1.561606 0.286525
v 0.606667 1.556230 0.136687
v 0.240422 1.516660 0.013713
v 0.587841 1.547692 0.200405
v 0.197313 1.521877 0.110931
v 0.371747 1.565625 0.315514
v 0.454359 1.600219 -0.060639
v 0.328509 1.542505 -0.046456
v 0.588674 1.550646 0.046012
v 0.281521 1.552007 0.289047
v 0.540273 1.569301 -0.005624
v 0.479823 2.674826 0.142603
v 0.164332 3.017881 -0.229484
v -0.495676 2.662433 0.151708
v -0.392225 2.733339 -0.095604
v -0.433398 2.607504 0.247899
v 0.220310 2.570606 0.331809
v 0.449399 2.743869 0.006516
v 0.413471 2.616935 0.241415
v -0.237625 2.565882 0.337127
v -0.008748 2.529778 0.380629
v -0.176610 3.021910 -0.224602
v -0.459247 2.729400 0.023802
v -0.007497 3.031157 -0.225966
v 0.390475 2.739450 -0.112144
v -0.292042 2.921534 -0.164989
v 0.280744 2.917283 -0.176639
v 0.451149 2.775945 0.193613
v -0.465137 2.766316 0.204488
v -0.389716 2.834665 -0.058620
v -0.418603 2.688203 0.271615
v 0.216889 2.634937 0.368815
v 0.426693 2.887341 0.099577
v 0.402647 2.694556 0.266025
v -0.232385 2.631317 0.373531
v -0.008200 2.594302 0.420665
v -0.439464 2.874422 0.117850
v 0.385262 2.838791 -0.072472
v -0.273097 3.010038 -0.106761
v 0.262193 3.007982 -0.115400
v 0.159729 3.085838 -0.165674
v -0.171748 3.088280 -0.162397
v -0.006456 3.097503 -0.170351
vt 0.1499 0.0205
vt 0.1147 0.0144
vt 0.1124 0.0198
vt 0.1471 0.0262
vt 0.7610 0.0200
vt 0.7597 0.0084
vt 0.7218 0.0200
vt 0.7237 0.0326
vt 0.7903 0.0059
vt 0.7898 0.0000
vt 0.0724 0.0000
vt 0.0698 0.0051
vt 0.8015 0.3264
vt 0.8034 0.2521
vt 0.7710 0.2357
vt 0.7681 0.2936
vt 0.1527 0.8403
vt 0.1602 0.8229
vt 0.1168 0.8223
vt 0.1216 0.8388
vt 0.1819 0.8527
vt 0.1973 0.8465
vt 0.0852 0.2267
vt 0.0582 0.2397
vt 0.0538 0.3019
vt 0.0797 0.2776
vt 0.7993 0.2036
vt 0.7660 0.1821
vt 0.9020 0.2791
vt 0.9013 0.2950
vt 0.9295 0.2934
vt 0.9363 0.2822
vt 0.8744 0.2809
vt 0.8740 0.2962
vt 0.0883 0.1685
vt 0.0481 0.1875
vt 0.7680 0.0855
vt 0.7349 0.1057
vt 0.8526 0.1567
vt 0.7945 0.0683
vt 0.0920 0.0667
vt 0.0420 0.0593
vt 0.0000 0.1536
vt 0.1269 0.0664
vt 0.1466 0.2957
vt 0.1531 0.3431
vt 0.0944 0.4012
vt 0.0425 0.3610
vt 0.7146 0.3705
vt 0.7523 0.4161
vt 0.8186 0.3901
vt 0.7219 0.2898
vt 0.7227 0.2220
vt 0.7212 0.1781
vt 0.6965 0.1088
vt 0.6873 0.0197
vt 0.6888 0.0347
vt 0.1811 0.0279
vt 0.1822 0.0209
vt 0.1493 0.1561
vt 0.1752 0.0663
vt 0.1557 0.2183
vt 0.2219 0.2975
vt 0.2219 0.3397
vt 0.3577 0.9097
vt 0.3900 0.8846
vt 0.3565 0.8632
vt 0.3404 0.8801
vt 0.3202 0.9158
vt 0.3226 0.8916
vt 0.6490 0.2198
vt 0.6490 0.2969
vt 0.6490 0.1723
vt 0.6490 0.1100
vt 0.6490 0.0188
vt 0.6490 0.0347
vt 0.2219 0.0265
vt 0.2219 0.0191
vt 0.2219 0.1537
vt 0.2219 0.0661
vt 0.2219 0.2182
vt 0.1764 0.3971
vt 0.2219 0.3988
vt 0.1534 0.4397
vt 0.6859 0.4636
vt 0.7063 0.4772
vt 0.6490 0.3770
vt 0.6490 0.4634
vt 0.1558 0.6468
vt 0.1809 0.7090
vt 0.2102 0.6744
vt 0.1789 0.6347
vt 0.2328 0.7411
vt 0.2476 0.6840
vt 0.2936 0.7306
vt 0.3415 0.6903
vt 0.3306 0.6723
vt 0.2877 0.6913
vt 0.1062 0.5663
vt 0.1460 0.6112
vt 0.1587 0.5992
vt 0.1176 0.5599
vt 0.3665 0.6520
vt 0.3671 0.6407
vt 0.4169 0.6374
vt 0.4146 0.6246
vt 0.2274 0.6101
vt 0.1974 0.5762
vt 0.2651 0.6156
vt 0.3390 0.6082
vt 0.3001 0.6241
vt 0.1801 0.5566
vt 0.1518 0.5164
vt 0.3646 0.5927
vt 0.3939 0.5719
vt 0.2483 0.5497
vt 0.2191 0.5344
vt 0.2824 0.5541
vt 0.3365 0.5555
vt 0.3018 0.5567
vt 0.1996 0.5253
vt 0.1689 0.5004
vt 0.3641 0.5558
vt 0.3828 0.5513
vt 0.2244 0.5224
vt 0.2521 0.5379
vt 0.2554 0.5174
vt 0.2277 0.4998
vt 0.2853 0.5417
vt 0.2881 0.5275
vt 0.3021 0.5432
vt 0.3379 0.5418
vt 0.3414 0.5314
vt 0.3056 0.5320
vt 0.1769 0.4921
vt 0.2063 0.5132
vt 0.2103 0.4890
vt 0.1745 0.4780
vt 0.3667 0.5429
vt 0.3675 0.5297
vt 0.3812 0.5425
vt 0.3814 0.5318
vt 0.1519 0.9943
vt 0.1939 0.9932
vt 0.2022 0.9697
vt 0.1666 0.9603
vt 0.1180 0.9881
vt 0.1250 0.9523
vt 0.0784 0.9771
vt 0.0847 0.9435
vt 0.0434 0.9548
vt 0.0523 0.9234
vt 0.0206 0.9406
vt 0.0288 0.9139
vt 0.9008 0.3253
vt 0.9289 0.3249
vt 0.9313 0.3080
vt 0.9003 0.3097
vt 0.8818 0.3290
vt 0.8741 0.3164
vt 0.2226 1.0000
vt 0.2336 0.9800
vt 0.3243 0.4817
vt 0.3597 0.4811
vt 0.3708 0.4520
vt 0.3352 0.4507
vt 0.3012 0.4771
vt 0.3077 0.4454
vt 0.2676 0.4680
vt 0.2747 0.4359
vt 0.2380 0.4497
vt 0.2438 0.4195
vt 0.2173 0.4383
vt 0.2212 0.4086
vt 0.1759 0.4297
vt 0.1774 0.4009
vt 0.3873 0.4823
vt 0.4089 0.4928
vt 0.4268 0.4700
vt 0.3993 0.4543
vt 0.3128 0.5122
vt 0.3480 0.5105
vt 0.2939 0.5085
vt 0.2606 0.4987
vt 0.2326 0.4799
vt 0.2139 0.4682
vt 0.1745 0.4580
vt 0.3749 0.5095
vt 0.3923 0.5156
vt 0.0910 0.9040
vt 0.0668 0.8929
vt 0.1368 0.9104
vt 0.2015 0.9242
vt 0.1731 0.9199
vt 0.0456 0.8958
vt 0.2129 0.9576
vt 0.2418 0.9685
vt 0.2498 0.9372
vt 0.2284 0.9273
vt 0.9302 0.2553
vt 0.9046 0.2559
vt 0.1115 0.8609
vt 0.0962 0.8525
vt 0.1453 0.8671
vt 0.1948 0.8827
vt 0.1779 0.8787
vt 0.8785 0.2576
vt 0.9278 0.2378
vt 0.9043 0.2375
vt 0.8804 0.2393
vt 0.8537 0.3029
vt 0.8669 0.3145
vt 0.2373 0.8666
vt 0.2235 0.8808
vt 0.2362 0.8869
vt 0.2511 0.8805
vt 0.8645 0.2771
vt 0.8601 0.2872
vt 0.2331 0.9127
vt 0.2141 0.9060
vt 0.2512 0.9154
vt 0.8483 0.2941
vt 0.8533 0.2680
vt 0.8462 0.2757
vt 0.8358 0.2794
vt 0.7850 0.8025
vt 0.8340 0.8220
vt 0.8433 0.7942
vt 0.7993 0.7727
vt 0.8876 0.8132
vt 0.8906 0.7850
vt 0.9267 0.8074
vt 0.9242 0.7794
vt 0.4496 0.8696
vt 0.4980 0.8607
vt 0.4923 0.8377
vt 0.4504 0.8462
vt 0.5320 0.8487
vt 0.5210 0.8269
vt 0.5757 0.8289
vt 0.5660 0.8067
vt 0.6099 0.8044
vt 0.5950 0.7885
vt 0.8322 0.7157
vt 0.8672 0.7359
vt 0.8911 0.6775
vt 0.8652 0.6587
vt 0.9029 0.7290
vt 0.9151 0.6730
vt 0.9295 0.7244
vt 0.9347 0.6695
vt 0.4479 0.8023
vt 0.4794 0.7941
vt 0.4665 0.7505
vt 0.4455 0.7584
vt 0.4999 0.7848
vt 0.4787 0.7427
vt 0.5346 0.7680
vt 0.5032 0.7294
vt 0.7839 0.6671
vt 0.8062 0.6952
vt 0.8408 0.6398
vt 0.8191 0.6218
vt 0.7659 0.6388
vt 0.8017 0.6044
vt 0.5729 0.7322
vt 0.5811 0.7016
vt 0.5469 0.6859
vt 0.5332 0.7045
vt 0.5579 0.7525
vt 0.5209 0.7166
vt 0.8754 0.6380
vt 0.9015 0.6572
vt 0.9072 0.6377
vt 0.8814 0.6181
vt 0.9250 0.6565
vt 0.9309 0.6402
vt 0.9440 0.6579
vt 0.9504 0.6442
vt 0.4433 0.7439
vt 0.4610 0.7351
vt 0.4517 0.7226
vt 0.4339 0.7330
vt 0.4714 0.7276
vt 0.4614 0.7151
vt 0.4924 0.7154
vt 0.4820 0.7030
vt 0.8250 0.6034
vt 0.8481 0.6187
vt 0.8561 0.5996
vt 0.8340 0.5883
vt 0.8057 0.5910
vt 0.8141 0.5810
vt 0.5206 0.6922
vt 0.5354 0.6774
vt 0.5311 0.6630
vt 0.5129 0.6777
vt 0.5090 0.7031
vt 0.5001 0.6892
vt 0.9128 0.0000
vt 0.8932 0.0036
vt 0.9134 0.0309
vt 0.9218 0.0245
vt 0.8864 0.0147
vt 0.9091 0.0362
vt 0.8821 0.0240
vt 0.9040 0.0444
vt 0.8739 0.0311
vt 0.8988 0.0546
vt 0.8707 0.0357
vt 0.8962 0.0592
vt 0.8639 0.0451
vt 0.8868 0.0689
vt 0.8358 0.0839
vt 0.8304 0.0939
vt 0.8534 0.1051
vt 0.8581 0.0993
vt 0.8221 0.1097
vt 0.8490 0.1125
vt 0.8417 0.0760
vt 0.8644 0.0923
vt 0.8485 0.0638
vt 0.8736 0.0828
vt 0.8548 0.0560
vt 0.8788 0.0778
vt 0.9229 0.0362
vt 0.9302 0.0269
vt 0.9204 0.0402
vt 0.9152 0.0492
vt 0.9144 0.0611
vt 0.9111 0.0686
vt 0.9026 0.0797
vt 0.8625 0.1117
vt 0.8686 0.1083
vt 0.8551 0.1167
vt 0.8781 0.1030
vt 0.8878 0.1002
vt 0.8932 0.0906
vt 0.9369 0.0378
vt 0.9431 0.0290
vt 0.9302 0.0454
vt 0.9247 0.0577
vt 0.9260 0.0596
vt 0.9524 0.0881
vt 0.9447 0.1054
vt 0.9541 0.1116
vt 0.9635 0.0862
vt 0.8675 0.1247
vt 0.8714 0.1224
vt 0.8617 0.1270
vt 0.8797 0.1165
vt 0.8888 0.1123
vt 0.8935 0.1131
vt 0.9327 0.1185
vt 0.9358 0.1291
vt 0.4277 0.0943
vt 0.4284 0.0900
vt 0.4179 0.0874
vt 0.4208 0.0921
vt 0.4386 0.0949
vt 0.4447 0.0844
vt 0.4326 0.0789
vt 0.4209 0.0741
vt 0.4569 0.0671
vt 0.4437 0.0621
vt 0.4267 0.0597
vt 0.4571 0.0616
vt 0.4438 0.0523
vt 0.4295 0.0517
vt 0.4887 0.0237
vt 0.4673 0.0086
vt 0.4442 0.0000
vt 0.7281 0.7272
vt 0.7453 0.7794
vt 0.7716 0.7506
vt 0.7487 0.7123
vt 0.7141 0.6817
vt 0.7300 0.6732
vt 0.6232 0.7681
vt 0.6251 0.7127
vt 0.6153 0.7173
vt 0.6127 0.7600
vt 0.3900 0.7611
vt 0.3628 0.7573
vt 0.3492 0.7802
vt 0.3900 0.7762
vt 0.3158 0.7603
vt 0.2740 0.8049
vt 0.2902 0.8247
vt 0.3194 0.7903
vt 0.2544 0.8229
vt 0.2654 0.8466
vt 0.2295 0.8468
vt 0.2447 0.8660
vt 0.3899 0.8493
vt 0.3603 0.8441
vt 0.3004 0.8767
vt 0.2830 0.9087
vt 0.3218 0.8600
vt 0.3364 0.8421
vt 0.3582 0.8270
vt 0.3899 0.8263
vt 0.2827 0.8620
vt 0.2599 0.8892
vt 0.3052 0.8414
vt 0.3259 0.8055
vt 0.3525 0.7967
vt 0.3900 0.7894
vt 0.3743 0.7375
vt 0.3632 0.7408
vt 0.3711 0.7494
vt 0.3790 0.7425
vt 0.3900 0.7294
vt 0.3728 0.7204
vt 0.3900 0.7499
vt 0.3900 0.7422
vt 0.3175 0.7125
vt 0.4288 0.6747
vt 0.4206 0.6825
vt 0.4027 0.6970
vt 0.9787 0.5965
vt 0.9564 0.5907
vt 0.9300 0.5876
vt 0.9033 0.5625
vt 0.8771 0.5439
vt 0.8549 0.5353
vt 0.8334 0.5305
vt 0.5156 0.6167
vt 0.4909 0.6335
vt 0.4735 0.6467
vt 0.4491 0.6624
vt 0.2219 0.0463
vt 0.1781 0.0471
vt 0.1370 0.0463
vt 0.0971 0.0550
vt 0.1319 0.0563
vt 0.1022 0.0432
vt 0.0559 0.0322
vt 0.7924 0.0371
vt 0.7645 0.0527
vt 0.7293 0.0692
vt 0.6946 0.0903
vt 0.7321 0.0874
vt 0.6490 0.0911
vt 0.1499 0.0205
vt 0.1471 0.0262
vt 0.1124 0.0198
vt 0.1147 0.0144
vt 0.7610 0.0200
vt 0.7237 0.0326
vt 0.7218 0.0200
vt 0.7597 0.0084
vt 0.7903 0.0059
vt 0.7898 0.0000
vt 0.0698 0.0051
vt 0.0724 0.0000
vt 0.8015 0.3264
vt 0.7681 0.2936
vt 0.7710 0.2357
vt 0.8034 0.2521
vt 0.1527 0.8403
vt 0.1216 0.8388
vt 0.1168 0.8223
vt 0.1602 0.8229
vt 0.1819 0.8527
vt 0.1973 0.8465
vt 0.0852 0.2267
vt 0.0797 0.2776
vt 0.0538 0.3019
vt 0.0582 0.2397
vt 0.7660 0.1821
vt 0.7993 0.2036
vt 0.9020 0.2791
vt 0.9363 0.2822
vt 0.9295 0.2934
vt 0.9013 0.2950
vt 0.8744 0.2809
vt 0.8740 0.2962
vt 0.0883 0.1685
vt 0.0481 0.1875
vt 0.7349 0.1057
vt 0.7680 0.0855
vt 0.8526 0.1567
vt 0.7945 0.0683
vt 0.0000 0.1536
vt 0.0420 0.0593
vt 0.0920 0.0667
vt 0.1269 0.0664
vt 0.1466 0.2957
vt 0.1531 0.3431
vt 0.0944 0.4012
vt 0.0425 0.3610
vt 0.7146 0.3705
vt 0.8186 0.3901
vt 0.7523 0.4161
vt 0.7219 0.2898
vt 0.7227 0.2220
vt 0.7212 0.1781
vt 0.6965 0.1088
vt 0.6873 0.0197
vt 0.6888 0.0347
vt 0.1811 0.0279
vt 0.1822 0.0209
vt 0.1493 0.1561
vt 0.1752 0.0663
vt 0.1557 0.2183
vt 0.3404 0.8801
vt 0.3565 0.8632
vt 0.3226 0.8916
vt 0.1764 0.3971
vt 0.1534 0.4397
vt 0.7063 0.4772
vt 0.6859 0.4636
vt 0.1558 0.6468
vt 0.1789 0.6347
vt 0.2102 0.6744
vt 0.1809 0.7090
vt 0.2476 0.6840
vt 0.2328 0.7411
vt 0.2936 0.7306
vt 0.2877 0.6913
vt 0.3306 0.6723
vt 0.3415 0.6903
vt 0.1062 0.5663
vt 0.1176 0.5599
vt 0.1587 0.5992
vt 0.1460 0.6112
vt 0.3671 0.6407
vt 0.3665 0.6520
vt 0.4146 0.6246
vt 0.4169 0.6374
vt 0.1974 0.5762
vt 0.2274 0.6101
vt 0.2651 0.6156
vt 0.3001 0.6241
vt 0.3390 0.6082
vt 0.1518 0.5164
vt 0.1801 0.5566
vt 0.3646 0.5927
vt 0.3939 0.5719
vt 0.2191 0.5344
vt 0.2483 0.5497
vt 0.2824 0.5541
vt 0.3018 0.5567
vt 0.3365 0.5555
vt 0.1689 0.5004
vt 0.1996 0.5253
vt 0.3641 0.5558
vt 0.3828 0.5513
vt 0.2244 0.5224
vt 0.2277 0.4998
vt 0.2554 0.5174
vt 0.2521 0.5379
vt 0.2881 0.5275
vt 0.2853 0.5417
vt 0.3021 0.5432
vt 0.3056 0.5320
vt 0.3414 0.5314
vt 0.3379 0.5418
vt 0.1769 0.4921
vt 0.1745 0.4780
vt 0.2103 0.4890
vt 0.2063 0.5132
vt 0.3675 0.5297
vt 0.3667 0.5429
vt 0.3814 0.5318
vt 0.3812 0.5425
vt 0.1519 0.9943
vt 0.1666 0.9603
vt 0.2022 0.9697
vt 0.1939 0.9932
vt 0.1180 0.9881
vt 0.1250 0.9523
vt 0.0784 0.9771
vt 0.0847 0.9435
vt 0.0434 0.9548
vt 0.0523 0.9234
vt 0.0206 0.9406
vt 0.0288 0.9139
vt 0.9008 0.3253
vt 0.9003 0.3097
vt 0.9313 0.3080
vt 0.9289 0.3249
vt 0.8818 0.3290
vt 0.8741 0.3164
vt 0.2336 0.9800
vt 0.2226 1.0000
vt 0.3243 0.4817
vt 0.3352 0.4507
vt 0.3708 0.4520
vt 0.3597 0.4811
vt 0.3012 0.4771
vt 0.3077 0.4454
vt 0.2676 0.4680
vt 0.2747 0.4359
vt 0.2380 0.4497
vt 0.2438 0.4195
vt 0.2173 0.4383
vt 0.2212 0.4086
vt 0.1759 0.4297
vt 0.1774 0.4009
vt 0.3873 0.4823
vt 0.3993 0.4543
vt 0.4268 0.4700
vt 0.4089 0.4928
vt 0.3128 0.5122
vt 0.3480 0.5105
vt 0.2939 0.5085
vt 0.2606 0.4987
vt 0.2326 0.4799
vt 0.2139 0.4682
vt 0.1745 0.4580
vt 0.3749 0.5095
vt 0.3923 0.5156
vt 0.0668 0.8929
vt 0.0910 0.9040
vt 0.1368 0.9104
vt 0.1731 0.9199
vt 0.2015 0.9242
vt 0.0456 0.8958
vt 0.2129 0.9576
vt 0.2284 0.9273
vt 0.2498 0.9372
vt 0.2418 0.9685
vt 0.9046 0.2559
vt 0.9302 0.2553
vt 0.0962 0.8525
vt 0.1115 0.8609
vt 0.1453 0.8671
vt 0.1779 0.8787
vt 0.1948 0.8827
vt 0.8785 0.2576
vt 0.9043 0.2375
vt 0.9278 0.2378
vt 0.8804 0.2393
vt 0.8669 0.3145
vt 0.8537 0.3029
vt 0.2373 0.8666
vt 0.2511 0.8805
vt 0.2362 0.8869
vt 0.2235 0.8808
vt 0.8601 0.2872
vt 0.8645 0.2771
vt 0.2141 0.9060
vt 0.2331 0.9127
vt 0.2512 0.9154
vt 0.8483 0.2941
vt 0.8462 0.2757
vt 0.8533 0.2680
vt 0.8358 0.2794
vt 0.7850 0.8025
vt 0.7993 0.7727
vt 0.8433 0.7942
vt 0.8340 0.8220
vt 0.8906 0.7850
vt 0.8876 0.8132
vt 0.9242 0.7794
vt 0.9267 0.8074
vt 0.4496 0.8696
vt 0.4504 0.8462
vt 0.4923 0.8377
vt 0.4980 0.8607
vt 0.5210 0.8269
vt 0.5320 0.8487
vt 0.5660 0.8067
vt 0.5757 0.8289
vt 0.5950 0.7885
vt 0.6099 0.8044
vt 0.8322 0.7157
vt 0.8652 0.6587
vt 0.8911 0.6775
vt 0.8672 0.7359
vt 0.9151 0.6730
vt 0.9029 0.7290
vt 0.9347 0.6695
vt 0.9295 0.7244
vt 0.4479 0.8023
vt 0.4455 0.7584
vt 0.4665 0.7505
vt 0.4794 0.7941
vt 0.4787 0.7427
vt 0.4999 0.7848
vt 0.5032 0.7294
vt 0.5346 0.7680
vt 0.7839 0.6671
vt 0.8191 0.6218
vt 0.8408 0.6398
vt 0.8062 0.6952
vt 0.7659 0.6388
vt 0.8017 0.6044
vt 0.5729 0.7322
vt 0.5332 0.7045
vt 0.5469 0.6859
vt 0.5811 0.7016
vt 0.5579 0.7525
vt 0.5209 0.7166
vt 0.8754 0.6380
vt 0.8814 0.6181
vt 0.9072 0.6377
vt 0.9015 0.6572
vt 0.9309 0.6402
vt 0.9250 0.6565
vt 0.9504 0.6442
vt 0.9440 0.6579
vt 0.4433 0.7439
vt 0.4339 0.7330
vt 0.4517 0.7226
vt 0.4610 0.7351
vt 0.4614 0.7151
vt 0.4714 0.7276
vt 0.4820 0.7030
vt 0.4924 0.7154
vt 0.8250 0.6034
vt 0.8340 0.5883
vt 0.8561 0.5996
vt 0.8481 0.6187
vt 0.8057 0.5910
vt 0.8141 0.5810
vt 0.5206 0.6922
vt 0.5129 0.6777
vt 0.5311 0.6630
vt 0.5354 0.6774
vt 0.5090 0.7031
vt 0.5001 0.6892
vt 0.9128 0.0000
vt 0.9218 0.0245
vt 0.9134 0.0309
vt 0.8932 0.0036
vt 0.9091 0.0362
vt 0.8864 0.0147
vt 0.9040 0.0444
vt 0.8821 0.0240
vt 0.8988 0.0546
vt 0.8739 0.0311
vt 0.8962 0.0592
vt 0.8707 0.0357
vt 0.8868 0.0689
vt 0.8639 0.0451
vt 0.8358 0.0839
vt 0.8581 0.0993
vt 0.8534 0.1051
vt 0.8304 0.0939
vt 0.8490 0.1125
vt 0.8221 0.1097
vt 0.8417 0.0760
vt 0.8644 0.0923
vt 0.8485 0.0638
vt 0.8736 0.0828
vt 0.8548 0.0560
vt 0.8788 0.0778
vt 0.9302 0.0269
vt 0.9229 0.0362
vt 0.9204 0.0402
vt 0.9152 0.0492
vt 0.9144 0.0611
vt 0.9111 0.0686
vt 0.9026 0.0797
vt 0.8686 0.1083
vt 0.8625 0.1117
vt 0.8551 0.1167
vt 0.8781 0.1030
vt 0.8878 0.1002
vt 0.8932 0.0906
vt 0.9431 0.0290
vt 0.9369 0.0378
vt 0.9302 0.0454
vt 0.9247 0.0577
vt 0.9260 0.0596
vt 0.9524 0.0881
vt 0.9635 0.0862
vt 0.9541 0.1116
vt 0.9447 0.1054
vt 0.8714 0.1224
vt 0.8675 0.1247
vt 0.8617 0.1270
vt 0.8797 0.1165
vt 0.8888 0.1123
vt 0.8935 0.1131
vt 0.9358 0.1291
vt 0.9327 0.1185
vt 0.4277 0.0943
vt 0.4208 0.0921
vt 0.4179 0.0874
vt 0.4284 0.0900
vt 0.4386 0.0949
vt 0.4326 0.0789
vt 0.4447 0.0844
vt 0.4209 0.0741
vt 0.4437 0.0621
vt 0.4569 0.0671
vt 0.4267 0.0597
vt 0.4438 0.0523
vt 0.4571 0.0616
vt 0.4295 0.0517
vt 0.4673 0.0086
vt 0.4887 0.0237
vt 0.4442 0.0000
vt 0.7281 0.7272
vt 0.7487 0.7123
vt 0.7716 0.7506
vt 0.7453 0.7794
vt 0.7141 0.6817
vt 0.7300 0.6732
vt 0.6232 0.7681
vt 0.6127 0.7600
vt 0.6153 0.7173
vt 0.6251 0.7127
vt 0.3492 0.7802
vt 0.3628 0.7573
vt 0.3158 0.7603
vt 0.3194 0.7903
vt 0.2902 0.8247
vt 0.2740 0.8049
vt 0.2654 0.8466
vt 0.2544 0.8229
vt 0.3603 0.8441
vt 0.3004 0.8767
vt 0.3218 0.8600
vt 0.3364 0.8421
vt 0.3582 0.8270
vt 0.2827 0.8620
vt 0.3052 0.8414
vt 0.3259 0.8055
vt 0.3525 0.7967
vt 0.3743 0.7375
vt 0.3790 0.7425
vt 0.3711 0.7494
vt 0.3632 0.7408
vt 0.4206 0.6825
vt 0.4288 0.6747
vt 0.4027 0.6970
vt 0.9564 0.5907
vt 0.9787 0.5965
vt 0.9300 0.5876
vt 0.9033 0.5625
vt 0.8771 0.5439
vt 0.8549 0.5353
vt 0.8334 0.5305
vt 0.4909 0.6335
vt 0.5156 0.6167
vt 0.4735 0.6467
vt 0.4491 0.6624
vt 0.1781 0.0471
vt 0.1370 0.0463
vt 0.0971 0.0550
vt 0.1319 0.0563
vt 0.1022 0.0432
vt 0.0559 0.0322
vt 0.7924 0.0371
vt 0.7645 0.0527
vt 0.7293 0.0692
vt 0.6946 0.0903
vt 0.7321 0.0874
vt 0.3337 0.3516
vt 0.3337 0.1861
vt 0.4549 0.1861
vt 0.4549 0.3516
vt 0.6201 0.1454
vt 0.4718 0.1454
vt 0.4718 0.1101
vt 0.6201 0.1101
vt 0.6336 0.3899
vt 0.4700 0.3899
vt 0.4700 0.1657
vt 0.6336 0.1657
vt 0.4653 0.1464
vt 0.3241 0.1464
vt 0.3241 0.1087
vt 0.4653 0.1087
vt 0.4685 0.4384
vt 0.3201 0.4384
vt 0.3201 0.4173
vt 0.4685 0.4173
vt 0.6201 0.4384
vt 0.4718 0.4384
vt 0.4718 0.4173
vt 0.6201 0.4173
vt 0.6398 0.8362
vt 0.6248 0.8203
vt 0.6337 0.7763
vt 0.6442 0.7844
vt 0.6350 0.7081
vt 0.6448 0.7036
vt 0.6824 0.6986
vt 0.6983 0.6901
vt 0.7076 0.7421
vt 0.6871 0.7571
vt 0.6928 0.8372
vt 0.7191 0.8083
vt 0.7707 0.8323
vt 0.7563 0.8621
vt 0.5950 0.8732
vt 0.5853 0.8510
vt 0.5539 0.8923
vt 0.5429 0.8705
vt 0.5094 0.9068
vt 0.5037 0.8837
vt 0.4482 0.9162
vt 0.4489 0.8929
vt 0.8814 0.8696
vt 0.8845 0.8414
vt 0.9291 0.8354
vt 0.9316 0.8634
vt 0.8155 0.8774
vt 0.8248 0.8497
vt 0.6398 0.8362
vt 0.6442 0.7844
vt 0.6337 0.7763
vt 0.6248 0.8203
vt 0.6448 0.7036
vt 0.6350 0.7081
vt 0.6824 0.6986
vt 0.6871 0.7571
vt 0.7076 0.7421
vt 0.6983 0.6901
vt 0.6928 0.8372
vt 0.7563 0.8621
vt 0.7707 0.8323
vt 0.7191 0.8083
vt 0.5950 0.8732
vt 0.5853 0.8510
vt 0.5539 0.8923
vt 0.5429 0.8705
vt 0.5094 0.9068
vt 0.5037 0.8837
vt 0.4482 0.9162
vt 0.4489 0.8929
vt 0.8814 0.8696
vt 0.9316 0.8634
vt 0.9291 0.8354
vt 0.8845 0.8414
vt 0.8155 0.8774
vt 0.8248 0.8497
vt 0.7420 0.8919
vt 0.8062 0.9051
vt 0.8783 0.8978
vt 0.9341 0.8914
vt 0.4474 0.9396
vt 0.5151 0.9298
vt 0.5649 0.9140
vt 0.6046 0.8954
vt 0.6547 0.8521
vt 0.6547 0.8715
vt 0.6665 0.7720
vt 0.6665 0.8661
vt 0.6665 0.7071
vt 0.6547 0.7925
vt 0.6546 0.6990
vt 0.7420 0.8919
vt 0.8062 0.9051
vt 0.8783 0.8978
vt 0.9341 0.8914
vt 0.4474 0.9396
vt 0.5151 0.9298
vt 0.5649 0.9140
vt 0.6046 0.8954
vt 0.6926 0.0717
vt 0.6490 0.0723
vt 0.7663 0.0691
vt 0.7935 0.0527
vt 0.0489 0.0458
vt 0.1766 0.0567
vt 0.2219 0.0562
vt 0.6926 0.0717
vt 0.7663 0.0691
vt 0.7935 0.0527
vt 0.0489 0.0458
vt 0.1766 0.0567
vn 0.4372 -0.1624 0.8846
vn 0.9673 0.0908 0.2369
vn 0.8959 0.4278 0.1196
vn 0.5677 0.2726 0.7768
vn 0.7761 0.2191 -0.5914
vn 0.6952 0.0483 -0.7172
vn 0.6146 0.0817 -0.7846
vn 0.7545 0.2958 -0.5859
vn 0.8551 0.3101 -0.4155
vn 0.8739 0.0846 -0.4787
vn 0.3791 0.8826 0.2779
vn 0.5626 0.7002 -0.4396
vn 0.4705 0.7844 -0.4043
vn 0.3121 0.9427 -0.1179
vn -0.1227 -0.9924 -0.0035
vn -0.8205 0.5618 -0.1055
vn -0.7008 0.5367 -0.4698
vn 0.0075 -0.9111 -0.4121
vn -0.2299 -0.9310 0.2833
vn -0.7956 0.5389 0.2766
vn 0.4679 -0.7350 0.4907
vn 0.4583 -0.7531 0.4720
vn 0.5275 -0.3523 0.7730
vn 0.4161 -0.7983 0.4354
vn 0.9209 0.1776 -0.3471
vn 0.6397 0.4786 -0.6015
vn -0.9614 0.2475 -0.1201
vn -0.9871 -0.0283 -0.1575
vn -0.8809 -0.0011 -0.4734
vn -0.5787 0.2530 -0.7753
vn -0.2677 -0.4424 0.8559
vn -0.9747 0.0802 -0.2088
vn 0.6768 -0.6238 0.3909
vn 0.8552 -0.4914 0.1650
vn 0.8411 0.3040 -0.4475
vn 0.6603 0.4170 -0.6245
vn 0.9248 -0.3782 -0.0410
vn 0.9907 -0.0462 -0.1282
vn 0.9939 -0.0977 0.0508
vn 0.7655 -0.4228 0.4851
vn 0.3197 -0.8348 0.4481
vn 0.4089 -0.7463 0.5252
vn 0.6921 0.0225 0.7215
vn 0.4076 0.3661 0.8365
vn 0.1036 0.8530 0.5115
vn -0.0312 0.9942 -0.1025
vn 0.0740 0.8910 -0.4479
vn 0.2436 0.7199 -0.6499
vn 0.3155 0.6089 -0.7278
vn 0.2509 0.1688 -0.9532
vn 0.3769 0.5127 -0.7714
vn 0.2931 -0.0776 0.9529
vn 0.2075 -0.3956 0.8947
vn 0.4193 -0.6898 0.5903
vn 0.4324 -0.5781 0.6920
vn 0.3552 -0.7605 0.5436
vn -0.0378 -0.8514 0.5232
vn -0.0775 -0.9918 0.1017
vn -0.1554 -0.1755 0.9721
vn -0.1629 -0.6713 0.7231
vn 0.4266 -0.6323 0.6467
vn 0.4926 -0.2006 0.8468
vn -0.0766 0.5229 0.8489
vn 0.3739 0.3820 0.8452
vn -0.0144 0.8936 -0.4487
vn -0.0025 0.9993 -0.0375
vn -0.0135 0.7607 -0.6490
vn -0.0049 0.6571 -0.7538
vn -0.0290 0.2040 -0.9785
vn -0.0035 0.5786 -0.8156
vn 0.0159 -0.2811 0.9595
vn 0.0224 -0.4770 0.8786
vn 0.0126 -0.7259 0.6877
vn 0.0108 -0.6334 0.7738
vn -0.0022 -0.7902 0.6129
vn 0.8685 -0.4856 -0.0995
vn -0.0445 -0.8397 -0.5413
vn 0.9732 0.0442 0.2255
vn 0.4801 0.7672 0.4254
vn 0.0191 0.9272 0.3740
vn 0.0323 0.9374 0.3466
vn 0.7991 0.5962 -0.0775
vn 0.6626 0.4793 -0.5755
vn 0.8710 0.3936 0.2941
vn 0.3163 -0.7028 0.6372
vn 0.8608 0.0184 0.5086
vn 0.8521 -0.2655 -0.4510
vn -0.7904 0.0744 -0.6081
vn -0.8034 -0.2642 0.5336
vn 0.9501 0.1376 -0.2801
vn 0.5769 0.1642 -0.8001
vn 0.9886 -0.0797 0.1274
vn -0.0954 -0.4612 0.8822
vn 0.8253 -0.1606 0.5413
vn -0.8569 0.3027 -0.4172
vn -0.9682 0.2331 -0.0912
vn -0.9214 0.0366 0.3869
vn 0.8959 -0.0932 -0.4345
vn 0.4918 0.1064 -0.8642
vn 0.9478 -0.2992 0.1099
vn 0.0666 -0.5286 0.8463
vn 0.6066 -0.4847 0.6302
vn -0.7036 0.2347 -0.6708
vn -0.9664 0.1699 -0.1930
vn -0.8041 -0.2350 0.5460
vn 0.3651 0.2086 -0.9073
vn 0.9016 -0.1864 -0.3903
vn 0.8836 -0.0940 -0.4588
vn 0.2511 0.2419 -0.9372
vn 0.9207 -0.3775 0.0994
vn 0.9400 -0.3247 0.1048
vn 0.5645 -0.5455 0.6195
vn -0.0851 -0.3566 0.9304
vn -0.0977 0.1186 0.9881
vn 0.6088 -0.2392 0.7564
vn -0.9066 0.3681 -0.2063
vn -0.6610 0.3738 -0.6507
vn -0.7284 0.4878 -0.4811
vn -0.8720 0.4690 -0.1403
vn -0.8895 0.1797 0.4201
vn -0.7398 0.4330 0.5151
vn 0.7040 -0.3482 0.6190
vn -0.0072 0.0421 0.9991
vn 0.1501 0.0553 0.9871
vn 0.7050 -0.3716 0.6041
vn 0.8905 -0.4384 0.1218
vn 0.8863 -0.4463 0.1235
vn 0.8090 -0.4436 -0.3857
vn 0.8770 -0.3643 -0.3132
vn 0.1773 -0.1191 -0.9769
vn 0.2052 0.0809 -0.9754
vn -0.7900 0.3174 -0.5246
vn -0.7778 0.3223 -0.5396
vn -0.9109 0.3791 -0.1632
vn -0.9438 0.2915 -0.1560
vn -0.8430 0.3862 0.3743
vn -0.8816 0.4262 0.2027
vn 0.6643 -0.3290 0.6711
vn -0.0338 0.0027 0.9994
vn 0.8911 -0.4409 0.1073
vn 0.8212 -0.3827 -0.4233
vn 0.1842 -0.1613 -0.9696
vn -0.7738 0.3007 -0.5575
vn -0.9094 0.3846 -0.1587
vn -0.8003 0.3401 0.4938
vn 0.6617 -0.2598 0.7034
vn -0.0502 0.0893 0.9947
vn 0.9249 -0.3642 0.1093
vn 0.8861 -0.2346 -0.3998
vn 0.2052 0.0645 -0.9766
vn -0.7395 0.4135 -0.5312
vn -0.8800 0.4516 -0.1472
vn -0.7575 0.4283 0.4926
vn 0.8527 -0.4538 -0.2587
vn 0.8336 -0.5415 0.1091
vn 0.6763 -0.5328 0.5088
vn 0.6294 -0.1054 0.7699
vn -0.8005 0.4573 0.3874
vn -0.7369 0.3589 0.5729
vn 0.4534 -0.2932 0.8417
vn -0.6024 0.5777 -0.5508
vn -0.7948 0.5973 -0.1075
vn 0.7748 -0.6046 -0.1848
vn 0.7209 -0.6865 0.0948
vn -0.8341 0.3004 0.4626
vn 0.5966 -0.7060 0.3816
vn -0.5247 0.5160 -0.6771
vn 0.7622 -0.4525 -0.4629
vn 0.1006 -0.8242 0.5573
vn -0.9494 -0.0594 0.3083
vn 0.8536 -0.3988 -0.3351
vn -0.5735 0.4114 -0.7084
vn 0.2927 -0.6161 0.7313
vn -0.9015 0.2268 0.3685
vn 0.0269 -0.4107 -0.9114
vn 0.5233 -0.1315 -0.8420
vn 0.4045 -0.1594 -0.9006
vn -0.0315 -0.3573 -0.9335
vn 0.6254 -0.0260 -0.7799
vn 0.6164 -0.0295 -0.7869
vn 0.8706 0.0836 -0.4849
vn 0.9038 0.0201 -0.4274
vn 0.9803 0.0996 0.1707
vn 0.9917 0.0603 0.1139
vn 0.4991 0.2462 0.8308
vn 0.6445 0.0812 0.7603
vn -0.0516 0.2081 0.9767
vn 0.1912 0.1605 0.9683
vn -0.3097 0.2280 0.9231
vn -0.1046 0.2276 0.9681
vn -0.2457 -0.3086 -0.9189
vn 0.2638 -0.1144 -0.9578
vn 0.1812 -0.1605 -0.9703
vn -0.3054 -0.3039 -0.9024
vn 0.6074 -0.0638 -0.7918
vn 0.6454 -0.0711 -0.7605
vn 0.8666 0.0036 -0.4989
vn 0.9216 -0.0469 -0.3852
vn 0.9998 -0.0147 0.0109
vn 0.9995 -0.0192 -0.0241
vn 0.8219 0.1513 0.5492
vn 0.7835 0.0067 0.6213
vn 0.4040 0.0494 0.9134
vn 0.5130 0.0023 0.8584
vn -0.9469 -0.3188 0.0424
vn -0.6621 -0.3643 -0.6549
vn -0.7052 -0.3856 -0.5950
vn -0.9361 -0.3517 -0.0090
vn -0.8850 -0.1830 0.4281
vn -0.8733 -0.2487 0.4189
vn -0.6485 -0.0811 0.7569
vn -0.6122 -0.1729 0.7716
vn 0.0107 0.0120 0.9999
vn 0.0516 -0.0473 0.9976
vn -0.4244 0.0327 -0.9049
vn 0.1077 -0.0672 -0.9919
vn 0.2205 0.3493 -0.9107
vn -0.4237 0.3954 -0.8150
vn 0.7898 0.0441 -0.6118
vn 0.8926 0.0999 -0.4396
vn 0.9501 -0.0027 -0.3120
vn 0.9652 -0.0205 -0.2609
vn 0.9956 -0.0407 -0.0848
vn 0.9926 -0.0676 -0.1008
vn 0.8029 -0.0941 0.5886
vn 0.7866 -0.2427 0.5677
vn 0.5424 -0.1117 0.8326
vn 0.5003 -0.2628 0.8250
vn -0.9995 0.0086 0.0297
vn -0.7912 0.0850 -0.6056
vn -0.7289 0.4350 -0.5286
vn -0.9432 0.3299 0.0390
vn -0.9016 -0.0433 0.4305
vn -0.8721 0.1564 0.4638
vn -0.6074 -0.0857 0.7898
vn -0.6269 -0.0046 0.7791
vn 0.1202 -0.1270 0.9846
vn 0.1019 -0.2256 0.9689
vn -0.3453 0.3582 -0.8674
vn 0.2177 0.3134 -0.9243
vn 0.1547 0.1791 -0.9716
vn -0.3403 0.3011 -0.8908
vn 0.8075 -0.0680 -0.5859
vn 0.7423 -0.0946 -0.6633
vn 0.8915 -0.1730 -0.4187
vn 0.8615 -0.1659 -0.4798
vn 0.9534 -0.2576 -0.1568
vn 0.9291 -0.1853 -0.3200
vn 0.7503 -0.4226 0.5084
vn 0.9325 -0.1245 0.3390
vn 0.4818 -0.4149 0.7718
vn 0.6160 0.0197 0.7875
vn -0.9749 0.2216 0.0225
vn -0.7407 0.3750 -0.5575
vn -0.7188 0.3119 -0.6213
vn -0.9820 0.1888 -0.0012
vn -0.9009 0.0297 0.4331
vn -0.9139 0.0334 0.4046
vn -0.7146 -0.1049 0.6916
vn -0.8401 -0.0142 0.5423
vn 0.0136 -0.3425 0.9394
vn -0.2911 -0.0666 0.9544
vn 0.0284 0.1368 -0.9902
vn -0.3927 0.2201 -0.8929
vn 0.7390 -0.1903 -0.6463
vn 0.8189 -0.1544 -0.5528
vn 0.8688 -0.0794 -0.4888
vn 0.5173 0.8337 -0.1934
vn 0.0571 0.9850 0.1630
vn -0.7727 0.2840 -0.5677
vn -0.9444 0.1790 0.2759
vn -0.8660 0.1527 0.4761
vn -0.8439 0.1332 0.5196
vn -0.4781 0.7439 0.4669
vn -0.1257 -0.3489 -0.9287
vn -0.4258 -0.3061 -0.8515
vn 0.4532 -0.7728 -0.4443
vn 0.4108 -0.7391 -0.5339
vn 0.5366 -0.7612 -0.3642
vn 0.4508 -0.7084 -0.5431
vn 0.6235 0.6911 -0.3656
vn 0.2296 0.9193 0.3196
vn 0.4016 -0.8904 0.2141
vn 0.6395 -0.7133 -0.2868
vn -0.7985 -0.2316 -0.5557
vn -0.8742 -0.4431 0.1987
vn -0.5229 -0.8338 0.1772
vn -0.4999 -0.8456 0.1872
vn -0.7116 -0.5755 0.4030
vn -0.5152 0.6123 0.5998
vn -0.4409 -0.6252 0.6440
vn -0.0316 -0.9733 -0.2275
vn 0.0448 -0.9832 -0.1771
vn 0.0867 -0.9787 -0.1860
vn 0.1167 -0.9889 -0.0922
vn -0.9681 -0.2464 -0.0444
vn -0.8763 -0.3065 -0.3717
vn -0.6339 -0.4468 -0.6313
vn -0.9569 -0.2897 0.0212
vn -0.1188 -0.4439 -0.8882
vn -0.9607 -0.1595 0.2272
vn -0.9058 -0.1124 0.4085
vn -0.9951 0.0656 -0.0737
vn -0.6793 0.1426 0.7198
vn -0.0185 -0.9065 -0.4218
vn 0.7703 -0.5604 -0.3042
vn 0.7611 -0.5772 -0.2961
vn -0.0066 -0.8748 -0.4845
vn 0.9655 0.2544 -0.0560
vn 0.9863 -0.0423 -0.1595
vn 0.6577 0.7516 0.0509
vn 0.0779 0.9950 0.0627
vn -0.1308 -0.9299 0.3437
vn 0.3916 -0.8478 0.3577
vn 0.6193 0.5959 0.5113
vn 0.0044 0.8682 0.4962
vn 0.9256 -0.0045 0.3784
vn 0.9213 -0.3290 0.2073
vn 0.5747 -0.8093 0.1212
vn -0.0967 -0.9929 0.0689
vn 0.7010 0.6982 0.1453
vn 0.0686 0.9899 0.1242
vn 0.9878 0.1394 0.0699
vn 0.9687 -0.2482 -0.0089
vn 0.6248 -0.7805 -0.0225
vn -0.0706 -0.9913 -0.1111
vn 0.3806 -0.2320 -0.8952
vn 0.5936 0.3382 -0.7302
vn 0.6879 -0.6643 -0.2924
vn 0.4613 -0.6254 -0.6294
vn 0.1262 -0.1658 -0.9780
vn 0.1642 0.6302 -0.7589
vn -0.0346 -0.9427 -0.3317
vn 0.0303 -0.7471 -0.6640
vn 0.0159 -0.3647 0.9310
vn 0.3533 -0.1939 0.9152
vn 0.6039 0.1284 0.7867
vn 0.9832 0.0794 0.1641
vn 0.7131 -0.2394 0.6589
vn 0.8677 0.3739 0.3276
vn 0.8951 0.3638 -0.2578
vn 0.7958 0.2698 -0.5421
vn 0.7134 0.3764 -0.5911
vn 0.3552 0.6533 -0.6686
vn 0.7056 0.4982 -0.5040
vn -0.0114 0.6723 -0.7402
vn -0.4540 -0.1693 0.8748
vn -0.5818 0.2893 0.7601
vn -0.9056 0.4207 0.0530
vn -0.9853 0.0967 0.1411
vn -0.7967 0.2322 -0.5580
vn -0.7962 0.2793 -0.5367
vn -0.6933 0.1421 -0.7065
vn -0.7282 0.0544 -0.6832
vn -0.8212 0.2974 -0.4871
vn -0.8224 0.0907 -0.5616
vn -0.4119 0.8842 0.2204
vn -0.3461 0.9230 -0.1681
vn -0.5007 0.7604 -0.4136
vn -0.5757 0.6809 -0.4526
vn 0.0315 -0.7297 0.6830
vn -0.1459 -0.9298 0.3380
vn 0.6747 -0.0502 -0.7364
vn 0.8452 0.1972 -0.4967
vn 0.1823 -0.5074 0.8422
vn 0.8713 0.4457 -0.2056
vn -0.4304 -0.7103 0.5569
vn -0.4557 -0.7844 0.4207
vn -0.5454 -0.3293 0.7708
vn -0.3610 -0.7375 0.5708
vn -0.6634 0.4655 -0.5859
vn -0.9283 0.1702 -0.3305
vn 0.9541 -0.0511 -0.2953
vn 0.4846 -0.4383 -0.7570
vn 0.8016 -0.4579 -0.3845
vn 0.9578 -0.2556 -0.1318
vn 0.3189 0.1977 0.9269
vn 0.9509 -0.1881 -0.2459
vn -0.6660 -0.6166 0.4197
vn -0.7608 -0.5306 0.3736
vn -0.6802 0.4045 -0.6113
vn -0.8452 0.2874 -0.4506
vn -0.9081 -0.4017 -0.1183
vn -0.9892 -0.0533 -0.1365
vn -0.9940 -0.0959 0.0522
vn -0.7638 -0.4205 0.4897
vn -0.3784 -0.8032 0.4602
vn -0.5815 -0.7265 0.3661
vn -0.8023 0.1564 0.5760
vn -0.4168 0.4131 0.8097
vn -0.0893 0.8825 0.4617
vn 0.0267 0.9932 -0.1132
vn -0.1089 0.8889 -0.4450
vn -0.2754 0.7163 -0.6412
vn -0.3319 0.6098 -0.7197
vn -0.2911 0.2004 -0.9355
vn -0.3970 0.5226 -0.7545
vn -0.2671 -0.0456 0.9626
vn -0.1531 -0.3970 0.9050
vn -0.4016 -0.6970 0.5941
vn -0.4201 -0.5804 0.6976
vn -0.3524 -0.7433 0.5686
vn -0.7368 -0.0932 0.6697
vn -0.6918 -0.5345 0.4856
vn -0.5252 0.4606 0.7156
vn -0.8622 -0.3361 -0.3789
vn -0.9752 0.2060 -0.0805
vn -0.4521 0.8439 0.2889
vn -0.6636 0.4690 -0.5828
vn -0.7575 0.6207 -0.2023
vn -0.8491 0.4684 0.2440
vn -0.8430 0.0411 0.5363
vn -0.2863 -0.6583 0.6962
vn 0.9874 0.1196 -0.1038
vn 0.3097 0.5500 -0.7756
vn 0.8612 -0.5000 0.0914
vn -0.5463 0.1429 -0.8253
vn -0.9032 0.1935 -0.3830
vn -0.9955 0.0925 0.0216
vn -0.7332 -0.1719 0.6579
vn 0.0570 -0.3810 0.9228
vn 0.9920 0.0984 -0.0792
vn 0.8791 0.1928 -0.4359
vn 0.9238 -0.0563 0.3787
vn -0.4594 0.0856 -0.8841
vn -0.8999 -0.0243 -0.4355
vn -0.9750 -0.1752 0.1364
vn -0.6456 -0.3833 0.6605
vn -0.1363 -0.5470 0.8260
vn 0.9694 -0.1279 -0.2096
vn 0.7323 0.0747 -0.6769
vn 0.6816 -0.4701 0.5607
vn -0.3123 -0.0183 -0.9498
vn -0.1979 -0.4240 -0.8838
vn -0.7907 -0.4241 -0.4416
vn -0.8903 -0.1580 -0.4271
vn -0.9390 -0.3375 0.0668
vn -0.9568 -0.2669 0.1151
vn -0.6408 -0.4003 0.6551
vn -0.6925 0.0589 0.7190
vn -0.1616 0.8244 0.5425
vn -0.1300 -0.0730 0.9888
vn 0.8440 0.1321 -0.5198
vn 0.6795 0.5853 -0.4425
vn 0.6682 0.2169 -0.7116
vn 0.6019 0.1259 -0.7886
vn 0.3131 0.9468 -0.0743
vn 0.9440 0.0560 0.3252
vn -0.5963 0.0575 0.8007
vn -0.6348 0.2037 0.7454
vn -0.0426 0.7225 0.6901
vn 0.0065 0.7425 0.6698
vn -0.7465 -0.4012 0.5309
vn -0.8610 -0.2179 0.4595
vn -0.6409 -0.7585 0.1185
vn -0.8561 -0.5057 0.1062
vn -0.0711 -0.8199 -0.5680
vn -0.2757 -0.6195 -0.7350
vn 0.8474 -0.0419 -0.5293
vn 0.7462 -0.2376 -0.6218
vn 0.8462 0.2554 -0.4677
vn 0.9331 0.0124 -0.3594
vn 0.7700 0.6231 -0.1371
vn 0.8985 0.3845 -0.2117
vn -0.6193 0.0416 0.7841
vn -0.1322 0.7135 0.6880
vn -0.7166 -0.5149 0.4705
vn -0.5832 -0.8121 0.0201
vn 0.0395 -0.8207 -0.5700
vn 0.7393 0.0581 -0.6708
vn 0.7572 0.4234 -0.4973
vn 0.5703 0.8213 0.0108
vn -0.6891 0.1527 0.7083
vn -0.2245 0.8014 0.5544
vn -0.8028 -0.4584 0.3813
vn -0.7119 -0.6950 -0.1012
vn -0.0294 -0.6857 -0.7273
vn 0.6813 0.1656 -0.7130
vn 0.7015 0.5109 -0.4969
vn 0.4002 0.9157 -0.0353
vn -0.9210 -0.3551 0.1598
vn -0.8594 -0.1792 0.4789
vn -0.6406 0.0631 0.7653
vn -0.5396 0.5232 0.6596
vn -0.3682 0.4186 0.8302
vn 0.8121 0.5673 0.1366
vn 0.8523 0.5174 -0.0764
vn 0.8250 0.2220 -0.5196
vn 0.5687 -0.0683 -0.8197
vn -0.8486 -0.4237 0.3168
vn -0.7657 -0.3046 0.5664
vn -0.6052 -0.1463 0.7825
vn 0.9136 0.3940 0.1009
vn 0.4764 -0.1632 -0.8640
vn 0.9732 0.0482 0.2250
vn -0.0894 -0.1926 0.9772
vn -0.8379 -0.5457 0.0113
vn 0.5162 -0.2595 -0.8162
vn -0.9113 -0.4064 0.0656
vn -0.2467 0.0983 0.9641
vn 0.9501 0.3035 0.0727
vn 0.0247 -0.3801 -0.9246
vn 0.1068 -0.3538 -0.9292
vn -0.3327 -0.1526 -0.9306
vn -0.4941 -0.1384 -0.8583
vn -0.5351 -0.0162 -0.8446
vn -0.5621 -0.0281 -0.8266
vn -0.8542 0.0272 -0.5192
vn -0.8258 0.0920 -0.5565
vn -0.9985 0.0533 0.0085
vn -0.9911 0.0542 0.1213
vn -0.7192 0.0661 0.6916
vn -0.5797 0.2279 0.7823
vn -0.2734 0.1436 0.9511
vn 0.0583 0.1617 0.9851
vn 0.0483 0.2698 0.9617
vn 0.3739 0.1386 0.9171
vn 0.3470 -0.2849 -0.8935
vn 0.3991 -0.2739 -0.8750
vn -0.0803 -0.1355 -0.9875
vn -0.2008 -0.1116 -0.9732
vn -0.5617 -0.0543 -0.8256
vn -0.5574 -0.0422 -0.8292
vn -0.8750 -0.0395 -0.4825
vn -0.8298 0.0324 -0.5571
vn -0.9914 -0.0225 -0.1292
vn -0.9996 -0.0154 -0.0242
vn -0.8434 -0.0116 0.5372
vn -0.8647 0.1368 0.4833
vn -0.5983 -0.0211 0.8010
vn -0.4741 0.0308 0.8799
vn 0.9431 -0.3032 0.1363
vn 0.9369 -0.3396 0.0826
vn 0.7700 -0.3584 -0.5278
vn 0.7285 -0.3851 -0.5665
vn 0.8416 -0.1760 0.5106
vn 0.8253 -0.2528 0.5049
vn 0.5725 -0.0883 0.8152
vn 0.5281 -0.1876 0.8282
vn 0.0304 0.0653 0.9974
vn -0.1547 -0.0734 0.9852
vn 0.5157 0.0552 -0.8550
vn 0.5181 0.3904 -0.7610
vn -0.1130 0.2913 -0.9499
vn -0.0068 -0.0195 -0.9998
vn -0.8386 0.1176 -0.5320
vn -0.7176 0.0532 -0.6944
vn -0.9328 0.0017 -0.3603
vn -0.9100 0.0050 -0.4145
vn -0.9767 -0.0584 -0.2063
vn -0.9809 -0.0394 -0.1903
vn -0.8460 -0.2228 0.4844
vn -0.8596 -0.0926 0.5024
vn -0.5852 -0.2591 0.7684
vn -0.6241 -0.1236 0.7715
vn 0.9917 0.0071 0.1286
vn 0.9445 0.2983 0.1376
vn 0.7896 0.4164 -0.4507
vn 0.8501 0.0916 -0.5186
vn 0.8528 -0.0578 0.5190
vn 0.8238 0.1274 0.5524
vn 0.5257 -0.1001 0.8448
vn 0.5456 -0.0265 0.8377
vn -0.2183 -0.1485 0.9645
vn -0.2025 -0.2336 0.9510
vn 0.4415 0.3513 -0.8256
vn 0.4343 0.2950 -0.8511
vn -0.0498 0.1925 -0.9800
vn -0.1135 0.3265 -0.9384
vn -0.6731 -0.0708 -0.7361
vn -0.7460 -0.0395 -0.6648
vn -0.8121 -0.1409 -0.5663
vn -0.8492 -0.1441 -0.5080
vn -0.8941 -0.1621 -0.4174
vn -0.9397 -0.2282 -0.2548
vn -0.9680 -0.1288 0.2154
vn -0.8099 -0.4022 0.4270
vn -0.6973 0.0311 0.7162
vn -0.5687 -0.4040 0.7165
vn 0.9740 0.1908 0.1225
vn 0.9810 0.1666 0.0995
vn 0.7835 0.2982 -0.5452
vn 0.8041 0.3538 -0.4778
vn 0.8529 -0.0005 0.5220
vn 0.8684 0.0123 0.4956
vn 0.6374 -0.1300 0.7595
vn 0.7771 -0.0309 0.6287
vn -0.1181 -0.3469 0.9304
vn 0.1740 -0.0589 0.9830
vn 0.4865 0.2122 -0.8475
vn 0.0761 0.1330 -0.9882
vn -0.6699 -0.1778 -0.7209
vn -0.7589 -0.1436 -0.6352
vn -0.8097 -0.0821 -0.5810
vn -0.5021 0.8239 -0.2626
vn -0.0827 0.9866 0.1405
vn 0.9106 0.1830 0.3707
vn 0.8303 0.2745 -0.4850
vn 0.8136 0.1561 0.5600
vn 0.7822 0.1478 0.6053
vn 0.4068 0.7596 0.5074
vn 0.5099 -0.3156 -0.8002
vn 0.2144 -0.3551 -0.9099
vn -0.3567 -0.7411 -0.5688
vn -0.4077 -0.7724 -0.4871
vn -0.4913 -0.7756 -0.3963
vn -0.3785 -0.7252 -0.5752
vn -0.5912 0.6742 -0.4426
vn -0.5938 -0.7289 -0.3408
vn -0.4085 -0.8936 0.1859
vn -0.2768 0.9203 0.2765
vn 0.8441 -0.4469 0.2962
vn 0.8488 -0.2410 -0.4706
vn 0.5136 -0.8230 0.2426
vn 0.4916 -0.8331 0.2534
vn 0.6712 -0.5570 0.4891
vn 0.3788 -0.6067 0.6988
vn 0.4382 0.6303 0.6408
vn 0.0474 -0.9760 -0.2124
vn -0.0242 -0.9856 -0.1675
vn -0.0533 -0.9826 -0.1777
vn -0.0908 -0.9921 -0.0863
vn 0.9840 -0.1780 -0.0003
vn 0.9600 -0.2599 0.1043
vn 0.7046 -0.3859 -0.5956
vn 0.6568 -0.4290 -0.6202
vn 0.9516 -0.1239 0.2812
vn 0.8685 -0.0857 0.4882
vn 0.7654 0.5856 0.2668
vn 0.5928 0.1628 0.7888
vn -0.7341 -0.4464 -0.5117
vn -0.7379 -0.4285 -0.5215
vn -0.8942 0.1222 -0.4306
vn -0.8531 0.4134 -0.3182
vn -0.5078 0.8534 -0.1172
vn -0.6143 -0.7598 0.2127
vn -0.6270 0.7049 0.3316
vn -0.9813 0.1622 0.1035
vn -0.9844 -0.1624 -0.0673
vn -0.7145 -0.6966 -0.0646
vn -0.5843 0.8106 -0.0399
vn -0.9291 0.3070 -0.2063
vn -0.9548 -0.0801 -0.2862
vn -0.7166 -0.6632 -0.2159
vn -0.1485 -0.1857 -0.9713
vn -0.3660 -0.5530 -0.7485
vn -0.6810 -0.5446 -0.4895
vn -0.2992 0.4164 -0.8586
vn -0.3225 -0.1703 0.9311
vn -0.5442 0.1884 0.8175
vn -0.9761 0.0965 0.1950
vn -0.7251 -0.2506 0.6414
vn -0.8904 0.3538 0.2865
vn -0.8773 0.3626 -0.3145
vn -0.8297 0.2742 -0.4862
vn -0.7616 0.3853 -0.5210
vn -0.3684 0.6620 -0.6527
vn -0.7349 0.4479 -0.5092
vn -0.7811 -0.5076 -0.3637
vn -0.5303 -0.4494 -0.7189
vn -0.3217 -0.2374 -0.9166
vn -0.6568 -0.2165 -0.7224
vn -0.5302 -0.4495 -0.7189
vn -0.2801 -0.4139 -0.8662
vn -0.3015 -0.3303 -0.8945
vn 0.2221 -0.9366 0.2710
vn 0.3015 0.3303 0.8945
vn 0.9272 0.1170 -0.3557
vn -0.9272 -0.1170 0.3557
vn 0.5882 -0.5209 0.6186
vn 0.5397 -0.1718 0.8242
vn -0.3481 -0.9290 -0.1259
vn -0.7274 0.3861 -0.5672
vn 0.9859 -0.1347 0.0988
vn 0.9970 -0.0691 -0.0352
vn 0.9788 -0.1633 -0.1234
vn 0.9942 -0.0556 -0.0915
vn 0.6514 -0.0023 -0.7588
vn 0.5685 -0.2112 -0.7951
vn -0.2578 -0.3197 -0.9118
vn -0.4149 -0.0619 -0.9078
vn -0.0449 -0.3294 0.9431
vn 0.0851 -0.0709 0.9938
vn -0.5307 -0.0519 0.8460
vn -0.5098 -0.0722 0.8572
vn -0.9809 0.1351 0.1401
vn -0.9877 0.1179 0.1027
vn -0.8012 0.0965 -0.5906
vn -0.8060 0.0257 -0.5913
vn -0.7289 0.0358 -0.6837
vn -0.6507 0.0231 -0.7590
vn -0.6148 0.0617 -0.7863
vn -0.5247 -0.1738 -0.8334
vn -0.5299 -0.5826 0.6163
vn 0.6588 0.7498 0.0606
vn -0.0056 -0.2702 -0.9628
vn -0.6537 -0.2380 0.7184
vn -0.9977 -0.0607 -0.0314
vn -0.9904 -0.1292 0.0494
vn -0.9953 -0.0641 -0.0720
vn -0.9770 -0.1536 -0.1477
vn 0.0037 0.0702 -0.9975
vn 0.2643 0.2160 -0.9399
vn 0.3616 -0.1621 -0.9181
vn -0.0062 -0.1820 -0.9833
vn -0.9947 -0.0179 -0.1011
vn -0.9623 -0.1085 -0.2494
vn 0.1181 -0.3316 0.9360
vn -0.1556 -0.1426 0.9775
vn 0.4982 -0.0442 0.8659
vn 0.4644 -0.0467 0.8844
vn 0.9807 0.0665 0.1840
vn 0.9538 0.0661 0.2931
vn 0.8531 0.0806 -0.5155
vn 0.8703 0.0139 -0.4923
vn 0.6881 0.0482 -0.7240
vn 0.6914 -0.0450 -0.7211
vn 0.6246 0.1406 -0.7682
vn 0.5413 -0.1842 -0.8204
vn 0.0215 -0.6263 0.7793
vn -0.0141 -0.5135 -0.8580
vn 0.0220 0.1927 -0.9810
vn 0.0037 -0.8307 -0.5568
vn -0.1882 0.8593 -0.4756
vn -0.4200 0.5509 -0.7211
vn 0.0115 0.6284 -0.7778
vn -0.8594 0.2874 -0.4228
vn -0.9607 0.2143 -0.1765
vn -0.3838 -0.4556 0.8032
vn 0.0121 -0.5452 0.8382
vn 0.4057 0.5622 -0.7207
vn 0.8258 0.3738 -0.4224
vn 0.9661 0.1951 -0.1690
vn 0.3969 -0.4638 0.7921
usemtl (null)
s 1
f 1/1/1 2/2/2 3/3/3 4/4/4
f 5/5/5 6/6/6 7/7/7 8/8/8
f 9/9/9 10/10/10 6/6/6 5/5/5
f 3/3/3 2/2/2 10/11/10 9/12/9
f 11/13/11 12/14/12 13/15/13 14/16/14
f 15/17/15 16/18/16 17/19/17 18/20/18
f 19/21/19 20/22/20 16/18/16 15/17/15
f 21/23/21 22/24/22 23/25/23 24/26/24
f 12/14/12 25/27/25 26/28/26 13/15/13
f 27/29/27 28/30/28 29/31/29 30/32/30
f 31/33/31 32/34/32 28/30/28 27/29/27
f 33/35/33 34/36/34 22/24/22 21/23/21
f 25/27/25 35/37/35 36/38/36 26/28/26
f 37/39/37 38/40/38 35/37/35 25/27/25
f 34/36/34 39/41/39 38/42/38 37/43/37
f 40/44/40 39/41/39 34/36/34 33/35/33
f 41/45/41 24/26/24 23/25/23 42/46/42
f 43/47/43 42/46/42 23/25/23 44/48/44
f 45/49/45 43/50/43 44/51/44 11/13/11
f 46/52/46 45/49/45 11/13/11 14/16/14
f 47/53/47 46/52/46 14/16/14 13/15/13
f 48/54/48 47/53/47 13/15/13 26/28/26
f 49/55/49 48/54/48 26/28/26 36/38/36
f 50/56/50 51/57/51 8/8/8 7/7/7
f 52/58/52 53/59/53 1/1/1 4/4/4
f 54/60/54 55/61/55 40/44/40 33/35/33
f 56/62/56 54/60/54 33/35/33 21/23/21
f 41/45/41 56/62/56 21/23/21 24/26/24
f 57/63/57 41/45/41 42/46/42 58/64/58
f 59/65/59 60/66/60 61/67/61 62/68/62
f 63/69/63 59/65/59 62/68/62 64/70/64
f 65/71/65 66/72/66 46/52/46 47/53/47
f 67/73/67 65/71/65 47/53/47 48/54/48
f 68/74/68 67/73/67 48/54/48 49/55/49
f 69/75/69 70/76/70 51/57/51 50/56/50
f 71/77/71 72/78/72 53/59/53 52/58/52
f 73/79/73 74/80/74 55/61/55 54/60/54
f 75/81/75 73/79/73 54/60/54 56/62/56
f 57/63/57 75/81/75 56/62/56 41/45/41
f 58/64/58 42/46/42 76/82/76 77/83/77
f 42/46/42 43/47/43 78/84/78 76/82/76
f 43/50/43 45/49/45 79/85/79 78/86/78
f 45/49/45 80/87/80 81/88/81 79/85/79
f 12/89/12 11/90/11 82/91/82 83/92/83
f 11/90/11 44/93/44 84/94/84 82/91/82
f 23/95/23 22/96/22 85/97/85 86/98/86
f 44/93/44 23/95/23 86/98/86 84/94/84
f 37/99/37 25/100/25 87/101/87 88/102/88
f 25/100/25 12/89/12 83/92/83 87/101/87
f 22/96/22 34/103/34 89/104/89 85/97/85
f 34/103/34 37/105/37 88/106/88 89/104/89
f 83/92/83 82/91/82 90/107/90 91/108/91
f 82/91/82 84/94/84 92/109/92 90/107/90
f 86/98/86 85/97/85 93/110/93 94/111/94
f 84/94/84 86/98/86 94/111/94 92/109/92
f 88/102/88 87/101/87 95/112/95 96/113/96
f 87/101/87 83/92/83 91/108/91 95/112/95
f 85/97/85 89/104/89 97/114/97 93/110/93
f 89/104/89 88/106/88 96/115/96 97/114/97
f 91/108/91 90/107/90 98/116/98 99/117/99
f 90/107/90 92/109/92 100/118/100 98/116/98
f 94/111/94 93/110/93 101/119/101 102/120/102
f 92/109/92 94/111/94 102/120/102 100/118/100
f 96/113/96 95/112/95 103/121/103 104/122/104
f 95/112/95 91/108/91 99/117/99 103/121/103
f 93/110/93 97/114/97 105/123/105 101/119/101
f 97/114/97 96/115/96 104/124/104 105/123/105
f 106/125/106 107/126/107 108/127/108 109/128/109
f 107/126/107 110/129/110 111/130/111 108/127/108
f 112/131/112 113/132/113 114/133/114 115/134/115
f 110/129/110 112/131/112 115/134/115 111/130/111
f 116/135/116 117/136/117 118/137/118 119/138/119
f 117/136/117 106/125/106 109/128/109 118/137/118
f 113/132/113 120/139/120 121/140/121 114/133/114
f 120/139/120 116/141/116 119/142/119 121/140/121
f 122/143/122 123/144/123 124/145/124 125/146/125
f 126/147/126 122/143/122 125/146/125 127/148/127
f 128/149/128 126/147/126 127/148/127 129/150/129
f 130/151/130 128/149/128 129/150/129 131/152/131
f 132/153/132 130/151/130 131/152/131 133/154/133
f 134/155/134 132/156/132 133/157/133 135/158/135
f 136/159/136 134/155/134 135/158/135 137/160/137
f 123/144/123 136/161/136 137/162/137 124/145/124
f 138/163/138 139/164/139 123/165/123 122/166/122
f 140/167/140 138/163/138 122/166/122 126/168/126
f 141/169/141 140/167/140 126/168/126 128/170/128
f 142/171/142 141/169/141 128/170/128 130/172/130
f 143/173/143 142/171/142 130/172/130 132/174/132
f 144/175/144 143/173/143 132/174/132 134/176/134
f 145/177/145 144/178/144 134/179/134 136/180/136
f 139/164/139 145/177/145 136/180/136 123/165/123
f 146/181/146 147/182/147 139/164/139 138/163/138
f 148/183/148 146/181/146 138/163/138 140/167/140
f 149/184/149 148/183/148 140/167/140 141/169/141
f 150/185/150 149/184/149 141/169/141 142/171/142
f 151/186/151 150/185/150 142/171/142 143/173/143
f 152/187/152 151/186/151 143/173/143 144/175/144
f 153/188/153 152/189/152 144/178/144 145/177/145
f 147/182/147 153/188/153 145/177/145 139/164/139
f 131/152/131 129/150/129 154/190/154 30/191/30
f 129/150/129 127/148/127 155/192/155 154/190/154
f 125/146/125 124/145/124 31/193/31 156/194/156
f 127/148/127 125/146/125 156/194/156 155/192/155
f 135/158/135 133/157/133 29/31/29 28/30/28
f 133/154/133 131/152/131 30/191/30 29/195/29
f 157/196/157 158/197/158 159/198/159 160/199/160
f 137/160/137 135/158/135 28/30/28 32/34/32
f 27/29/27 30/32/30 161/200/161 162/201/162
f 30/191/30 154/190/154 163/202/163 161/203/161
f 154/190/154 155/192/155 164/204/164 163/202/163
f 156/194/156 31/193/31 165/205/165 166/206/166
f 31/33/31 27/29/27 162/201/162 165/207/165
f 155/192/155 156/194/156 166/206/166 164/204/164
f 162/201/162 161/200/161 17/208/17 16/209/16
f 161/203/161 163/202/163 18/20/18 17/19/17
f 163/202/163 164/204/164 15/17/15 18/20/18
f 166/206/166 165/205/165 20/22/20 19/21/19
f 165/207/165 162/201/162 16/209/16 20/210/20
f 164/204/164 166/206/166 19/21/19 15/17/15
f 124/145/124 137/162/137 158/197/158 157/196/157
f 137/160/137 32/34/32 159/211/159 158/212/158
f 167/213/167 168/214/168 169/215/169 170/216/170
f 31/193/31 124/145/124 157/196/157 160/199/160
f 32/34/32 31/33/31 171/217/171 172/218/172
f 31/193/31 160/199/160 173/219/173 171/220/171
f 160/199/160 159/198/159 174/221/174 173/219/173
f 159/211/159 32/34/32 172/218/172 174/222/174
f 172/218/172 171/217/171 168/223/168 167/224/167
f 171/220/171 173/219/173 169/215/169 168/214/168
f 173/219/173 174/221/174 170/216/170 169/215/169
f 174/222/174 172/218/172 167/224/167 170/225/170
f 650/226/175 646/227/176 175/228/177 176/229/178
f 646/227/176 654/230/179 177/231/180 175/228/177
f 654/230/179 649/232/181 178/233/182 177/231/180
f 649/234/181 653/235/183 179/236/184 178/237/182
f 653/235/183 652/238/185 180/239/186 179/236/184
f 652/238/185 648/240/187 181/241/188 180/239/186
f 648/240/187 651/242/189 183/243/190 181/241/188
f 690/244/191 689/245/192 184/246/193 185/247/194
f 689/245/192 693/248/195 186/249/196 184/246/193
f 693/248/195 691/250/197 187/251/198 186/249/196
f 691/252/197 684/253/199 188/254/200 187/255/198
f 684/253/199 686/256/201 189/257/202 188/254/200
f 686/256/201 683/258/203 190/259/204 189/257/202
f 687/260/205 685/261/206 193/262/207 194/263/208
f 685/261/206 690/244/191 185/247/194 193/262/207
f 682/264/209 687/260/205 194/263/208 196/265/210
f 692/266/211 682/267/209 196/268/210 198/269/212
f 688/270/213 692/266/211 198/269/212 199/271/214
f 683/258/203 688/270/213 199/271/214 190/259/204
f 200/272/215 201/273/216 202/274/217 203/275/218
f 201/273/216 204/276/219 205/277/220 202/274/217
f 204/276/219 206/278/221 207/279/222 205/277/220
f 206/280/221 208/281/223 209/282/224 207/283/222
f 208/281/223 210/284/225 211/285/226 209/282/224
f 210/284/225 212/286/227 213/287/228 211/285/226
f 214/288/229 215/289/230 216/290/231 217/291/232
f 215/289/230 200/272/215 203/275/218 216/290/231
f 218/292/233 214/288/229 217/291/232 219/293/234
f 220/294/235 218/295/233 219/296/234 221/297/236
f 222/298/237 220/294/235 221/297/236 223/299/238
f 212/286/227 222/298/237 223/299/238 213/287/228
f 224/300/239 225/301/240 226/302/241 227/303/242
f 225/301/240 228/304/243 229/305/244 226/302/241
f 228/304/243 230/306/245 231/307/246 229/305/244
f 230/306/245 232/308/247 233/309/248 231/307/246
f 232/308/247 234/310/249 235/311/250 233/309/248
f 234/310/249 236/312/251 237/313/252 235/311/250
f 238/314/253 239/315/254 240/316/255 241/317/256
f 239/315/254 224/318/239 227/319/242 240/316/255
f 242/320/257 238/314/253 241/317/256 243/321/258
f 244/322/259 242/320/257 243/321/258 245/323/260
f 246/324/261 244/322/259 245/323/260 247/325/262
f 236/312/251 246/324/261 247/325/262 237/313/252
f 227/303/242 226/302/241 248/326/263 249/327/264
f 226/302/241 229/305/244 250/328/265 248/326/263
f 229/305/244 231/307/246 251/329/266 250/328/265
f 231/307/246 233/309/248 252/330/267 251/329/266
f 233/309/248 235/311/250 253/331/268 252/330/267
f 235/311/250 237/313/252 254/332/269 253/331/268
f 241/317/256 240/316/255 255/333/270 256/334/271
f 240/316/255 227/319/242 249/335/264 255/333/270
f 243/321/258 241/317/256 256/334/271 257/336/272
f 245/323/260 243/321/258 257/336/272 258/337/273
f 247/325/262 245/323/260 258/337/273 259/338/274
f 237/313/252 247/325/262 259/338/274 254/332/269
f 249/327/264 248/326/263 260/339/275 261/340/276
f 248/326/263 250/328/265 260/339/275
f 250/328/265 251/329/266 262/341/277 260/339/278
f 251/329/266 252/330/267 263/342/279 262/341/277
f 252/330/267 253/331/268 264/343/280 263/342/279
f 265/344/281 266/345/282 267/346/283 268/347/284
f 256/334/271 255/333/270 269/348/285 270/349/286
f 255/333/270 249/335/264 261/350/276 269/348/285
f 257/336/272 256/334/271 270/349/286 271/351/287
f 258/337/273 257/336/272 271/351/287 272/352/288
f 259/338/274 258/337/273 272/352/288 273/353/289
f 266/345/282 274/354/290 275/355/291 267/346/283
f 261/356/276 276/357/292 270/358/286 269/359/285
f 260/360/278 276/357/292 261/356/276
f 276/357/292 260/360/278 262/361/277 277/362/293
f 270/358/286 276/357/292 277/362/293 271/363/287
f 277/362/293 262/361/277 263/364/279 278/365/294
f 271/363/287 277/362/293 278/365/294 272/366/288
f 278/365/294 263/364/279 264/367/280 279/368/295
f 272/366/288 278/365/294 279/368/295 273/369/289
f 253/331/268 254/332/269 266/345/282 265/344/281
f 279/368/295 264/367/280 268/370/284 267/371/283
f 264/343/280 253/331/268 265/344/281 268/347/284
f 254/332/269 259/338/274 274/354/290 266/345/282
f 259/338/274 273/353/289 275/355/291 274/354/290
f 273/369/289 279/368/295 267/371/283 275/372/291
f 66/72/66 80/87/80 45/49/45 46/52/46
f 657/373/296 647/374/297 192/375/298 191/376/299
f 647/374/300 650/226/175 176/229/178 192/375/298
f 655/377/301 657/373/296 191/376/299 195/378/302
f 656/379/303 655/380/301 195/381/302 197/382/304
f 651/242/189 656/379/303 197/382/304 183/243/190
f 283/383/305 284/384/306 285/385/307 286/386/308
f 76/387/76 78/388/78 287/389/309 288/390/310
f 78/388/78 79/391/79 289/392/311 287/389/309
f 79/391/79 81/393/81 290/394/312 289/392/311
f 76/387/76 288/390/310 285/385/307 284/384/306
f 61/67/61 60/66/60 291/395/313 292/396/314
f 293/397/315 294/398/316 63/69/63 64/70/64
f 295/399/317 293/397/315 64/70/64 62/68/62
f 296/400/318 295/399/317 62/68/62 61/67/61
f 297/401/319 296/400/318 61/67/61 292/396/314
f 298/402/320 297/401/319 292/396/314 291/395/313
f 299/403/321 300/404/322 294/398/316 293/397/315
f 301/405/323 299/403/321 293/397/315 295/399/317
f 302/406/324 301/405/323 295/399/317 296/400/318
f 303/407/325 302/406/324 296/400/318 297/401/319
f 304/408/326 303/407/325 297/401/319 298/402/320
f 289/392/311 290/394/312 300/404/322 299/403/321
f 287/389/309 289/392/311 299/403/321 301/405/323
f 288/390/310 287/389/309 301/405/323 302/406/324
f 285/385/307 288/390/310 302/406/324 303/407/325
f 286/386/308 285/385/307 303/407/325 304/408/326
f 305/409/327 306/410/328 307/411/329 308/412/330
f 306/410/328 305/409/327 309/413/331 310/414/332
f 308/412/330 307/411/329 311/415/333 312/416/334
f 309/413/331 305/409/327 308/412/330 312/416/334
f 77/417/77 76/387/76 306/410/328 310/414/332
f 76/387/76 284/384/306 307/411/329 306/410/328
f 284/384/306 283/383/305 311/415/333 307/411/329
f 100/118/100 102/120/102 112/131/112 110/129/110
f 98/116/98 100/118/100 110/129/110 107/126/107
f 99/117/99 98/116/98 107/126/107 106/125/106
f 103/121/103 99/117/99 106/125/106 117/136/117
f 104/122/104 103/121/103 117/136/117 116/135/116
f 105/123/105 104/124/104 116/141/116 120/139/120
f 101/119/101 105/123/105 120/139/120 113/132/113
f 102/120/102 101/119/101 113/132/113 112/131/112
f 111/130/111 115/134/115 146/181/146 148/183/148
f 108/127/108 111/130/111 148/183/148 149/184/149
f 109/128/109 108/127/108 149/184/149 150/185/150
f 118/137/118 109/128/109 150/185/150 151/186/151
f 119/138/119 118/137/118 151/186/151 152/187/152
f 121/140/121 119/142/119 152/189/152 153/188/153
f 114/133/114 121/140/121 153/188/153 147/182/147
f 115/134/115 114/133/114 147/182/147 146/181/146
f 188/254/200 189/257/202 210/284/225 208/281/223
f 187/255/198 188/254/200 208/281/223 206/280/221
f 186/249/196 187/251/198 206/278/221 204/276/219
f 184/246/193 186/249/196 204/276/219 201/273/216
f 185/247/194 184/246/193 201/273/216 200/272/215
f 193/262/207 185/247/194 200/272/215 215/289/230
f 194/263/208 193/262/207 215/289/230 214/288/229
f 196/265/210 194/263/208 214/288/229 218/292/233
f 198/269/212 196/268/210 218/295/233 220/294/235
f 199/271/214 198/269/212 220/294/235 222/298/237
f 190/259/204 199/271/214 222/298/237 212/286/227
f 189/257/202 190/259/204 212/286/227 210/284/225
f 209/282/224 211/285/226 234/418/249 232/419/247
f 207/283/222 209/282/224 232/419/247 230/420/245
f 205/277/220 207/279/222 230/421/245 228/422/243
f 202/274/217 205/277/220 228/422/243 225/423/240
f 203/275/218 202/274/217 225/423/240 224/424/239
f 216/290/231 203/275/218 224/424/239 239/425/254
f 217/291/232 216/290/231 239/425/254 238/426/253
f 219/293/234 217/291/232 238/426/253 242/427/257
f 221/297/236 219/296/234 242/428/257 244/429/259
f 223/299/238 221/297/236 244/429/259 246/430/261
f 213/287/228 223/299/238 246/430/261 236/431/251
f 211/285/226 213/287/228 236/431/251 234/418/249
f 703/432/335 71/77/71 52/58/52 699/433/336
f 699/433/336 52/58/52 4/4/4 701/434/337
f 710/435/338 39/41/39 40/44/40 716/436/339
f 694/437/340 3/3/3 9/12/9 700/438/341
f 700/439/341 9/9/9 5/5/5 707/440/342
f 707/440/342 5/5/5 8/8/8 709/441/343
f 723/442/344 49/55/49 36/38/36 722/443/345
f 725/444/346 68/74/68 49/55/49 723/442/344
f 313/445/347 314/446/348 315/447/349 316/448/350
f 317/449/351 318/450/352 319/451/353 320/452/354
f 321/453/355 317/449/351 320/452/354 322/454/356
f 315/447/349 321/455/355 322/456/356 316/448/350
f 323/457/357 324/458/358 325/459/359 326/460/360
f 327/461/361 328/462/362 329/463/363 330/464/364
f 331/465/365 327/461/361 330/464/364 332/466/366
f 333/467/367 334/468/368 335/469/369 336/470/370
f 326/460/360 325/459/359 337/471/371 338/472/372
f 339/473/373 340/474/374 341/475/375 342/476/376
f 343/477/377 339/473/373 342/476/376 344/478/378
f 345/479/379 333/467/367 336/470/370 346/480/380
f 338/472/372 337/471/371 347/481/381 348/482/382
f 349/483/383 338/472/372 348/482/382 350/484/384
f 346/480/380 349/485/383 350/486/384 351/487/385
f 352/488/386 345/479/379 346/480/380 351/487/385
f 353/489/387 354/490/388 335/469/369 334/468/368
f 355/491/389 356/492/390 335/469/369 354/490/388
f 357/493/391 323/457/357 356/494/390 355/495/389
f 358/496/392 324/458/358 323/457/357 357/493/391
f 359/497/393 325/459/359 324/458/358 358/496/392
f 360/498/394 337/471/371 325/459/359 359/497/393
f 361/499/395 347/481/381 337/471/371 360/498/394
f 362/500/396 319/451/353 318/450/352 363/501/397
f 364/502/398 314/446/348 313/445/347 365/503/399
f 366/504/400 345/479/379 352/488/386 367/505/401
f 368/506/402 333/467/367 345/479/379 366/504/400
f 353/489/387 334/468/368 333/467/367 368/506/402
f 57/63/57 58/64/58 354/490/388 353/489/387
f 59/65/59 369/507/403 370/508/404 60/66/60
f 63/69/63 371/509/405 369/507/403 59/65/59
f 65/71/65 359/497/393 358/496/392 66/72/66
f 67/73/67 360/498/394 359/497/393 65/71/65
f 68/74/68 361/499/395 360/498/394 67/73/67
f 69/75/69 362/500/396 363/501/397 70/76/70
f 71/77/71 364/502/398 365/503/399 72/78/72
f 73/79/73 366/504/400 367/505/401 74/80/74
f 75/81/75 368/506/402 366/504/400 73/79/73
f 57/63/57 353/489/387 368/506/402 75/81/75
f 58/64/58 77/83/77 372/510/406 354/490/388
f 354/490/388 372/510/406 373/511/407 355/491/389
f 355/495/389 373/512/407 374/513/408 357/493/391
f 357/493/391 374/513/408 81/88/81 80/87/80
f 326/514/360 375/515/409 376/516/410 323/517/357
f 323/517/357 376/516/410 377/518/411 356/519/390
f 335/520/369 378/521/412 379/522/413 336/523/370
f 356/519/390 377/518/411 378/521/412 335/520/369
f 349/524/383 380/525/414 381/526/415 338/527/372
f 338/527/372 381/526/415 375/515/409 326/514/360
f 336/523/370 379/522/413 382/528/416 346/529/380
f 346/529/380 382/528/416 380/530/414 349/531/383
f 375/515/409 383/532/417 384/533/418 376/516/410
f 376/516/410 384/533/418 385/534/419 377/518/411
f 378/521/412 386/535/420 387/536/421 379/522/413
f 377/518/411 385/534/419 386/535/420 378/521/412
f 380/525/414 388/537/422 389/538/423 381/526/415
f 381/526/415 389/538/423 383/532/417 375/515/409
f 379/522/413 387/536/421 390/539/424 382/528/416
f 382/528/416 390/539/424 388/540/422 380/530/414
f 383/532/417 391/541/425 392/542/426 384/533/418
f 384/533/418 392/542/426 393/543/427 385/534/419
f 386/535/420 394/544/428 395/545/429 387/536/421
f 385/534/419 393/543/427 394/544/428 386/535/420
f 388/537/422 396/546/430 397/547/431 389/538/423
f 389/538/423 397/547/431 391/541/425 383/532/417
f 387/536/421 395/545/429 398/548/432 390/539/424
f 390/539/424 398/548/432 396/549/430 388/540/422
f 399/550/433 400/551/434 401/552/435 402/553/436
f 402/553/436 401/552/435 403/554/437 404/555/438
f 405/556/439 406/557/440 407/558/441 408/559/442
f 404/555/438 403/554/437 406/557/440 405/556/439
f 409/560/443 410/561/444 411/562/445 412/563/446
f 412/563/446 411/562/445 400/551/434 399/550/433
f 408/559/442 407/558/441 413/564/447 414/565/448
f 414/565/448 413/564/447 410/566/444 409/567/443
f 415/568/449 416/569/450 417/570/451 418/571/452
f 419/572/453 420/573/454 416/569/450 415/568/449
f 421/574/455 422/575/456 420/573/454 419/572/453
f 423/576/457 424/577/458 422/575/456 421/574/455
f 425/578/459 426/579/460 424/577/458 423/576/457
f 427/580/461 428/581/462 426/582/460 425/583/459
f 429/584/463 430/585/464 428/581/462 427/580/461
f 418/571/452 417/570/451 430/586/464 429/587/463
f 431/588/465 415/589/449 418/590/452 432/591/466
f 433/592/467 419/593/453 415/589/449 431/588/465
f 434/594/468 421/595/455 419/593/453 433/592/467
f 435/596/469 423/597/457 421/595/455 434/594/468
f 436/598/470 425/599/459 423/597/457 435/596/469
f 437/600/471 427/601/461 425/599/459 436/598/470
f 438/602/472 429/603/463 427/604/461 437/605/471
f 432/591/466 418/590/452 429/603/463 438/602/472
f 439/606/473 431/588/465 432/591/466 440/607/474
f 441/608/475 433/592/467 431/588/465 439/606/473
f 442/609/476 434/594/468 433/592/467 441/608/475
f 443/610/477 435/596/469 434/594/468 442/609/476
f 444/611/478 436/598/470 435/596/469 443/610/477
f 445/612/479 437/600/471 436/598/470 444/611/478
f 446/613/480 438/602/472 437/605/471 445/614/479
f 440/607/474 432/591/466 438/602/472 446/613/480
f 424/577/458 340/615/374 447/616/481 422/575/456
f 422/575/456 447/616/481 448/617/482 420/573/454
f 416/569/450 449/618/483 343/619/377 417/570/451
f 420/573/454 448/617/482 449/618/483 416/569/450
f 428/581/462 342/476/376 341/475/375 426/582/460
f 426/579/460 341/620/375 340/615/374 424/577/458
f 450/621/484 451/622/485 452/623/486 453/624/487
f 430/585/464 344/478/378 342/476/376 428/581/462
f 339/473/373 454/625/488 455/626/489 340/474/374
f 340/615/374 455/627/489 456/628/490 447/616/481
f 447/616/481 456/628/490 457/629/491 448/617/482
f 449/618/483 458/630/492 459/631/493 343/619/377
f 343/477/377 459/632/493 454/625/488 339/473/373
f 448/617/482 457/629/491 458/630/492 449/618/483
f 454/625/488 330/633/364 329/634/363 455/626/489
f 455/627/489 329/463/363 328/462/362 456/628/490
f 456/628/490 328/462/362 327/461/361 457/629/491
f 458/630/492 331/465/365 332/466/366 459/631/493
f 459/632/493 332/635/366 330/633/364 454/625/488
f 457/629/491 327/461/361 331/465/365 458/630/492
f 417/570/451 450/621/484 453/624/487 430/586/464
f 430/585/464 453/636/487 452/637/486 344/478/378
f 460/638/494 461/639/495 462/640/496 463/641/497
f 343/619/377 451/622/485 450/621/484 417/570/451
f 344/478/378 464/642/498 465/643/499 343/477/377
f 343/619/377 465/644/499 466/645/500 451/622/485
f 451/622/485 466/645/500 467/646/501 452/623/486
f 452/637/486 467/647/501 464/642/498 344/478/378
f 464/642/498 460/648/494 463/649/497 465/643/499
f 465/644/499 463/641/497 462/640/496 466/645/500
f 466/645/500 462/640/496 461/639/495 467/646/501
f 467/647/501 461/650/495 460/648/494 464/642/498
f 667/651/502 468/652/503 469/653/504 661/654/505
f 661/654/505 469/653/504 470/655/506 663/656/507
f 663/656/507 470/655/506 471/657/508 669/658/509
f 669/659/509 471/660/508 472/661/510 664/662/511
f 664/662/511 472/661/510 473/663/512 658/664/513
f 658/664/513 473/663/512 474/665/514 666/666/515
f 666/666/515 474/665/514 475/667/516 660/668/517
f 679/669/518 476/670/519 477/671/520 670/672/521
f 670/672/521 477/671/520 478/673/522 678/674/523
f 678/674/523 478/673/522 479/675/524 677/676/525
f 677/677/525 479/678/524 480/679/526 671/680/527
f 671/680/527 480/679/526 481/681/528 673/682/529
f 673/682/529 481/681/528 482/683/530 674/684/531
f 675/685/532 484/686/533 485/687/534 676/688/535
f 676/688/535 485/687/534 476/670/519 679/669/518
f 672/689/536 488/690/537 484/686/533 675/685/532
f 680/691/538 490/692/539 488/693/537 672/694/536
f 681/695/540 491/696/541 490/692/539 680/691/538
f 674/684/531 482/683/530 491/696/541 681/695/540
f 492/697/542 493/698/543 494/699/544 495/700/545
f 495/700/545 494/699/544 496/701/546 497/702/547
f 497/702/547 496/701/546 498/703/548 499/704/549
f 499/705/549 498/706/548 500/707/550 501/708/551
f 501/708/551 500/707/550 502/709/552 503/710/553
f 503/710/553 502/709/552 504/711/554 505/712/555
f 506/713/556 507/714/557 508/715/558 509/716/559
f 509/716/559 508/715/558 493/698/543 492/697/542
f 510/717/560 511/718/561 507/714/557 506/713/556
f 512/719/562 513/720/563 511/721/561 510/722/560
f 514/723/564 515/724/565 513/720/563 512/719/562
f 505/712/555 504/711/554 515/724/565 514/723/564
f 516/725/566 517/726/567 518/727/568 519/728/569
f 519/728/569 518/727/568 520/729/570 521/730/571
f 521/730/571 520/729/570 522/731/572 523/732/573
f 523/732/573 522/731/572 524/733/574 525/734/575
f 525/734/575 524/733/574 526/735/576 527/736/577
f 527/736/577 526/735/576 528/737/578 529/738/579
f 530/739/580 531/740/581 532/741/582 533/742/583
f 533/742/583 532/741/582 517/743/567 516/744/566
f 534/745/584 535/746/585 531/740/581 530/739/580
f 536/747/586 537/748/587 535/746/585 534/745/584
f 538/749/588 539/750/589 537/748/587 536/747/586
f 529/738/579 528/737/578 539/750/589 538/749/588
f 517/726/567 540/751/590 541/752/591 518/727/568
f 518/727/568 541/752/591 542/753/592 520/729/570
f 520/729/570 542/753/592 543/754/593 522/731/572
f 522/731/572 543/754/593 544/755/594 524/733/574
f 524/733/574 544/755/594 545/756/595 526/735/576
f 526/735/576 545/756/595 546/757/596 528/737/578
f 531/740/581 547/758/597 548/759/598 532/741/582
f 532/741/582 548/759/598 540/760/590 517/743/567
f 535/746/585 549/761/599 547/758/597 531/740/581
f 537/748/587 550/762/600 549/761/599 535/746/585
f 539/750/589 551/763/601 550/762/600 537/748/587
f 528/737/578 546/757/596 551/763/601 539/750/589
f 540/751/590 552/764/602 553/765/603 541/752/591
f 541/752/591 553/765/604 542/753/592
f 542/753/592 553/765/604 554/766/605 543/754/593
f 543/754/593 554/766/605 555/767/606 544/755/594
f 544/755/594 555/767/606 556/768/607 545/756/595
f 557/769/608 558/770/609 559/771/610 560/772/611
f 547/758/597 561/773/612 562/774/613 548/759/598
f 548/759/598 562/774/613 552/775/602 540/760/590
f 549/761/599 563/776/614 561/773/612 547/758/597
f 550/762/600 564/777/615 563/776/614 549/761/599
f 551/763/601 565/778/616 564/777/615 550/762/600
f 560/772/611 559/771/610 566/779/617 567/780/618
f 552/781/602 562/782/613 561/783/612 568/784/619
f 553/785/603 552/781/602 568/784/619
f 568/784/619 569/786/620 554/787/605 553/785/604
f 561/783/612 563/788/614 569/786/620 568/784/619
f 569/786/620 570/789/621 555/790/606 554/787/605
f 563/788/614 564/791/615 570/789/621 569/786/620
f 570/789/621 571/792/622 556/793/607 555/790/606
f 564/791/615 565/794/616 571/792/622 570/789/621
f 545/756/595 557/769/608 560/772/611 546/757/596
f 571/792/622 559/795/610 558/796/609 556/793/607
f 556/768/607 558/770/609 557/769/608 545/756/595
f 546/757/596 560/772/611 567/780/618 551/763/601
f 551/763/601 567/780/618 566/779/617 565/778/616
f 565/794/616 566/797/617 559/795/610 571/792/622
f 66/72/66 358/496/392 357/493/391 80/87/80
f 662/798/623 483/799/624 486/800/625 665/801/626
f 665/801/626 486/800/625 468/652/503 667/651/502
f 668/802/627 487/803/628 483/799/624 662/798/623
f 659/804/629 489/805/630 487/806/628 668/807/627
f 660/668/517 475/667/516 489/805/630 659/804/629
f 283/383/305 286/386/308 572/808/631 573/809/632
f 372/810/406 574/811/633 575/812/634 373/813/407
f 373/813/407 575/812/634 576/814/635 374/815/408
f 374/815/408 576/814/635 290/394/312 81/393/81
f 372/810/406 573/809/632 572/808/631 574/811/633
f 370/508/404 577/816/636 291/395/313 60/66/60
f 578/817/637 371/509/405 63/69/63 294/398/316
f 579/818/638 369/507/403 371/509/405 578/817/637
f 580/819/639 370/508/404 369/507/403 579/818/638
f 581/820/640 577/816/636 370/508/404 580/819/639
f 298/402/320 291/395/313 577/816/636 581/820/640
f 582/821/641 578/817/637 294/398/316 300/404/322
f 583/822/642 579/818/638 578/817/637 582/821/641
f 584/823/643 580/819/639 579/818/638 583/822/642
f 585/824/644 581/820/640 580/819/639 584/823/643
f 304/408/326 298/402/320 581/820/640 585/824/644
f 576/814/635 582/821/641 300/404/322 290/394/312
f 575/812/634 583/822/642 582/821/641 576/814/635
f 574/811/633 584/823/643 583/822/642 575/812/634
f 572/808/631 585/824/644 584/823/643 574/811/633
f 286/386/308 304/408/326 585/824/644 572/808/631
f 586/825/645 587/826/646 588/827/647 589/828/648
f 589/828/648 310/414/332 309/413/331 586/825/645
f 587/826/646 312/416/334 311/415/333 588/827/647
f 309/413/331 312/416/334 587/826/646 586/825/645
f 77/417/77 310/414/332 589/828/648 372/810/406
f 372/810/406 589/828/648 588/827/647 573/809/632
f 573/809/632 588/827/647 311/415/333 283/383/305
f 393/543/427 404/555/438 405/556/439 394/544/428
f 392/542/426 402/553/436 404/555/438 393/543/427
f 391/541/425 399/550/433 402/553/436 392/542/426
f 397/547/431 412/563/446 399/550/433 391/541/425
f 396/546/430 409/560/443 412/563/446 397/547/431
f 398/548/432 414/565/448 409/567/443 396/549/430
f 395/545/429 408/559/442 414/565/448 398/548/432
f 394/544/428 405/556/439 408/559/442 395/545/429
f 403/554/437 441/608/475 439/606/473 406/557/440
f 401/552/435 442/609/476 441/608/475 403/554/437
f 400/551/434 443/610/477 442/609/476 401/552/435
f 411/562/445 444/611/478 443/610/477 400/551/434
f 410/561/444 445/612/479 444/611/478 411/562/445
f 413/564/447 446/613/480 445/614/479 410/566/444
f 407/558/441 440/607/474 446/613/480 413/564/447
f 406/557/440 439/606/473 440/607/474 407/558/441
f 480/679/526 501/708/551 503/710/553 481/681/528
f 479/678/524 499/705/549 501/708/551 480/679/526
f 478/673/522 497/702/547 499/704/549 479/675/524
f 477/671/520 495/700/545 497/702/547 478/673/522
f 476/670/519 492/697/542 495/700/545 477/671/520
f 485/687/534 509/716/559 492/697/542 476/670/519
f 484/686/533 506/713/556 509/716/559 485/687/534
f 488/690/537 510/717/560 506/713/556 484/686/533
f 490/692/539 512/719/562 510/722/560 488/693/537
f 491/696/541 514/723/564 512/719/562 490/692/539
f 482/683/530 505/712/555 514/723/564 491/696/541
f 481/681/528 503/710/553 505/712/555 482/683/530
f 500/707/550 525/829/575 527/830/577 502/709/552
f 498/706/548 523/831/573 525/829/575 500/707/550
f 496/701/546 521/832/571 523/833/573 498/703/548
f 494/699/544 519/834/569 521/832/571 496/701/546
f 493/698/543 516/835/566 519/834/569 494/699/544
f 508/715/558 533/836/583 516/835/566 493/698/543
f 507/714/557 530/837/580 533/836/583 508/715/558
f 511/718/561 534/838/584 530/837/580 507/714/557
f 513/720/563 536/839/586 534/840/584 511/721/561
f 515/724/565 538/841/588 536/839/586 513/720/563
f 504/711/554 529/842/579 538/841/588 515/724/565
f 502/709/552 527/830/577 529/842/579 504/711/554
f 703/432/335 702/843/649 364/502/398 71/77/71
f 702/843/649 698/844/650 314/446/348 364/502/398
f 711/845/651 713/846/652 352/488/386 351/487/385
f 696/847/653 705/848/654 321/455/355 315/447/349
f 705/849/654 697/850/655 317/449/351 321/453/355
f 697/850/655 708/851/656 318/450/352 317/449/351
f 724/852/657 721/853/658 347/481/381 361/499/395
f 725/444/346 724/852/657 361/499/395 68/74/68
f 590/854/659 591/855/660 592/856/661 593/857/662
f 594/858/663 590/859/664 593/860/665 595/861/665
f 596/862/666 594/863/666 595/864/666 597/865/666
f 592/866/667 591/867/667 596/868/667 597/869/667
f 595/870/668 593/871/668 592/872/668 597/873/668
f 590/874/669 594/875/669 596/876/669 591/877/669
f 624/878/670 600/879/671 599/880/672 623/881/673
f 623/881/673 599/880/672 608/882/674 632/883/675
f 632/884/675 608/885/674 602/886/676 626/887/677
f 629/888/678 605/889/679 607/890/680 631/891/681
f 626/887/677 602/886/676 605/889/679 629/888/678
f 630/892/682 606/893/683 600/879/671 624/878/670
f 622/894/684 598/895/685 606/893/683 630/892/682
f 628/896/686 604/897/687 598/895/685 622/894/684
f 633/898/688 609/899/689 604/897/687 628/896/686
f 627/900/690 603/901/691 609/902/689 633/903/688
f 625/904/692 601/905/693 603/901/691 627/900/690
f 631/891/681 607/890/680 601/905/693 625/904/692
f 642/906/694 635/907/695 618/908/696 616/909/697
f 635/907/695 634/910/698 612/911/699 618/908/696
f 634/912/698 636/913/700 620/914/701 612/915/699
f 638/916/702 641/917/703 615/918/704 611/919/705
f 636/913/700 638/916/706 611/919/707 620/914/701
f 639/920/708 642/906/694 616/909/697 613/921/709
f 643/922/710 639/920/708 613/921/709 617/923/711
f 644/924/712 643/922/710 617/923/711 619/925/713
f 640/926/714 644/924/712 619/925/713 614/927/715
f 645/928/716 640/929/714 614/930/715 621/931/717
f 637/932/718 645/928/716 621/931/717 610/933/719
f 641/917/703 637/932/718 610/933/719 615/918/704
f 362/934/396 631/891/681 625/904/692 319/935/353
f 319/935/353 625/904/692 627/900/690 320/936/354
f 320/936/354 627/900/690 633/903/688 322/937/356
f 322/938/356 633/898/688 628/896/686 316/939/350
f 316/939/350 628/896/686 622/894/684 313/940/347
f 313/940/347 622/894/684 630/892/682 365/941/399
f 365/941/399 630/892/682 624/878/670 182/942/720 72/943/72
f 280/944/721 626/887/677 629/888/678 69/945/722
f 69/945/722 629/888/678 631/891/681 362/934/396
f 281/946/723 632/884/675 626/887/677 280/944/721
f 282/947/724 623/881/673 632/883/675 281/948/723
f 182/942/720 624/878/670 623/881/673 282/947/724
f 50/949/50 7/950/7 637/932/718 641/917/703
f 7/950/7 6/951/6 645/928/716 637/932/718
f 6/951/6 10/952/10 640/929/714 645/928/716
f 10/953/10 2/954/2 644/924/712 640/926/714
f 2/954/2 1/955/1 643/922/710 644/924/712
f 1/955/1 53/956/53 639/920/708 643/922/710
f 53/956/53 72/943/72 182/942/720 642/906/694 639/920/708
f 280/944/721 69/945/722 638/916/706 636/913/700
f 69/945/69 50/949/50 641/917/703 638/916/702
f 281/946/723 280/944/721 636/913/700 634/912/698
f 282/947/724 281/948/723 634/910/698 635/907/695
f 182/942/720 282/947/724 635/907/695 642/906/694
f 616/909/697 618/908/696 656/379/303 651/242/189
f 618/908/696 612/911/699 655/380/301 656/379/303
f 612/915/699 620/914/701 657/373/296 655/377/301
f 611/919/705 615/918/704 650/226/175 647/374/300
f 620/914/701 611/919/707 647/374/297 657/373/296
f 613/921/709 616/909/697 651/242/189 648/240/187
f 617/923/711 613/921/709 648/240/187 652/238/185
f 619/925/713 617/923/711 652/238/185 653/235/183
f 614/927/715 619/925/713 653/235/183 649/234/181
f 621/931/717 614/930/715 649/232/181 654/230/179
f 610/933/719 621/931/717 654/230/179 646/227/176
f 615/918/704 610/933/719 646/227/176 650/226/175
f 600/879/671 660/668/517 659/804/629 599/880/672
f 599/880/672 659/804/629 668/807/627 608/882/674
f 608/885/674 668/802/627 662/798/623 602/886/676
f 605/889/679 665/801/626 667/651/502 607/890/680
f 602/886/676 662/798/623 665/801/626 605/889/679
f 606/893/683 666/666/515 660/668/517 600/879/671
f 598/895/685 658/664/513 666/666/515 606/893/683
f 604/897/687 664/662/511 658/664/513 598/895/685
f 609/899/689 669/659/509 664/662/511 604/897/687
f 603/901/691 663/656/507 669/658/509 609/902/689
f 601/905/693 661/654/505 663/656/507 603/901/691
f 607/890/680 667/651/502 661/654/505 601/905/693
f 474/665/514 674/684/531 681/695/540 475/667/516
f 475/667/516 681/695/540 680/691/538 489/805/630
f 489/805/630 680/691/538 672/694/536 487/806/628
f 487/803/628 672/689/536 675/685/532 483/799/624
f 486/800/625 676/688/535 679/669/518 468/652/503
f 483/799/624 675/685/532 676/688/535 486/800/625
f 473/663/512 673/682/529 674/684/531 474/665/514
f 472/661/510 671/680/527 673/682/529 473/663/512
f 471/660/508 677/677/525 671/680/527 472/661/510
f 470/655/506 678/674/523 677/676/525 471/657/508
f 469/653/504 670/672/521 678/674/523 470/655/506
f 468/652/503 679/669/518 670/672/521 469/653/504
f 181/241/188 183/243/190 688/270/213 683/258/203
f 183/243/190 197/382/304 692/266/211 688/270/213
f 197/382/304 195/381/302 682/267/209 692/266/211
f 195/378/302 191/376/299 687/260/205 682/264/209
f 192/375/298 176/229/178 690/244/191 685/261/206
f 191/376/299 192/375/298 685/261/206 687/260/205
f 180/239/186 181/241/188 683/258/203 686/256/201
f 179/236/184 180/239/186 686/256/201 684/253/199
f 178/237/182 179/236/184 684/253/199 691/252/197
f 177/231/180 178/233/182 691/250/197 693/248/195
f 175/228/177 177/231/180 693/248/195 689/245/192
f 176/229/178 175/228/177 689/245/192 690/244/191
f 70/76/70 363/501/397 704/957/725 706/958/726
f 363/501/397 318/450/352 708/851/656 704/957/725
f 712/959/727 721/853/658 708/851/656 697/850/655
f 719/960/728 712/959/727 697/850/655 705/849/654
f 711/845/651 719/961/728 705/848/654 696/847/653
f 315/447/349 314/446/348 698/844/650 696/847/653
f 717/962/729 713/846/652 698/844/650 702/843/649
f 718/963/730 717/962/729 702/843/649 703/432/335
f 70/76/70 706/958/726 695/964/731 51/57/51
f 51/57/51 695/964/731 709/441/343 8/8/8
f 720/965/732 707/440/342 709/441/343 722/443/345
f 715/966/733 700/439/341 707/440/342 720/965/732
f 710/435/338 694/437/340 700/438/341 715/967/733
f 3/3/3 694/437/340 701/434/337 4/4/4
f 714/968/734 699/433/336 701/434/337 716/436/339
f 718/963/730 703/432/335 699/433/336 714/968/734
f 74/80/74 718/963/730 714/968/734 55/61/55
f 55/61/55 714/968/734 716/436/339 40/44/40
f 39/41/39 710/435/338 715/967/733 38/42/38
f 38/40/38 715/966/733 720/965/732 35/37/35
f 35/37/35 720/965/732 722/443/345 36/38/36
f 74/80/74 367/505/401 717/962/729 718/963/730
f 367/505/401 352/488/386 713/846/652 717/962/729
f 351/487/385 350/486/384 719/961/728 711/845/651
f 350/484/384 348/482/382 712/959/727 719/960/728
f 348/482/382 347/481/381 721/853/658 712/959/727
f 706/958/726 704/957/725 724/852/657 725/444/346
f 704/957/725 708/851/656 721/853/658 724/852/657
f 696/847/653 698/844/650 713/846/652 711/845/651
f 706/958/726 725/444/346 723/442/344 695/964/731
f 695/964/731 723/442/344 722/443/345 709/441/343
f 694/437/340 710/435/338 716/436/339 701/434/337
