%YAML 1.1
%TAG !u! tag:unity3d.com,2011:
--- !u!47 &1
QualitySettings:
  m_ObjectHideFlags: 0
  serializedVersion: 5
  m_CurrentQuality: 0
  m_QualitySettings:
  - serializedVersion: 2
    name: Ultra
    pixelLightCount: 50
    shadows: 2
    shadowResolution: 2
    shadowProjection: 1
    shadowCascades: 4
    shadowDistance: 300
    shadowNearPlaneOffset: 3
    shadowCascade2Split: 0.33333334
    shadowCascade4Split: {x: 0.06666667, y: 0.2, z: 0.46666667}
    shadowmaskMode: 1
    blendWeights: 4
    textureQuality: 0
    anisotropicTextures: 2
    antiAliasing: 2
    softParticles: 1
    softVegetation: 1
    realtimeReflectionProbes: 1
    billboardsFaceCameraPosition: 1
    vSyncCount: 0
    lodBias: 2
    maximumLODLevel: 0
    particleRaycastBudget: 4096
    asyncUploadTimeSlice: 2
    asyncUploadBufferSize: 4
    resolutionScalingFixedDPIFactor: 1
    excludedTargetPlatforms: []
  - serializedVersion: 2
    name: Level 1
    pixelLightCount: 50
    shadows: 1
    shadowResolution: 0
    shadowProjection: 1
    shadowCascades: 4
    shadowDistance: 300
    shadowNearPlaneOffset: 3
    shadowCascade2Split: 0.33333334
    shadowCascade4Split: {x: 0.06666667, y: 0.2, z: 0.46666667}
    shadowmaskMode: 1
    blendWeights: 4
    textureQuality: 0
    anisotropicTextures: 2
    antiAliasing: 2
    softParticles: 1
    softVegetation: 1
    realtimeReflectionProbes: 1
    billboardsFaceCameraPosition: 1
    vSyncCount: 0
    lodBias: 2
    maximumLODLevel: 0
    particleRaycastBudget: 4096
    asyncUploadTimeSlice: 2
    asyncUploadBufferSize: 4
    resolutionScalingFixedDPIFactor: 1
    excludedTargetPlatforms:
    - Standalone
    - Android
  m_PerPlatformDefaultQuality:
    Android: 0
    Standalone: 0
    WebGL: 1
    iPhone: 0
