# This file uses centimeters as units for non-parametric coordinates.

mtllib hero2.mtl
v 0.265823 1.570662 0.311224
v 0.532779 2.532303 0.278933
v 0.448103 2.555826 -0.298900
v 0.262106 1.595361 -0.205348
v 0.337171 1.582729 -0.075115
v 0.565740 2.654535 -0.218835
v 0.385726 1.575240 0.031090
v 0.583277 2.749365 0.005547
v 0.354715 1.574933 0.204380
v 0.619169 2.635094 0.221162
v 0.457195 2.343547 -0.333002
v 0.570726 2.396238 -0.283134
v 0.619823 2.398889 0.286413
v 0.532534 2.350410 0.357788
v 0.444999 2.139463 -0.330581
v 0.555158 2.225296 -0.283182
v 0.562433 2.189118 -0.007897
v 0.594852 2.225334 0.220190
v 0.514357 2.128666 0.344039
v 0.275512 1.915572 -0.218437
v 0.333482 1.873016 -0.100304
v 0.378637 1.836962 0.000770
v 0.376773 1.792998 0.190901
v 0.332759 1.754950 0.307627
v 0.287967 2.592561 0.357354
v 0.235054 2.710772 0.233598
v 0.353409 2.875977 -0.002643
v 0.244001 2.815744 -0.186930
v 0.280444 2.561973 -0.361614
v 0.283384 2.301081 -0.399064
v 0.278133 2.132524 -0.393208
v 0.160510 1.911100 -0.276817
v 0.146322 1.580765 -0.269610
v 0.145777 1.569568 0.331628
v 0.173504 1.739236 0.387284
v 0.285262 2.074826 0.487607
v 0.288447 2.324933 0.532193
v 0.000000 2.596786 0.400902
v 0.000000 2.697395 0.255988
v 0.000000 2.811548 -0.139313
v 0.000000 2.574361 -0.313567
v 0.000000 2.299699 -0.355467
v 0.000000 2.130691 -0.349802
v 0.000000 1.909868 -0.290828
v 0.000000 1.575284 -0.276100
v -0.000000 1.555972 0.358925
v -0.000000 1.735245 0.407600
v 0.000000 2.075240 0.500265
v -0.000000 2.325240 0.555916
v 0.000000 2.927555 0.226935
v 0.172996 2.924174 0.268435
v 0.166722 3.045906 0.120499
v 0.000000 3.077172 0.001199
v 0.135869 3.078244 0.028663
v 0.794171 2.594898 -0.008709
v 0.685583 2.386316 -0.259513
v 0.759268 2.586263 -0.186655
v 0.701593 2.377885 0.259573
v 0.771474 2.563114 0.180288
v 0.608885 2.225213 -0.019100
v 0.624614 2.226891 -0.258660
v 0.624419 2.202147 0.192249
v 0.939467 2.306335 -0.017893
v 0.773026 2.145544 -0.229871
v 0.914230 2.314969 -0.196069
v 0.775269 2.122079 0.192212
v 0.910132 2.277807 0.149902
v 0.641127 1.982114 -0.022472
v 0.679661 2.052732 -0.228741
v 0.662609 2.017558 0.142860
v 0.961061 1.961370 -0.033717
v 0.844400 1.909779 -0.177061
v 0.952046 1.969725 -0.156760
v 0.830861 1.896469 0.046511
v 0.939691 1.951462 0.018227
v 0.734498 1.848947 -0.033583
v 0.772232 1.877376 -0.176415
v 0.742303 1.861183 0.019827
v 1.013038 1.375602 0.064443
v 0.860778 1.324398 -0.128503
v 1.023845 1.360364 -0.115613
v 0.820476 1.447060 0.274815
v 0.979423 1.417739 0.243065
v 0.691305 1.349144 0.077929
v 0.747518 1.317692 -0.128801
v 0.682737 1.421876 0.262348
v 0.817468 1.531924 0.213564
v 0.975421 1.565994 0.168824
v 1.006212 1.542022 0.039558
v 1.009969 1.514253 -0.118237
v 0.856894 1.462262 -0.127316
v 0.746013 1.436496 -0.120513
v 0.692168 1.457570 0.066364
v 0.692258 1.499670 0.198683
v 0.823246 1.653805 0.158617
v 0.966586 1.695756 0.113391
v 0.994796 1.680826 0.015234
v 0.992795 1.654350 -0.132797
v 0.854530 1.594103 -0.140288
v 0.756589 1.564259 -0.132232
v 0.707407 1.579775 0.043958
v 0.710715 1.615623 0.141815
v 0.830088 1.777420 0.111177
v 0.964582 1.825579 0.065069
v 0.991106 1.817034 -0.011669
v 0.982912 1.791186 -0.154349
v 0.853595 1.724246 -0.160776
v 0.763227 1.691093 -0.151716
v 0.716916 1.702759 0.018782
v 0.722977 1.734492 0.092783
v 0.842393 1.204078 0.106197
v 0.982526 1.182843 0.107594
v 0.871378 1.185605 -0.126249
v 0.994065 1.174601 -0.101709
v 0.830425 1.263621 0.289358
v 0.955837 1.231420 0.266660
v 0.744865 1.257860 0.088363
v 0.792062 1.228196 -0.098771
v 0.740330 1.303098 0.260298
v 0.844635 1.047021 0.125509
v 0.907815 0.994970 0.133467
v 0.865926 1.005256 -0.046720
v 0.931956 0.970274 -0.023285
v 0.840073 1.100252 0.300794
v 0.897780 1.047157 0.286778
v 0.747217 0.967476 0.137669
v 0.813405 0.915616 0.146379
v 0.773133 0.926679 -0.020851
v 0.841548 0.891169 0.000507
v 0.739755 1.019522 0.298393
v 0.799422 0.967425 0.288304
v 0.668737 1.395032 0.314268
v 0.805060 1.403967 0.323829
v 0.693202 1.287671 0.396812
v 0.801725 1.273954 0.419051
v 0.733155 1.216452 0.311943
v 0.798812 1.191425 0.329797
v 0.779971 1.195034 0.412584
v 0.705299 1.204733 0.398307
v 0.696380 1.104292 0.304491
v 0.773521 1.089070 0.309665
v 0.763514 1.064067 0.379093
v 0.681727 1.069592 0.371841
v 0.158552 1.351415 -0.129380
v 0.256194 1.369168 -0.103296
v 0.301084 1.349277 -0.015439
v 0.321855 1.340087 0.051991
v 0.298546 1.341329 0.153520
v 0.156012 1.340738 0.260638
v 0.260079 1.336958 0.214973
v 0.083518 1.344342 -0.105281
v 0.018733 1.343358 -0.030567
v 0.015748 1.341690 0.060990
v 0.020069 1.342023 0.177814
v 0.077401 1.342476 0.244393
v 0.164106 1.086420 0.013706
v 0.217857 1.103206 0.030280
v 0.231560 1.084387 0.068358
v 0.231953 1.070479 0.104452
v 0.225162 1.065614 0.153345
v 0.150628 1.060842 0.200041
v 0.207872 1.058939 0.179611
v 0.105625 1.076364 0.025722
v 0.072456 1.073407 0.064585
v 0.069168 1.069898 0.109592
v 0.070736 1.065524 0.163605
v 0.098227 1.062978 0.193317
v 0.145655 0.945350 -0.059839
v 0.232750 0.960168 -0.024584
v 0.245740 0.932955 0.027841
v 0.236310 0.913886 0.071620
v 0.229798 0.901499 0.128291
v 0.154088 0.894935 0.173100
v 0.212458 0.893637 0.150729
v 0.070494 0.934859 -0.038146
v 0.033077 0.929696 0.003874
v 0.031093 0.923112 0.052811
v 0.035105 0.912664 0.127366
v 0.076892 0.903329 0.165765
v 0.132188 0.824629 -0.038067
v 0.174944 0.822120 -0.027579
v 0.180053 0.814833 -0.001796
v 0.183815 0.801416 0.032018
v 0.179194 0.786076 0.068054
v 0.122643 0.788434 0.089908
v 0.164999 0.783010 0.077961
v 0.096145 0.823326 -0.030524
v 0.076878 0.818465 -0.010838
v 0.073302 0.809443 0.022211
v 0.077056 0.797378 0.066737
v 0.083079 0.790783 0.090056
v 0.117420 0.781193 -0.052970
v 0.167296 0.776714 -0.043837
v 0.173321 0.767313 -0.026091
v 0.184560 0.749502 0.015775
v 0.191481 0.721529 0.066973
v 0.188455 0.726624 0.102479
v 0.131649 0.715634 0.112031
v 0.075554 0.777028 -0.046904
v 0.054242 0.761613 -0.025426
v 0.055405 0.731565 0.018464
v 0.062738 0.703073 0.059972
v 0.072862 0.717483 0.103069
v 0.101127 0.738835 -0.091684
v 0.143841 0.739315 -0.088437
v 0.148477 0.735770 -0.079930
v 0.161509 0.719475 -0.039652
v 0.195899 0.686117 0.034920
v 0.192278 0.672887 0.053582
v 0.132597 0.642737 0.065136
v 0.070765 0.736246 -0.089785
v 0.054952 0.725628 -0.076315
v 0.056485 0.695435 -0.027951
v 0.068103 0.663405 0.027237
v 0.074080 0.641319 0.054216
v 0.100001 0.729472 -0.076158
v 0.107213 0.708939 -0.031363
v 0.138463 0.673562 0.038457
v 0.195256 0.572754 0.254118
v 0.293383 0.601479 0.221532
v 0.197370 0.528757 0.226527
v 0.296436 0.559319 0.191263
v 0.094255 0.558089 0.270063
v 0.095783 0.516028 0.239878
v -0.000000 1.569149 -0.271645
v 0.000000 1.550125 -0.093788
v 0.000000 1.545196 0.044893
v -0.000000 1.432077 0.236815
v -0.000000 1.502225 0.355872
v 0.000000 3.400117 0.408693
v -0.000000 3.461915 0.294177
v 0.154625 3.362333 0.400626
v 0.152541 3.417737 0.293890
v -0.000000 3.430165 0.179096
v 0.115150 3.416582 0.201398
v 0.107675 2.877658 0.434143
v 0.000000 2.891795 0.464352
v 0.149780 3.282003 0.454041
v 0.000000 3.288739 0.494063
v -0.000000 3.363763 0.073798
v 0.163767 3.359021 0.116229
v 0.217819 3.327135 0.248822
v 0.217512 3.263961 0.351778
v 0.149735 3.201512 0.455225
v 0.000000 3.191341 0.509047
v -0.000000 3.268232 0.028265
v 0.157547 3.263491 0.075301
v 0.219091 3.228865 0.205310
v 0.208164 3.096730 0.328979
v 0.148029 3.062243 0.437176
v -0.000000 3.006095 0.544878
v -0.000000 3.172702 0.034424
v 0.115780 3.172946 0.060184
v 0.209182 3.139594 0.160239
v 0.197148 3.033449 0.300210
v 0.145600 2.988319 0.409842
v -0.000000 2.963992 0.487523
v 0.060815 2.789038 0.437131
v 0.097928 2.805092 0.407691
v 0.000000 2.794276 0.389304
v 0.000000 2.777425 0.441350
v 0.054442 2.805729 0.469458
v 0.079146 2.839392 0.448645
v 0.000000 2.803838 0.491817
v 0.000000 2.838710 0.479969
v 0.935020 2.003040 0.039038
v 0.957577 2.017017 -0.031165
v 0.946007 2.024856 -0.163037
v 0.828587 1.962013 -0.188761
v 0.747038 1.925102 -0.190656
v 0.702529 1.894541 -0.029779
v 0.721550 1.901904 0.051865
v 0.819548 1.942383 0.076162
v 0.948230 1.904729 0.028906
v 0.971501 1.899143 -0.031957
v 0.962738 1.875808 -0.160703
v 0.847575 1.811524 -0.166148
v 0.769167 1.780279 -0.157427
v 0.728546 1.789536 -0.003526
v 0.735878 1.817580 0.053414
v 0.830599 1.858244 0.071396
v 0.219091 1.099629 0.184787
v 0.238782 1.105898 0.153370
v 0.245415 1.110074 0.096747
v 0.241883 1.123719 0.055916
v 0.223290 1.140896 0.011350
v 0.163322 1.123832 -0.006495
v 0.102482 1.114463 0.007097
v 0.064612 1.112825 0.050691
v 0.061090 1.110997 0.102243
v 0.063081 1.107299 0.165752
v 0.095118 1.104698 0.200941
v 0.151937 1.102384 0.209034
v 0.208947 1.020171 0.172837
v 0.226261 1.026710 0.147405
v 0.233025 1.031961 0.096376
v 0.235107 1.046509 0.058224
v 0.221666 1.066619 0.016246
v 0.159570 1.051741 -0.004373
v 0.096936 1.041364 0.009925
v 0.062821 1.038243 0.049729
v 0.059911 1.034209 0.095786
v 0.062028 1.028164 0.154748
v 0.093087 1.024513 0.186679
v 0.151438 1.021989 0.193731
v -0.265823 1.570662 0.311224
v -0.532779 2.532303 0.278933
v -0.448103 2.555826 -0.298900
v -0.262106 1.595361 -0.205348
v -0.337171 1.582729 -0.075115
v -0.565740 2.654535 -0.218835
v -0.385726 1.575240 0.031090
v -0.583277 2.749365 0.005547
v -0.354715 1.574933 0.204380
v -0.619169 2.635094 0.221162
v -0.457195 2.343547 -0.333002
v -0.570726 2.396238 -0.283134
v -0.619823 2.398889 0.286413
v -0.532534 2.350410 0.357788
v -0.444999 2.139463 -0.330581
v -0.555158 2.225296 -0.283182
v -0.562433 2.189118 -0.007897
v -0.594852 2.225334 0.220190
v -0.514357 2.128666 0.344039
v -0.275512 1.915572 -0.218437
v -0.333482 1.873016 -0.100304
v -0.378637 1.836962 0.000770
v -0.376773 1.792998 0.190901
v -0.332759 1.754950 0.307627
v -0.287967 2.592561 0.357354
v -0.235054 2.710772 0.233598
v -0.353409 2.875977 -0.002643
v -0.244001 2.815744 -0.186930
v -0.280444 2.561973 -0.361614
v -0.283384 2.301081 -0.399064
v -0.278133 2.132524 -0.393208
v -0.160510 1.911100 -0.276817
v -0.146322 1.580765 -0.269610
v -0.145777 1.569568 0.331628
v -0.173504 1.739236 0.387284
v -0.285262 2.074826 0.487607
v -0.288447 2.324933 0.532193
v -0.172996 2.924174 0.268435
v -0.166722 3.045906 0.120499
v -0.135869 3.078244 0.028663
v -0.794171 2.594898 -0.008709
v -0.685583 2.386316 -0.259513
v -0.759268 2.586263 -0.186655
v -0.701593 2.377885 0.259573
v -0.771474 2.563114 0.180288
v -0.608885 2.225213 -0.019100
v -0.624614 2.226891 -0.258660
v -0.624419 2.202147 0.192249
v -0.939467 2.306335 -0.017893
v -0.773026 2.145544 -0.229871
v -0.914230 2.314969 -0.196069
v -0.775269 2.122079 0.192212
v -0.910132 2.277807 0.149902
v -0.641127 1.982114 -0.022472
v -0.679661 2.052732 -0.228741
v -0.662609 2.017558 0.142860
v -0.961061 1.961370 -0.033717
v -0.844400 1.909779 -0.177061
v -0.952046 1.969725 -0.156760
v -0.830861 1.896469 0.046511
v -0.939691 1.951462 0.018227
v -0.734498 1.848947 -0.033583
v -0.772232 1.877376 -0.176415
v -0.742303 1.861183 0.019827
v -1.013038 1.375602 0.064443
v -0.860778 1.324398 -0.128503
v -1.023845 1.360364 -0.115613
v -0.820476 1.447060 0.274815
v -0.979423 1.417739 0.243065
v -0.691305 1.349144 0.077929
v -0.747518 1.317692 -0.128801
v -0.682737 1.421876 0.262348
v -0.817468 1.531924 0.213564
v -0.975421 1.565994 0.168824
v -1.006212 1.542022 0.039558
v -1.009969 1.514253 -0.118237
v -0.856894 1.462262 -0.127316
v -0.746013 1.436496 -0.120513
v -0.692168 1.457570 0.066364
v -0.692258 1.499670 0.198683
v -0.823246 1.653805 0.158617
v -0.966586 1.695756 0.113391
v -0.994796 1.680826 0.015234
v -0.992795 1.654350 -0.132797
v -0.854530 1.594103 -0.140288
v -0.756589 1.564259 -0.132232
v -0.707407 1.579775 0.043958
v -0.710715 1.615623 0.141815
v -0.830088 1.777420 0.111177
v -0.964582 1.825579 0.065069
v -0.991106 1.817034 -0.011669
v -0.982912 1.791186 -0.154349
v -0.853595 1.724246 -0.160776
v -0.763227 1.691093 -0.151716
v -0.716916 1.702759 0.018782
v -0.722977 1.734492 0.092783
v -0.842393 1.204078 0.106197
v -0.982526 1.182843 0.107594
v -0.871378 1.185605 -0.126249
v -0.994065 1.174601 -0.101709
v -0.830425 1.263621 0.289358
v -0.955837 1.231420 0.266660
v -0.744865 1.257860 0.088363
v -0.792062 1.228196 -0.098771
v -0.740330 1.303098 0.260298
v -0.844635 1.047021 0.125509
v -0.907815 0.994970 0.133467
v -0.865926 1.005256 -0.046720
v -0.931956 0.970274 -0.023285
v -0.840073 1.100252 0.300794
v -0.897780 1.047157 0.286778
v -0.747217 0.967476 0.137669
v -0.813405 0.915616 0.146379
v -0.773133 0.926679 -0.020851
v -0.841548 0.891169 0.000507
v -0.739755 1.019522 0.298393
v -0.799422 0.967425 0.288304
v -0.668737 1.395032 0.314268
v -0.805060 1.403967 0.323829
v -0.693202 1.287671 0.396812
v -0.801725 1.273954 0.419051
v -0.733155 1.216452 0.311943
v -0.798812 1.191425 0.329797
v -0.779971 1.195034 0.412584
v -0.705299 1.204733 0.398307
v -0.696380 1.104292 0.304491
v -0.773521 1.089070 0.309665
v -0.763514 1.064067 0.379093
v -0.681727 1.069592 0.371841
v -0.158552 1.351415 -0.129380
v -0.256194 1.369168 -0.103296
v -0.301084 1.349277 -0.015439
v -0.321855 1.340087 0.051991
v -0.298546 1.341329 0.153520
v -0.156012 1.340738 0.260638
v -0.260079 1.336958 0.214973
v -0.083518 1.344342 -0.105281
v -0.018733 1.343358 -0.030567
v -0.015748 1.341690 0.060990
v -0.020069 1.342023 0.177814
v -0.077401 1.342476 0.244393
v -0.164106 1.086420 0.013706
v -0.217857 1.103206 0.030280
v -0.231560 1.084387 0.068358
v -0.231953 1.070479 0.104452
v -0.225162 1.065614 0.153345
v -0.150628 1.060842 0.200041
v -0.207872 1.058939 0.179611
v -0.105625 1.076364 0.025722
v -0.072456 1.073407 0.064585
v -0.069168 1.069898 0.109592
v -0.070736 1.065524 0.163605
v -0.098227 1.062978 0.193317
v -0.145655 0.945350 -0.059839
v -0.232750 0.960168 -0.024584
v -0.245740 0.932955 0.027841
v -0.236310 0.913886 0.071620
v -0.229798 0.901499 0.128291
v -0.154088 0.894935 0.173100
v -0.212458 0.893637 0.150729
v -0.070494 0.934859 -0.038146
v -0.033077 0.929696 0.003874
v -0.031093 0.923112 0.052811
v -0.035105 0.912664 0.127366
v -0.076892 0.903329 0.165765
v -0.132188 0.824629 -0.038067
v -0.174944 0.822120 -0.027579
v -0.180053 0.814833 -0.001796
v -0.183815 0.801416 0.032018
v -0.179194 0.786076 0.068054
v -0.122643 0.788434 0.089908
v -0.164999 0.783010 0.077961
v -0.096145 0.823326 -0.030524
v -0.076878 0.818465 -0.010838
v -0.073302 0.809443 0.022211
v -0.077056 0.797378 0.066737
v -0.083079 0.790783 0.090056
v -0.117420 0.781193 -0.052970
v -0.167296 0.776714 -0.043837
v -0.173321 0.767313 -0.026091
v -0.184560 0.749502 0.015775
v -0.191481 0.721529 0.066973
v -0.188455 0.726624 0.102479
v -0.131649 0.715634 0.112031
v -0.075554 0.777028 -0.046904
v -0.054242 0.761613 -0.025426
v -0.055405 0.731565 0.018464
v -0.062738 0.703073 0.059972
v -0.072862 0.717483 0.103069
v -0.101127 0.738835 -0.091684
v -0.143841 0.739315 -0.088437
v -0.148477 0.735770 -0.079930
v -0.161509 0.719475 -0.039652
v -0.195899 0.686117 0.034920
v -0.192278 0.672887 0.053582
v -0.132597 0.642737 0.065136
v -0.070765 0.736246 -0.089785
v -0.054952 0.725628 -0.076315
v -0.056485 0.695435 -0.027951
v -0.068103 0.663405 0.027237
v -0.074080 0.641319 0.054216
v -0.100001 0.729472 -0.076158
v -0.107213 0.708939 -0.031363
v -0.138463 0.673562 0.038457
v -0.195256 0.572754 0.254118
v -0.293383 0.601479 0.221532
v -0.197370 0.528757 0.226527
v -0.296436 0.559319 0.191263
v -0.094255 0.558089 0.270063
v -0.095783 0.516028 0.239878
v -0.154625 3.362333 0.400626
v -0.152541 3.417737 0.293890
v -0.115150 3.416582 0.201398
v -0.107675 2.877658 0.434143
v -0.149780 3.282003 0.454041
v -0.163767 3.359021 0.116229
v -0.217819 3.327135 0.248822
v -0.217512 3.263961 0.351778
v -0.149735 3.201512 0.455225
v -0.157547 3.263491 0.075301
v -0.219091 3.228865 0.205310
v -0.208164 3.096730 0.328979
v -0.148029 3.062243 0.437176
v -0.115780 3.172946 0.060184
v -0.209182 3.139594 0.160239
v -0.197148 3.033449 0.300210
v -0.145600 2.988319 0.409842
v -0.060815 2.789038 0.437131
v -0.097928 2.805092 0.407691
v -0.054442 2.805729 0.469458
v -0.079146 2.839392 0.448645
v -0.935020 2.003040 0.039038
v -0.957577 2.017017 -0.031165
v -0.946007 2.024856 -0.163037
v -0.828587 1.962013 -0.188761
v -0.747038 1.925102 -0.190656
v -0.702529 1.894541 -0.029779
v -0.721550 1.901904 0.051865
v -0.819548 1.942383 0.076162
v -0.948230 1.904729 0.028906
v -0.971501 1.899143 -0.031957
v -0.962738 1.875808 -0.160703
v -0.847575 1.811524 -0.166148
v -0.769167 1.780279 -0.157427
v -0.728546 1.789536 -0.003526
v -0.735878 1.817580 0.053414
v -0.830599 1.858244 0.071396
v -0.219091 1.099629 0.184787
v -0.238782 1.105898 0.153370
v -0.245415 1.110074 0.096747
v -0.241883 1.123719 0.055916
v -0.223290 1.140896 0.011350
v -0.163322 1.123832 -0.006495
v -0.102482 1.114463 0.007097
v -0.064612 1.112825 0.050691
v -0.061090 1.110997 0.102243
v -0.063081 1.107299 0.165752
v -0.095118 1.104698 0.200941
v -0.151937 1.102384 0.209034
v -0.208947 1.020171 0.172837
v -0.226261 1.026710 0.147405
v -0.233025 1.031961 0.096376
v -0.235107 1.046509 0.058224
v -0.221666 1.066619 0.016246
v -0.159570 1.051741 -0.004373
v -0.096936 1.041364 0.009925
v -0.062821 1.038243 0.049729
v -0.059911 1.034209 0.095786
v -0.062028 1.028164 0.154748
v -0.093087 1.024513 0.186679
v -0.151438 1.021989 0.193731
vt 0.819945 0.927136
vt 0.849031 0.936377
vt 0.351780 0.066712
vt 0.316920 0.066377
vt 0.529908 0.085453
vt 0.746161 0.622143
vt 0.780216 0.625612
vt 0.563059 0.105711
vt 0.401853 0.059328
vt 0.888641 0.942119
vt 0.656883 0.771504
vt 0.681937 0.709281
vt 0.526957 0.235710
vt 0.529780 0.293613
vt 0.098516 0.670845
vt 0.091013 0.653446
vt 0.134445 0.652895
vt 0.129595 0.669420
vt 0.069386 0.683251
vt 0.055936 0.373287
vt 0.358636 0.226704
vt 0.496251 0.752807
vt 0.544194 0.793191
vt 0.364068 0.277643
vt 0.691830 0.673693
vt 0.531949 0.182080
vt 0.034324 0.413143
vt 0.035004 0.429056
vt 0.205676 0.726354
vt 0.184422 0.723526
vt 0.049687 0.754751
vt 0.062388 0.430219
vt 0.355463 0.168487
vt 0.471292 0.714571
vt 0.731584 0.628854
vt 0.297174 0.295750
vt 0.290749 0.343062
vt 0.545586 0.416109
vt 0.604959 0.803675
vt 0.583269 0.370474
vt 0.575997 0.289815
vt 0.575256 0.221977
vt 0.576753 0.178148
vt 0.601446 0.108809
vt 0.810539 0.619361
vt 0.268637 0.066273
vt 0.261651 0.020900
vt 0.290279 0.156089
vt 0.288116 0.218271
vt 0.221904 0.297543
vt 0.221904 0.339691
vt 0.357678 0.909738
vt 0.389953 0.884578
vt 0.423409 0.863148
vt 0.439516 0.880064
vt 0.320162 0.915825
vt 0.457256 0.891556
vt 0.648959 0.219791
vt 0.648959 0.296919
vt 0.648959 0.172321
vt 0.648959 0.109955
vt 0.846193 0.607807
vt 0.221904 0.066137
vt 0.221904 0.019081
vt 0.221904 0.153691
vt 0.221904 0.218217
vt 0.464096 0.760269
vt 0.317527 0.712496
vt 0.505940 0.804906
vt 0.525515 0.822863
vt 0.648959 0.377002
vt 0.648959 0.463354
vt 0.627589 0.736927
vt 0.658895 0.697245
vt 0.590158 0.746525
vt 0.507177 0.734809
vt 0.550077 0.753887
vt 0.679087 0.661715
vt 0.720141 0.622436
vt 0.470708 0.703296
vt 0.610388 0.672634
vt 0.640353 0.638702
vt 0.572665 0.678138
vt 0.498802 0.670694
vt 0.537703 0.686621
vt 0.657675 0.619085
vt 0.685969 0.578892
vt 0.473163 0.655231
vt 0.589479 0.612200
vt 0.618618 0.596923
vt 0.555318 0.616629
vt 0.501214 0.618042
vt 0.535998 0.619225
vt 0.638130 0.587833
vt 0.454898 0.613842
vt 0.473620 0.618339
vt 0.613370 0.584954
vt 0.585694 0.600482
vt 0.582388 0.579959
vt 0.610041 0.562389
vt 0.552452 0.604209
vt 0.549701 0.590009
vt 0.535668 0.605754
vt 0.499901 0.604295
vt 0.496329 0.593907
vt 0.532130 0.594520
vt 0.456556 0.605060
vt 0.631489 0.575739
vt 0.627466 0.551594
vt 0.456320 0.594343
vt 0.471018 0.605389
vt 0.470295 0.592201
vt 0.502554 0.513236
vt 0.467045 0.514463
vt 0.048989 0.800270
vt 0.084645 0.790871
vt 0.530142 0.507931
vt 0.126256 0.782846
vt 0.563055 0.498493
vt 0.166533 0.774120
vt 0.594002 0.482044
vt 0.198974 0.754016
vt 0.616539 0.471140
vt 0.222390 0.744443
vt 0.411047 0.532490
vt 0.036013 0.443706
vt 0.438533 0.516813
vt 0.062219 0.450466
vt 0.513464 0.544263
vt 0.478073 0.543643
vt 0.536541 0.539623
vt 0.570223 0.530573
vt 0.599814 0.512237
vt 0.620511 0.500852
vt 0.428837 0.555233
vt 0.450465 0.544748
vt 0.524983 0.574714
vt 0.489777 0.573025
vt 0.543911 0.571083
vt 0.577152 0.561291
vt 0.605200 0.542454
vt 0.623893 0.530731
vt 0.445478 0.578052
vt 0.462890 0.572033
vt 0.160284 0.734614
vt 0.114410 0.741038
vt 0.078121 0.750528
vt 0.038383 0.788189
vt 0.069452 0.448578
vt 0.082685 0.436932
vt 0.022787 0.757918
vt 0.154990 0.683116
vt 0.031732 0.389977
vt 0.139701 0.691524
vt 0.105913 0.697738
vt 0.057848 0.391678
vt 0.073342 0.709318
vt 0.013901 0.697176
vt 0.027737 0.711387
vt 0.015059 0.717479
vt 0.100547 0.413463
vt 0.037172 0.736572
vt 0.076289 0.421246
vt 0.018179 0.743338
vt 0.088082 0.428180
vt 0.762693 0.573253
vt 0.783471 0.563104
vt 0.740343 0.568874
vt 0.886950 0.887486
vt 0.862436 0.882457
vt 0.845629 0.876175
vt 0.819310 0.864328
vt 0.767433 0.890911
vt 0.802370 0.853657
vt 0.740144 0.518129
vt 0.752383 0.509254
vt 0.728799 0.515967
vt 0.719518 0.514322
vt 0.877556 0.831463
vt 0.870414 0.826902
vt 0.856072 0.819064
vt 0.807390 0.534548
vt 0.796553 0.552633
vt 0.763885 0.500337
vt 0.774135 0.491848
vt 0.790458 0.812029
vt 0.830490 0.793654
vt 0.792002 0.837006
vt 0.838501 0.804498
vt 0.845731 0.811593
vt 0.747538 0.499475
vt 0.735240 0.508515
vt 0.732542 0.499310
vt 0.744714 0.490075
vt 0.724114 0.508191
vt 0.721353 0.500506
vt 0.715129 0.508837
vt 0.712141 0.502375
vt 0.880756 0.822453
vt 0.886186 0.815140
vt 0.874644 0.818009
vt 0.880538 0.810711
vt 0.862400 0.810898
vt 0.868456 0.803654
vt 0.771353 0.483146
vt 0.760431 0.490339
vt 0.756699 0.481349
vt 0.767101 0.476021
vt 0.837219 0.788700
vt 0.839686 0.780263
vt 0.845861 0.797329
vt 0.850393 0.788821
vt 0.852658 0.803678
vt 0.857888 0.795579
vt 0.734417 0.463822
vt 0.721790 0.475637
vt 0.885857 0.145989
vt 0.877468 0.139610
vt 0.709345 0.477110
vt 0.890220 0.151373
vt 0.698779 0.479812
vt 0.895282 0.159524
vt 0.904368 0.791653
vt 0.900473 0.169724
vt 0.899620 0.787072
vt 0.903083 0.174327
vt 0.887734 0.779903
vt 0.912503 0.184034
vt 0.757260 0.450966
vt 0.746786 0.455050
vt 0.945931 0.220220
vt 0.941232 0.214468
vt 0.848746 0.753152
vt 0.934873 0.207460
vt 0.863211 0.762982
vt 0.925715 0.197919
vt 0.873426 0.770653
vt 0.920526 0.192982
vt 0.876421 0.151341
vt 0.869084 0.141975
vt 0.878927 0.155279
vt 0.884067 0.164296
vt 0.884930 0.176184
vt 0.888172 0.183733
vt 0.896728 0.194810
vt 0.936808 0.226872
vt 0.930729 0.223405
vt 0.921169 0.218148
vt 0.911501 0.215344
vt 0.906120 0.205692
vt 0.861695 0.152091
vt 0.989191 0.206953
vt 0.977516 0.206549
vt 0.972230 0.197090
vt 0.960053 0.179759
vt 0.873255 0.174776
vt 0.846899 0.203265
vt 0.854537 0.220493
vt 0.845214 0.226749
vt 0.835795 0.201294
vt 0.931841 0.239785
vt 0.999038 0.200011
vt 0.995992 0.186730
vt 0.990214 0.172349
vt 0.987389 0.164379
vt 0.866555 0.233609
vt 0.972771 0.112653
vt 0.988566 0.202659
vt 0.984378 0.191525
vt 0.973207 0.174789
vt 0.973176 0.164956
vt 0.846189 0.562735
vt 0.846193 0.606490
vt 0.767413 0.801309
vt 0.767440 0.856036
vt 0.389952 0.761106
vt 0.417122 0.757284
vt 0.430655 0.780158
vt 0.389950 0.776189
vt 0.489676 0.824708
vt 0.460471 0.790344
vt 0.514471 0.846577
vt 0.244663 0.865997
vt 0.389948 0.849293
vt 0.419624 0.844148
vt 0.479455 0.876707
vt 0.282956 0.908716
vt 0.458076 0.860007
vt 0.443515 0.842141
vt 0.421647 0.827036
vt 0.389948 0.826311
vt 0.497189 0.861978
vt 0.259856 0.889230
vt 0.474712 0.841391
vt 0.454000 0.805472
vt 0.427370 0.796699
vt 0.389950 0.789431
vt 0.405628 0.737494
vt 0.416756 0.740823
vt 0.408812 0.749444
vt 0.400922 0.742501
vt 0.389957 0.729407
vt 0.372807 0.720373
vt 0.389953 0.749870
vt 0.389954 0.742200
vt 0.714885 0.927134
vt 0.126889 0.066377
vt 0.092029 0.066712
vt 0.685788 0.936363
vt 0.768010 0.085453
vt 0.734859 0.105711
vt 0.912169 0.625599
vt 0.946221 0.622125
vt 0.041955 0.059328
vt 0.972534 0.619141
vt 0.180917 0.708985
vt 0.768137 0.293613
vt 0.770960 0.235710
vt 0.155849 0.646764
vt 0.152723 0.840256
vt 0.121644 0.838830
vt 0.116796 0.822304
vt 0.904282 0.237522
vt 0.181851 0.852665
vt 0.880407 0.239250
vt 0.085173 0.226704
vt 0.079741 0.277643
vt 0.293610 0.730647
vt 0.341542 0.690256
vt 0.765968 0.182080
vt 0.145950 0.611174
vt 0.902018 0.279106
vt 0.936342 0.282213
vt 0.045560 0.895765
vt 0.901338 0.295019
vt 0.874369 0.280931
vt 0.873954 0.296181
vt 0.088346 0.168487
vt 0.366490 0.652019
vt 0.416946 0.637387
vt 0.146635 0.295750
vt 0.153059 0.343062
vt 0.094358 0.401165
vt 0.232848 0.741144
vt 0.714648 0.370474
vt 0.721921 0.289815
vt 0.722662 0.221977
vt 0.721165 0.178148
vt 0.696472 0.108809
vt 0.881847 0.619354
vt 0.175172 0.066273
vt 0.738153 0.916230
vt 0.153530 0.156089
vt 0.155693 0.218271
vt 0.340388 0.880067
vt 0.356491 0.863150
vt 0.322650 0.891561
vt 0.315809 0.760260
vt 0.273960 0.804906
vt 0.254385 0.822867
vt 0.178888 0.634721
vt 0.210201 0.674400
vt 0.247633 0.683990
vt 0.287716 0.691346
vt 0.330610 0.672261
vt 0.414598 0.624582
vt 0.158689 0.599192
vt 0.367071 0.640744
vt 0.197417 0.576169
vt 0.227386 0.610100
vt 0.265108 0.615600
vt 0.300071 0.624079
vt 0.338967 0.608151
vt 0.393907 0.571869
vt 0.180094 0.556553
vt 0.364601 0.592687
vt 0.219148 0.534382
vt 0.248285 0.549659
vt 0.282445 0.554088
vt 0.301763 0.556685
vt 0.336543 0.555504
vt 0.382850 0.551302
vt 0.199636 0.525292
vt 0.364133 0.555804
vt 0.224395 0.522411
vt 0.227727 0.499843
vt 0.255377 0.517414
vt 0.252070 0.537940
vt 0.288063 0.527467
vt 0.285311 0.541667
vt 0.302093 0.543213
vt 0.305632 0.531980
vt 0.341429 0.531373
vt 0.337856 0.541759
vt 0.176901 0.492086
vt 0.381432 0.531829
vt 0.210302 0.489048
vt 0.206277 0.513196
vt 0.367462 0.529678
vt 0.366732 0.542859
vt 0.335247 0.450707
vt 0.166591 0.960282
vt 0.202247 0.969681
vt 0.370764 0.451954
vt 0.307652 0.445392
vt 0.124980 0.952257
vt 0.274733 0.435949
vt 0.084704 0.943531
vt 0.243782 0.419498
vt 0.052263 0.923427
vt 0.221244 0.408591
vt 0.931291 0.308021
vt 0.177440 0.400880
vt 0.900330 0.309668
vt 0.399278 0.454327
vt 0.233618 0.980047
vt 0.324316 0.481728
vt 0.359713 0.481125
vt 0.301238 0.477082
vt 0.267554 0.468027
vt 0.237964 0.449689
vt 0.217267 0.438303
vt 0.175875 0.429673
vt 0.387322 0.482251
vt 0.312784 0.512174
vt 0.347990 0.510496
vt 0.293856 0.508541
vt 0.260617 0.498745
vt 0.232571 0.479906
vt 0.213879 0.468183
vt 0.174490 0.457978
vt 0.374877 0.509521
vt 0.090952 0.904025
vt 0.136825 0.910449
vt 0.173114 0.919940
vt 0.212853 0.957599
vt 0.228448 0.927328
vt 0.249824 0.937151
vt 0.866890 0.314540
vt 0.904610 0.255939
vt 0.930249 0.255314
vt 0.111536 0.860934
vt 0.145324 0.867149
vt 0.177894 0.878731
vt 0.194776 0.882685
vt 0.846234 0.275683
vt 0.835795 0.279426
vt 0.236174 0.886889
vt 0.223497 0.880797
vt 0.860054 0.287209
vt 0.864496 0.277052
vt 0.233055 0.912748
vt 0.251235 0.915416
vt 0.908902 0.563089
vt 0.929680 0.573238
vt 0.952028 0.568858
vt 0.967869 0.566210
vt 0.672426 0.882445
vt 0.689239 0.876172
vt 0.715569 0.864331
vt 0.732511 0.853660
vt 0.939993 0.509238
vt 0.952226 0.518118
vt 0.963568 0.515964
vt 0.972847 0.514329
vt 0.657316 0.831475
vt 0.664460 0.826919
vt 0.678804 0.819087
vt 0.884982 0.534534
vt 0.918247 0.491826
vt 0.928495 0.500317
vt 0.895821 0.552618
vt 0.876171 0.516075
vt 0.704359 0.793660
vt 0.742869 0.837007
vt 0.696366 0.804515
vt 0.689142 0.811614
vt 0.944845 0.499460
vt 0.947676 0.490063
vt 0.959845 0.499307
vt 0.957135 0.508507
vt 0.971033 0.500517
vt 0.968260 0.508196
vt 0.980241 0.502401
vt 0.643777 0.827586
vt 0.648688 0.815157
vt 0.654117 0.822469
vt 0.654336 0.810734
vt 0.660230 0.818031
vt 0.666415 0.803684
vt 0.672473 0.810924
vt 0.921034 0.483123
vt 0.925291 0.475999
vt 0.935693 0.481331
vt 0.931955 0.490319
vt 0.911931 0.477257
vt 0.695154 0.780272
vt 0.689000 0.797352
vt 0.684462 0.788846
vt 0.682211 0.803704
vt 0.676976 0.795608
vt 0.957994 0.463820
vt 0.848964 0.112550
vt 0.913443 0.030860
vt 0.970620 0.475646
vt 0.909079 0.036243
vt 0.983068 0.477138
vt 0.904014 0.044394
vt 0.619996 0.800132
vt 0.898821 0.054593
vt 0.630510 0.791665
vt 0.896210 0.059195
vt 0.635257 0.787090
vt 0.886787 0.068902
vt 0.647135 0.779933
vt 0.935152 0.450948
vt 0.858054 0.099335
vt 0.853355 0.105087
vt 0.945626 0.455038
vt 0.924999 0.448703
vt 0.864413 0.092327
vt 0.671621 0.763017
vt 0.873572 0.082786
vt 0.661426 0.770694
vt 0.878762 0.077849
vt 0.855058 0.116709
vt 0.922878 0.036214
vt 0.920371 0.040152
vt 0.915228 0.049167
vt 0.914363 0.061054
vt 0.911119 0.068602
vt 0.902561 0.079678
vt 0.868559 0.108272
vt 0.862480 0.111740
vt 0.878118 0.103015
vt 0.887785 0.100211
vt 0.893167 0.090559
vt 0.427745 0.094300
vt 0.437866 0.095808
vt 0.439419 0.093895
vt 0.444705 0.084437
vt 0.456882 0.067105
vt 0.457060 0.061572
vt 0.952390 0.088140
vt 0.963494 0.086172
vt 0.467290 0.008562
vt 0.944748 0.105366
vt 0.417898 0.087358
vt 0.420785 0.092123
vt 0.420943 0.074077
vt 0.426721 0.059696
vt 0.893487 0.113072
vt 0.444164 0.000000
vt 0.932729 0.118479
vt 0.428369 0.090006
vt 0.432557 0.078872
vt 0.443728 0.062136
vt 0.443759 0.052302
vt 0.349246 0.780155
vt 0.362783 0.757280
vt 0.319430 0.790340
vt 0.290222 0.824709
vt 0.265430 0.846582
vt 0.360273 0.844149
vt 0.300448 0.876713
vt 0.321824 0.860011
vt 0.336381 0.842144
vt 0.358249 0.827036
vt 0.282712 0.861983
vt 0.305187 0.841394
vt 0.325898 0.805470
vt 0.352528 0.796697
vt 0.374283 0.737491
vt 0.378987 0.742499
vt 0.371094 0.749441
vt 0.363154 0.740819
vt 0.915884 0.472534
vt 0.841702 0.076044
vt 0.686067 0.753167
vt 0.638259 0.821217
vt 0.882132 0.023995
vt 0.993630 0.479855
vt 0.910039 0.483610
vt 0.697627 0.788710
vt 0.645023 0.836105
vt 0.977243 0.508859
vt 0.174483 0.477991
vt 0.392284 0.515556
vt 0.168939 0.500446
vt 0.381192 0.542533
vt 0.846184 0.532090
vt 0.744385 0.812029
vt 0.429546 0.051725
vt 0.935816 0.129057
vt 0.926038 0.059649
vt 0.488654 0.023652
vt 0.954070 0.111624
vt 0.888822 0.112280
vt 0.879743 0.116452
vt 0.871391 0.122442
vt 0.867451 0.124653
vt 0.861674 0.126959
vt 0.943072 0.028999
vt 0.924701 0.057670
vt 0.930249 0.045450
vt 0.936106 0.038585
vt 0.937604 0.036968
vt 0.930217 0.026850
vt 0.921834 0.024483
vt 0.854841 0.055954
vt 0.863886 0.045102
vt 0.848455 0.063794
vt 0.835781 0.083903
vt 0.830384 0.093872
vt 0.912793 0.000000
vt 0.822094 0.109670
vt 0.870723 0.035708
vt 0.873857 0.031119
vt 0.886404 0.014678
vt 0.893224 0.003640
vt 0.647907 0.887455
vt 0.789848 0.000000
vt 0.072399 0.000000
vt 0.646172 0.942075
vt 0.848260 0.294142
vt 0.251107 0.880509
vt 0.214062 0.905982
vt 0.853312 0.268016
vt 0.853657 0.302894
vt 0.201549 0.924163
vt 0.237332 0.866585
vt 0.874123 0.316429
vt 0.241785 0.968523
vt 0.878494 0.257640
vt 0.197320 0.846538
vt 0.096248 0.852525
vt 0.927793 0.237818
vt 0.066815 0.892937
vt 0.028846 0.913855
vt 0.929485 0.293439
vt 0.408941 0.492755
vt 0.900805 0.325275
vt 0.426751 0.470029
vt 0.881835 0.328965
vt 0.222590 1.000000
vt 0.193921 0.993190
vt 0.020552 0.940576
vt 0.928867 0.324881
vt 0.043396 0.954751
vt 0.078400 0.977053
vt 0.117966 0.988057
vt 0.151905 0.994321
vt 0.151794 0.516363
vt 0.117628 0.559921
vt 0.000000 0.153606
vt 0.852617 0.156716
vt 0.106187 0.566342
vt 0.685873 0.463597
vt 0.550400 0.846790
vt 0.229501 0.846798
vt 0.153446 0.439686
vt 0.706302 0.477198
vt 0.176426 0.397125
vt 0.752331 0.416109
vt 0.462394 0.712510
vt 0.221904 0.398769
vt 0.767429 0.902243
vt 0.182158 0.020900
vt 0.648959 0.018829
vt 0.687263 0.019658
vt 0.149910 0.020526
vt 0.721777 0.019996
vt 0.818564 0.390052
vt 0.042461 0.361016
vt 0.801519 0.326386
vt 0.053844 0.301881
vt 0.048145 0.187460
vt 0.799343 0.203628
vt 0.794537 0.068309
vt 0.058215 0.239735
vt 0.803406 0.252115
vt 0.160229 0.822858
vt 0.114688 0.014353
vt 0.759725 0.008397
vt 0.776508 0.472561
vt 0.957586 0.191183
vt 0.767413 0.448727
vt 0.896611 0.821211
vt 0.917170 0.139131
vt 0.914878 0.800132
vt 0.782343 0.483632
vt 0.780456 0.477282
vt 0.889845 0.836106
vt 0.891092 0.827581
vt 0.663285 0.540537
vt 0.663281 0.520527
vt 0.668824 0.562984
vt 0.660863 0.554628
vt 0.407111 0.720375
vt 0.535240 0.865989
vt 0.520050 0.889221
vt 0.496954 0.908707
vt 0.459751 0.915820
vt 0.422235 0.909737
vt 0.816197 0.516087
vt 0.796684 0.916229
vt 0.610655 0.019658
vt 0.863468 0.244186
vt 0.949645 0.121216
vt 0.905801 0.228206
vt 0.928281 0.136305
vt 0.959875 0.174225
vt 0.910467 0.227414
vt 0.919548 0.231586
vt 0.927901 0.237576
vt 0.996150 0.204776
vt 0.856229 0.144120
vt 0.937618 0.242090
vt 0.874593 0.172797
vt 0.869048 0.160574
vt 0.863193 0.153708
vt 0.979069 0.208461
vt 0.944231 0.231840
vt 0.950323 0.227682
vt 0.977192 0.224804
vt 0.886515 0.115129
vt 0.944452 0.171094
vt 0.935410 0.160241
vt 0.950836 0.178934
vt 0.963505 0.199041
vt 0.968901 0.209008
vt 0.928576 0.150846
vt 0.925443 0.146257
vt 0.912900 0.129813
vt 0.906082 0.118774
vt 0.724501 0.566226
vt 0.371410 0.000000
vt 0.508069 0.000000
vt 0.719847 0.619162
vt 0.090108 0.409721
vt 0.000127 0.711100
vt 0.000000 0.746007
vt 0.083030 0.402054
vt 0.071846 0.411090
vt 0.001411 0.767742
vt 0.061974 0.414968
vt 0.009452 0.799114
vt 0.017619 0.810638
vt 0.032060 0.371559
vt 0.053919 0.677122
vt 0.056460 0.713271
vt 0.008549 0.371856
vt 0.006093 0.389351
vt 0.000000 0.416250
vt 0.006858 0.427477
vt 0.005051 0.442058
vt 0.661902 0.492225
vt 0.035537 0.459313
vt 0.660343 0.463433
vt 0.028648 0.830590
vt 0.054507 0.463002
vt 0.057317 0.823779
vt 0.007475 0.458919
vt 0.230684 0.771165
vt 0.207841 0.785340
vt 0.172836 0.807642
vt 0.133271 0.818645
vt 0.099332 0.824910
vt 0.443850 0.634421
vt 0.423176 0.687147
vt 0.445301 0.156716
vt 0.443809 0.153606
vt 0.420833 0.699953
vt 0.612045 0.463597
vt 0.591615 0.477198
vt 0.290362 0.439686
vt 0.267382 0.397125
vt 0.349451 0.401165
vt 0.293899 0.020526
vt 0.576141 0.019996
vt 0.503381 0.068309
vt 0.395664 0.187460
vt 0.385593 0.239735
vt 0.498575 0.203628
vt 0.494511 0.252114
vt 0.389965 0.301881
vt 0.496398 0.326386
vt 0.401348 0.361016
vt 0.479354 0.390052
vt 0.329121 0.014353
vt 0.538193 0.008397
vn 0.544655 -0.267982 0.794693
vn 0.936033 -0.170364 0.307925
vn 0.934781 -0.340689 0.100581
vn 0.670656 -0.357387 0.649996
vn 0.849569 -0.384616 -0.360975
vn 0.882022 -0.126610 -0.453880
vn 0.672803 -0.167514 -0.720608
vn 0.596555 -0.412682 -0.688343
vn 0.919605 -0.362502 -0.151388
vn 0.988442 -0.126821 -0.083060
vn 0.378737 0.661250 -0.647539
vn 0.315584 0.148931 -0.937137
vn 0.367556 0.077259 -0.926787
vn 0.299909 0.363666 -0.881931
vn 0.171812 -0.946788 0.272165
vn -0.953731 0.250585 -0.166148
vn -0.862971 0.130973 -0.487983
vn 0.250359 -0.959410 -0.129823
vn 0.118694 -0.802877 0.584210
vn -0.879915 0.431819 0.198198
vn 0.577056 0.142269 0.804218
vn 0.500704 0.085513 0.861385
vn 0.369099 0.710278 0.599393
vn 0.357999 0.475668 0.803478
vn 0.667806 -0.482601 -0.566685
vn 0.513348 -0.467513 -0.719657
vn -0.923858 -0.382638 -0.008700
vn -0.717494 -0.695013 0.046468
vn -0.634225 -0.700662 -0.326852
vn -0.462394 -0.369135 -0.806183
vn -0.100414 -0.355441 0.929289
vn -0.771755 -0.633955 -0.049946
vn 0.727379 -0.322489 0.605740
vn 0.859729 -0.456972 0.228131
vn 0.820687 -0.556346 -0.130198
vn 0.222221 0.567483 0.792831
vn 0.312573 0.607718 0.730053
vn 0.554990 0.829023 0.068613
vn 0.420210 0.901308 0.105200
vn 0.144513 0.672194 -0.726135
vn 0.023720 0.363373 -0.931342
vn 0.037244 0.070192 -0.996838
vn 0.120416 -0.285798 -0.950694
vn 0.175419 -0.260936 -0.949284
vn 0.220467 -0.231202 -0.947597
vn 0.261254 -0.310056 0.914118
vn 0.222206 -0.302398 0.926920
vn 0.328631 -0.264298 0.906724
vn 0.286635 0.185918 0.939827
vn -0.000000 0.610544 0.791982
vn 0.000000 0.452853 0.891585
vn -0.000000 0.981361 0.192173
vn -0.000000 0.770068 0.637961
vn 0.504675 0.640427 0.578927
vn 0.535171 0.827539 0.169623
vn 0.000000 0.922519 -0.385951
vn 0.370285 0.874437 -0.313447
vn -0.000000 0.078232 -0.996935
vn -0.000000 0.385724 -0.922614
vn -0.000000 -0.206067 -0.978538
vn -0.000000 -0.199005 -0.979998
vn -0.000000 -0.249754 -0.968310
vn 0.000000 -0.288815 0.957385
vn 0.000000 -0.327297 0.944921
vn -0.000000 -0.243315 0.969947
vn -0.000000 0.213932 0.976849
vn 0.775389 -0.023818 0.631034
vn 0.000000 -0.561052 0.827780
vn 0.916788 0.399313 -0.006970
vn 0.317898 0.613269 -0.723079
vn -0.000000 0.562866 -0.826548
vn 0.000000 0.520086 -0.854114
vn 0.603855 0.561362 -0.565891
vn 0.261465 0.118850 -0.957868
vn 0.758428 0.651666 0.010922
vn 0.380523 0.012703 0.924684
vn 0.693885 0.498208 0.519916
vn -0.328606 -0.408746 -0.851437
vn -0.875757 -0.480130 -0.050258
vn -0.498854 -0.456296 0.736844
vn 0.759261 0.235413 -0.606716
vn 0.246953 -0.049195 -0.967778
vn 0.953837 0.298523 0.032860
vn 0.292048 -0.261652 0.919916
vn 0.791907 0.123561 0.598010
vn -0.742132 -0.307625 -0.595490
vn -0.941853 -0.330483 -0.060776
vn -0.689404 -0.420758 0.589648
vn 0.792341 -0.002592 -0.610073
vn 0.237581 -0.131906 -0.962370
vn 0.997486 0.056807 0.042375
vn 0.344674 -0.429150 0.834883
vn 0.787653 -0.180273 0.589156
vn -0.517945 -0.478107 -0.709329
vn -0.818326 -0.559487 -0.131594
vn -0.356434 -0.660971 0.660357
vn 0.128203 -0.095467 -0.987142
vn 0.756154 0.029301 -0.653738
vn 0.675698 0.086396 -0.732099
vn 0.045432 -0.074244 -0.996205
vn 0.993011 0.108904 0.045482
vn 0.977672 0.208399 0.026972
vn 0.643443 -0.026147 0.765047
vn 0.093626 -0.044212 0.994625
vn -0.070496 0.466905 0.881493
vn 0.501308 0.411612 0.761095
vn -0.955161 -0.213494 -0.205154
vn -0.607199 -0.301640 -0.735067
vn -0.777511 -0.026638 -0.628305
vn -0.983034 0.067498 -0.170555
vn -0.717215 -0.147665 0.681027
vn -0.682056 0.404349 0.609345
vn 0.708845 0.320011 0.628595
vn 0.011084 0.489148 0.872131
vn 0.181817 0.431835 0.883437
vn 0.749315 0.135005 0.648306
vn 0.990173 0.095716 0.101965
vn 0.991775 -0.043937 0.120218
vn 0.791194 0.028398 -0.610905
vn 0.860589 -0.061582 -0.505564
vn 0.032382 -0.035242 -0.998854
vn 0.034966 -0.040523 -0.998567
vn -0.769116 0.013825 -0.638960
vn -0.769314 -0.226382 -0.597417
vn -0.983413 0.048685 -0.174723
vn -0.960721 -0.263546 -0.086938
vn -0.827758 0.351655 0.437215
vn -0.949401 0.101133 0.297337
vn 0.603716 0.308437 0.735114
vn -0.012493 0.397491 0.917521
vn 0.991572 0.094131 0.089022
vn 0.765027 -0.028670 -0.643359
vn 0.046264 -0.119069 -0.991808
vn -0.768421 -0.019918 -0.639634
vn -0.981668 0.069349 -0.177536
vn -0.752189 0.337146 0.566167
vn 0.569474 0.338327 0.749156
vn -0.016830 0.393504 0.919169
vn 0.988997 0.131661 0.067453
vn 0.767481 0.011073 -0.640976
vn 0.049683 -0.119830 -0.991550
vn -0.766839 -0.032859 -0.640998
vn -0.983659 0.057286 -0.170687
vn -0.706190 0.333146 0.624747
vn 0.864591 -0.282387 -0.415621
vn 0.963996 -0.220750 0.148257
vn 0.796744 -0.105441 0.595047
vn 0.525466 0.542341 0.655555
vn -0.829430 0.336702 0.445733
vn -0.675263 0.321810 0.663671
vn 0.474622 0.280959 0.834144
vn -0.721888 -0.039297 -0.690893
vn -0.934497 0.310418 -0.174234
vn 0.832184 -0.517479 -0.199212
vn 0.855390 -0.475166 0.206215
vn -0.766930 0.263298 0.585228
vn 0.754469 -0.378290 0.536352
vn -0.680234 -0.094251 -0.726910
vn 0.690320 -0.431966 -0.580400
vn 0.411362 -0.637621 0.651323
vn -0.791983 -0.398893 0.462221
vn 0.854884 -0.321616 -0.407107
vn -0.651665 -0.123283 -0.748421
vn 0.493159 -0.245631 0.834542
vn -0.825996 -0.034504 0.562620
vn 0.625931 -0.371654 -0.685627
vn 0.155060 -0.498169 -0.853103
vn 0.855865 -0.292343 -0.426651
vn 0.959884 -0.279379 -0.023860
vn 0.904829 -0.263316 0.334588
vn 0.570536 -0.275737 0.773600
vn 0.182685 -0.288437 0.939910
vn 0.000000 -0.386010 0.922495
vn -0.260671 -0.362389 0.894832
vn 0.583812 -0.425964 -0.691172
vn 0.083156 -0.470339 -0.878559
vn 0.865155 -0.348993 -0.360153
vn 0.955453 -0.292621 0.038509
vn 0.914083 -0.247980 0.320873
vn 0.549725 -0.211934 0.808014
vn 0.141233 -0.202096 0.969129
vn -0.934825 -0.257230 -0.244816
vn -0.516303 -0.499997 -0.695294
vn -0.495028 -0.419652 -0.760815
vn -0.894259 -0.294272 -0.337202
vn -0.989433 -0.144034 -0.016611
vn -0.981072 -0.193630 -0.002520
vn -0.958304 -0.214548 0.188740
vn -0.925942 -0.189394 0.326743
vn -0.472600 -0.195551 0.859307
vn 0.060720 -0.023495 -0.997878
vn 0.656545 -0.151288 -0.738959
vn 0.636476 0.344471 -0.690101
vn 0.013013 0.441272 -0.897279
vn 0.975681 -0.095777 -0.197165
vn 0.992463 0.105799 -0.061841
vn 0.987773 -0.143526 0.060862
vn 0.991815 0.015725 0.126713
vn 0.940329 -0.180411 0.288502
vn 0.955378 -0.022819 0.294505
vn 0.507353 -0.187918 0.840999
vn 0.519430 -0.127818 0.844899
vn 0.111881 -0.185194 0.976312
vn 0.101431 -0.157396 0.982313
vn -0.938525 0.021137 -0.344564
vn -0.515621 0.024821 -0.856457
vn -0.476874 0.463363 -0.746918
vn -0.873916 0.368860 -0.316566
vn -0.999954 0.009531 -0.001494
vn -0.970940 0.237070 0.032774
vn -0.930151 -0.048609 0.363946
vn -0.910555 0.116490 0.396636
vn -0.402737 -0.154241 0.902227
vn -0.371856 -0.107175 0.922083
vn 0.038800 0.157309 -0.986787
vn 0.657341 0.098748 -0.747096
vn 0.596238 -0.198922 -0.777773
vn 0.077920 -0.055931 -0.995390
vn 0.975838 -0.163444 -0.145003
vn 0.918077 -0.315175 -0.240415
vn 0.974624 -0.221578 0.031802
vn 0.955186 -0.289007 -0.063993
vn 0.939550 -0.235360 0.248702
vn 0.946901 -0.280179 0.157731
vn 0.467416 -0.381846 0.797318
vn 0.425935 -0.316019 0.847769
vn 0.096337 -0.379639 0.920105
vn 0.045917 -0.359869 0.931872
vn -0.914243 0.087475 -0.395612
vn -0.504308 0.185457 -0.843374
vn -0.453955 -0.030377 -0.890507
vn -0.928548 -0.088166 -0.360591
vn -0.998788 -0.048092 -0.010447
vn -0.987624 -0.155600 0.019706
vn -0.946449 -0.114748 0.301773
vn -0.958751 -0.208352 0.193352
vn -0.396235 -0.320026 0.860570
vn -0.516891 -0.339917 0.785672
vn 0.535120 0.324778 -0.779850
vn 0.013697 0.552722 -0.833253
vn 0.956197 -0.069573 -0.284335
vn 0.981411 0.055913 -0.183591
vn 0.994074 0.108372 -0.008535
vn 0.470812 0.732780 0.491293
vn -0.000748 0.659102 0.752053
vn -0.499625 0.575395 -0.647531
vn -0.971548 0.223736 -0.077694
vn -0.991195 0.051787 0.121864
vn -0.983457 -0.039080 0.176876
vn -0.700002 0.403608 0.589150
vn 0.271330 0.437719 -0.857194
vn -0.006260 0.494836 -0.868964
vn 0.558341 -0.671283 -0.487477
vn 0.561427 -0.668624 -0.487587
vn 0.723318 -0.511351 -0.464038
vn 0.559459 -0.451759 -0.694924
vn 0.660842 0.593569 0.459308
vn 0.087831 0.473673 0.876310
vn 0.179326 -0.926614 -0.330498
vn 0.669652 -0.536215 -0.513847
vn -0.442847 0.444413 -0.778706
vn -0.783310 -0.361530 -0.505689
vn -0.574581 -0.728640 -0.372747
vn -0.475683 -0.787161 -0.392559
vn -0.687436 -0.628859 -0.363274
vn -0.673825 0.297615 0.676302
vn -0.627723 -0.759412 -0.171046
vn 0.109600 -0.878874 -0.464293
vn 0.150010 -0.863497 -0.481529
vn 0.163875 -0.814231 -0.556931
vn 0.090042 -0.784811 -0.613160
vn 0.000000 -0.829036 -0.559195
vn 0.000000 -0.594147 -0.804356
vn 0.000001 -0.979068 -0.203533
vn 0.000000 -0.868357 0.495940
vn -0.000000 -0.007779 0.999970
vn 0.748606 -0.174531 0.639631
vn 0.795273 -0.306184 0.523251
vn -0.000000 -0.366090 0.930579
vn 0.945964 -0.106461 -0.306298
vn 0.970578 -0.233857 0.057352
vn 0.531515 0.099290 -0.841209
vn 0.000000 0.170516 -0.985355
vn 0.000000 0.376581 0.926384
vn 0.479045 0.324354 0.815666
vn 0.587046 0.551782 -0.592380
vn -0.000000 0.637249 -0.770658
vn 0.945069 0.321106 -0.061115
vn 0.956749 0.095833 0.274678
vn 0.639137 0.018420 0.768872
vn -0.000000 0.064341 0.997928
vn 0.622357 0.165551 -0.765026
vn -0.000000 0.226899 -0.973918
vn 0.977638 -0.007441 -0.210164
vn 0.963423 -0.120911 0.239157
vn 0.682521 -0.127373 0.719681
vn -0.000000 -0.168891 0.985635
vn 0.373806 -0.923235 0.088920
vn 0.406981 -0.803046 -0.435298
vn 0.718504 -0.073083 0.691673
vn 0.465860 -0.362271 0.807300
vn -0.000000 -0.999095 0.042530
vn 0.000000 -0.807087 -0.590433
vn 0.000000 0.255423 0.966829
vn 0.000000 -0.357945 0.933743
vn -0.544655 -0.267982 0.794693
vn -0.670656 -0.357387 0.649996
vn -0.934781 -0.340689 0.100581
vn -0.936033 -0.170364 0.307925
vn -0.849569 -0.384616 -0.360975
vn -0.596555 -0.412682 -0.688343
vn -0.672803 -0.167514 -0.720608
vn -0.882022 -0.126610 -0.453880
vn -0.919605 -0.362502 -0.151388
vn -0.988442 -0.126821 -0.083060
vn -0.378737 0.661250 -0.647539
vn -0.299909 0.363666 -0.881931
vn -0.367556 0.077259 -0.926787
vn -0.315584 0.148931 -0.937137
vn -0.171812 -0.946788 0.272165
vn -0.250359 -0.959409 -0.129823
vn 0.862971 0.130973 -0.487983
vn 0.953730 0.250585 -0.166148
vn -0.118694 -0.802877 0.584210
vn 0.879915 0.431819 0.198197
vn -0.577056 0.142269 0.804218
vn -0.358000 0.475668 0.803478
vn -0.369099 0.710278 0.599393
vn -0.500704 0.085513 0.861385
vn -0.513348 -0.467513 -0.719657
vn -0.667806 -0.482601 -0.566685
vn 0.923858 -0.382638 -0.008700
vn 0.462394 -0.369135 -0.806183
vn 0.634225 -0.700662 -0.326852
vn 0.717494 -0.695013 0.046468
vn 0.100414 -0.355441 0.929289
vn 0.771755 -0.633955 -0.049946
vn -0.727379 -0.322489 0.605740
vn -0.859729 -0.456972 0.228131
vn -0.820687 -0.556346 -0.130198
vn -0.222221 0.567483 0.792831
vn -0.312573 0.607718 0.730053
vn -0.554990 0.829023 0.068613
vn -0.420210 0.901308 0.105200
vn -0.144513 0.672194 -0.726135
vn -0.023720 0.363373 -0.931342
vn -0.037244 0.070192 -0.996838
vn -0.120416 -0.285798 -0.950694
vn -0.175419 -0.260936 -0.949284
vn -0.220467 -0.231202 -0.947597
vn -0.261254 -0.310056 0.914118
vn -0.222206 -0.302398 0.926920
vn -0.328631 -0.264298 0.906724
vn -0.286635 0.185918 0.939827
vn -0.535171 0.827539 0.169623
vn -0.504675 0.640427 0.578927
vn -0.370285 0.874437 -0.313446
vn -0.775389 -0.023818 0.631034
vn -0.916788 0.399313 -0.006970
vn -0.317898 0.613269 -0.723079
vn -0.261465 0.118850 -0.957868
vn -0.603855 0.561362 -0.565891
vn -0.758428 0.651666 0.010922
vn -0.693885 0.498208 0.519916
vn -0.380523 0.012703 0.924684
vn 0.875757 -0.480130 -0.050258
vn 0.328606 -0.408746 -0.851437
vn 0.498854 -0.456296 0.736844
vn -0.246953 -0.049195 -0.967778
vn -0.759261 0.235413 -0.606716
vn -0.953837 0.298523 0.032860
vn -0.791907 0.123561 0.598010
vn -0.292048 -0.261652 0.919916
vn 0.941853 -0.330484 -0.060776
vn 0.742132 -0.307625 -0.595489
vn 0.689404 -0.420758 0.589648
vn -0.237581 -0.131906 -0.962370
vn -0.792341 -0.002592 -0.610073
vn -0.997486 0.056807 0.042375
vn -0.787653 -0.180273 0.589156
vn -0.344674 -0.429150 0.834883
vn 0.818326 -0.559487 -0.131594
vn 0.517945 -0.478107 -0.709329
vn 0.356434 -0.660971 0.660357
vn -0.128203 -0.095467 -0.987142
vn -0.045432 -0.074244 -0.996205
vn -0.675698 0.086396 -0.732099
vn -0.756154 0.029302 -0.653738
vn -0.977672 0.208399 0.026972
vn -0.993011 0.108905 0.045482
vn -0.643443 -0.026147 0.765047
vn -0.501308 0.411612 0.761095
vn 0.070496 0.466906 0.881493
vn -0.093626 -0.044212 0.994625
vn 0.955161 -0.213494 -0.205154
vn 0.983034 0.067498 -0.170555
vn 0.777511 -0.026638 -0.628305
vn 0.607199 -0.301640 -0.735067
vn 0.682056 0.404348 0.609345
vn 0.717215 -0.147665 0.681027
vn -0.708845 0.320011 0.628595
vn -0.749315 0.135005 0.648306
vn -0.181817 0.431835 0.883437
vn -0.011084 0.489148 0.872131
vn -0.990173 0.095716 0.101965
vn -0.991775 -0.043937 0.120218
vn -0.791194 0.028398 -0.610905
vn -0.860589 -0.061582 -0.505564
vn -0.032382 -0.035242 -0.998854
vn -0.034966 -0.040523 -0.998567
vn 0.769116 0.013825 -0.638960
vn 0.769314 -0.226382 -0.597417
vn 0.983413 0.048685 -0.174723
vn 0.960721 -0.263546 -0.086938
vn 0.827757 0.351655 0.437214
vn 0.949401 0.101133 0.297337
vn -0.603716 0.308438 0.735114
vn 0.012493 0.397491 0.917521
vn -0.991572 0.094131 0.089022
vn -0.765027 -0.028670 -0.643359
vn -0.046264 -0.119069 -0.991808
vn 0.768421 -0.019918 -0.639634
vn 0.981668 0.069349 -0.177536
vn 0.752189 0.337146 0.566167
vn -0.569474 0.338327 0.749156
vn 0.016830 0.393504 0.919169
vn -0.988997 0.131661 0.067453
vn -0.767482 0.011073 -0.640976
vn -0.049683 -0.119830 -0.991550
vn 0.766839 -0.032859 -0.640998
vn 0.983659 0.057286 -0.170687
vn 0.706190 0.333147 0.624747
vn -0.864590 -0.282387 -0.415621
vn -0.963996 -0.220751 0.148257
vn -0.796744 -0.105441 0.595047
vn -0.525466 0.542341 0.655555
vn -0.474622 0.280959 0.834144
vn 0.675263 0.321810 0.663671
vn 0.829430 0.336702 0.445733
vn 0.934496 0.310418 -0.174234
vn 0.721888 -0.039297 -0.690893
vn -0.832184 -0.517479 -0.199212
vn -0.855390 -0.475166 0.206215
vn -0.754469 -0.378291 0.536352
vn 0.766930 0.263298 0.585228
vn 0.680234 -0.094252 -0.726910
vn 0.791983 -0.398892 0.462221
vn -0.411362 -0.637620 0.651323
vn -0.690320 -0.431966 -0.580400
vn 0.651665 -0.123284 -0.748421
vn -0.854884 -0.321616 -0.407107
vn -0.493159 -0.245630 0.834542
vn 0.825996 -0.034504 0.562620
vn -0.155060 -0.498169 -0.853103
vn -0.625931 -0.371654 -0.685627
vn -0.855865 -0.292343 -0.426651
vn -0.959884 -0.279379 -0.023860
vn -0.904829 -0.263316 0.334588
vn -0.570536 -0.275737 0.773600
vn -0.182686 -0.288437 0.939910
vn 0.260671 -0.362389 0.894832
vn -0.083156 -0.470339 -0.878559
vn -0.583812 -0.425964 -0.691172
vn -0.865155 -0.348993 -0.360153
vn -0.955453 -0.292621 0.038509
vn -0.914082 -0.247980 0.320873
vn -0.549725 -0.211934 0.808014
vn -0.141233 -0.202096 0.969129
vn 0.934825 -0.257230 -0.244816
vn 0.894259 -0.294273 -0.337202
vn 0.495028 -0.419652 -0.760815
vn 0.516303 -0.499997 -0.695294
vn 0.989433 -0.144034 -0.016611
vn 0.981072 -0.193630 -0.002521
vn 0.958304 -0.214548 0.188740
vn 0.925942 -0.189394 0.326743
vn 0.472600 -0.195551 0.859307
vn -0.060720 -0.023495 -0.997878
vn -0.013013 0.441272 -0.897279
vn -0.636476 0.344471 -0.690101
vn -0.656544 -0.151289 -0.738960
vn -0.992463 0.105799 -0.061841
vn -0.975681 -0.095777 -0.197165
vn -0.991815 0.015725 0.126713
vn -0.987773 -0.143526 0.060862
vn -0.955378 -0.022819 0.294505
vn -0.940329 -0.180411 0.288502
vn -0.519430 -0.127818 0.844899
vn -0.507353 -0.187918 0.840999
vn -0.101431 -0.157396 0.982313
vn -0.111881 -0.185194 0.976312
vn 0.938525 0.021137 -0.344564
vn 0.873916 0.368860 -0.316566
vn 0.476874 0.463363 -0.746918
vn 0.515621 0.024821 -0.856457
vn 0.999954 0.009531 -0.001494
vn 0.970940 0.237070 0.032774
vn 0.930151 -0.048609 0.363946
vn 0.910555 0.116490 0.396636
vn 0.402737 -0.154241 0.902227
vn 0.371856 -0.107175 0.922083
vn -0.038800 0.157309 -0.986787
vn -0.077920 -0.055931 -0.995390
vn -0.596238 -0.198922 -0.777773
vn -0.657340 0.098748 -0.747096
vn -0.918077 -0.315175 -0.240415
vn -0.975838 -0.163444 -0.145003
vn -0.955186 -0.289007 -0.063993
vn -0.974624 -0.221579 0.031802
vn -0.946900 -0.280179 0.157732
vn -0.939549 -0.235360 0.248702
vn -0.425935 -0.316019 0.847769
vn -0.467416 -0.381846 0.797318
vn -0.045917 -0.359869 0.931872
vn -0.096337 -0.379639 0.920105
vn 0.914243 0.087475 -0.395612
vn 0.928548 -0.088166 -0.360591
vn 0.453955 -0.030377 -0.890507
vn 0.504308 0.185457 -0.843374
vn 0.998788 -0.048092 -0.010447
vn 0.987624 -0.155600 0.019706
vn 0.946449 -0.114748 0.301773
vn 0.958751 -0.208352 0.193352
vn 0.396235 -0.320026 0.860570
vn 0.516891 -0.339917 0.785672
vn -0.013697 0.552722 -0.833253
vn -0.535120 0.324778 -0.779850
vn -0.956197 -0.069573 -0.284336
vn -0.981411 0.055913 -0.183591
vn -0.994074 0.108372 -0.008534
vn -0.470812 0.732780 0.491293
vn 0.000748 0.659102 0.752053
vn 0.971548 0.223736 -0.077694
vn 0.499625 0.575395 -0.647531
vn 0.991195 0.051787 0.121864
vn 0.983457 -0.039080 0.176876
vn 0.700002 0.403608 0.589150
vn 0.006260 0.494836 -0.868964
vn -0.271330 0.437719 -0.857194
vn -0.558341 -0.671284 -0.487477
vn -0.561427 -0.668624 -0.487587
vn -0.723318 -0.511351 -0.464038
vn -0.559459 -0.451759 -0.694925
vn -0.660842 0.593569 0.459308
vn -0.669652 -0.536215 -0.513848
vn -0.179326 -0.926614 -0.330498
vn -0.087831 0.473673 0.876310
vn 0.783310 -0.361529 -0.505689
vn 0.442847 0.444413 -0.778707
vn 0.574581 -0.728639 -0.372748
vn 0.475683 -0.787161 -0.392560
vn 0.687436 -0.628859 -0.363274
vn 0.627723 -0.759412 -0.171045
vn 0.673825 0.297615 0.676302
vn -0.109600 -0.878874 -0.464293
vn -0.150010 -0.863497 -0.481529
vn -0.163875 -0.814231 -0.556931
vn -0.090042 -0.784810 -0.613160
vn -0.795273 -0.306184 0.523251
vn -0.748606 -0.174531 0.639631
vn -0.970578 -0.233857 0.057352
vn -0.945964 -0.106461 -0.306298
vn -0.531515 0.099290 -0.841209
vn -0.479044 0.324354 0.815666
vn -0.587046 0.551782 -0.592380
vn -0.945069 0.321106 -0.061115
vn -0.956749 0.095833 0.274678
vn -0.639137 0.018420 0.768872
vn -0.622357 0.165551 -0.765026
vn -0.977638 -0.007441 -0.210164
vn -0.963423 -0.120911 0.239157
vn -0.682522 -0.127373 0.719681
vn -0.373806 -0.923235 0.088919
vn -0.465860 -0.362271 0.807300
vn -0.718504 -0.073083 0.691673
vn -0.406981 -0.803046 -0.435298
s 1
usemtl unwrapChekcerShaderSG
f 1/779/1 9/790/2 23/3/3 24/4/4
f 21/5/5 5/791/6 4/780/7 20/8/8
f 22/781/9 7/738/10 5/791/6 21/5/5
f 23/3/3 9/790/2 7/737/10 22/9/9
f 6/787/11 12/785/12 11/13/13 3/14/14
f 127/15/15 126/16/16 128/17/17 129/18/18
f 131/19/19 130/750/20 126/16/16 127/15/15
f 14/21/21 13/783/22 10/786/23 2/24/24
f 12/785/12 16/784/25 15/26/26 11/13/13
f 111/27/27 117/28/28 118/755/29 113/754/30
f 115/746/31 119/32/32 117/28/28 111/27/27
f 19/33/33 18/782/34 13/783/22 14/21/21
f 16/784/25 21/5/5 20/8/8 15/26/26
f 17/771/35 22/781/9 21/5/5 16/784/25
f 18/782/34 23/3/3 22/9/9 17/772/35
f 24/4/4 23/3/3 18/782/34 19/33/33
f 25/36/36 2/24/24 10/786/23 26/37/37
f 27/778/38 26/37/37 10/786/23 8/788/39
f 28/40/40 27/38/38 8/789/39 6/787/11
f 29/41/41 28/40/40 6/787/11 3/14/14
f 30/42/42 29/41/41 3/14/14 11/13/13
f 31/43/43 30/42/42 11/13/13 15/26/26
f 32/44/44 31/43/43 15/26/26 20/8/8
f 33/707/45 32/44/44 20/8/8 4/780/7
f 35/46/46 34/47/47 1/779/1 24/4/4
f 36/48/48 35/46/46 24/4/4 19/33/33
f 37/49/49 36/48/48 19/33/33 14/21/21
f 25/36/36 37/49/49 14/21/21 2/24/24
f 38/50/50 25/36/36 26/37/37 39/51/51
f 231/704/52 230/53/53 232/54/54 233/55/55
f 234/703/56 231/704/52 233/55/55 235/57/57
f 42/58/58 41/59/59 29/41/41 30/42/42
f 43/60/60 42/58/58 30/42/42 31/43/43
f 44/61/61 43/60/60 31/43/43 32/44/44
f 45/669/62 44/61/61 32/44/44 33/707/45
f 47/63/63 46/64/64 34/47/47 35/46/46
f 48/65/65 47/63/63 35/46/46 36/48/48
f 49/66/66 48/65/65 36/48/48 37/49/49
f 38/50/50 49/66/66 37/49/49 25/36/36
f 39/51/51 26/37/37 51/777/67 50/666/68
f 26/37/37 27/778/38 52/776/69 51/777/67
f 27/38/38 28/40/40 54/774/70 52/775/69
f 28/40/40 40/71/71 53/72/72 54/774/70
f 12/12/12 6/11/11 57/73/73 56/74/74
f 6/11/11 8/39/39 55/75/75 57/73/73
f 10/23/23 13/22/22 58/76/76 59/77/77
f 8/39/39 10/23/23 59/77/77 55/75/75
f 17/35/35 16/25/25 61/78/78 60/79/79
f 16/25/25 12/12/12 56/74/74 61/78/78
f 13/22/22 18/34/34 62/80/80 58/76/76
f 18/34/34 17/773/35 60/770/79 62/80/80
f 56/74/74 57/73/73 65/81/81 64/82/82
f 57/73/73 55/75/75 63/83/83 65/81/81
f 59/77/77 58/76/76 66/84/84 67/85/85
f 55/75/75 59/77/77 67/85/85 63/83/83
f 60/79/79 61/78/78 69/86/86 68/87/87
f 61/78/78 56/74/74 64/82/82 69/86/86
f 58/76/76 62/80/80 70/88/88 66/84/84
f 62/80/80 60/770/79 68/769/87 70/88/88
f 64/82/82 65/81/81 268/89/89 269/90/90
f 65/81/81 63/83/83 267/91/91 268/89/89
f 67/85/85 66/84/84 273/92/92 266/93/93
f 63/83/83 67/85/85 266/93/93 267/91/91
f 68/87/87 69/86/86 270/94/94 271/697/95
f 69/86/86 64/82/82 269/90/90 270/94/94
f 66/84/84 70/88/88 272/96/96 273/92/92
f 70/88/88 68/769/87 271/95/95 272/96/96
f 72/97/97 73/98/98 276/99/99 277/100/100
f 73/98/98 71/101/101 275/102/102 276/99/99
f 75/103/103 74/104/104 281/105/105 274/106/106
f 71/101/101 75/103/103 274/106/106 275/102/102
f 76/698/107 77/108/108 278/109/109 279/695/110
f 77/108/108 72/97/97 277/100/100 278/109/109
f 74/104/104 78/111/111 280/112/112 281/105/105
f 78/111/111 76/107/107 279/110/110 280/112/112
f 88/768/113 87/762/114 82/115/115 83/116/116
f 89/767/117 88/768/113 83/116/116 79/118/118
f 90/766/119 89/767/117 79/118/118 81/120/120
f 91/765/121 90/766/119 81/120/120 80/122/122
f 92/764/123 91/765/121 80/122/122 85/124/124
f 93/758/125 92/763/123 85/756/124 84/126/126
f 94/761/127 93/758/125 84/126/126 86/128/128
f 87/762/114 94/760/127 86/748/128 82/115/115
f 96/129/129 95/130/130 87/114/114 88/113/113
f 97/131/131 96/129/129 88/113/113 89/117/117
f 98/132/132 97/131/131 89/117/117 90/119/119
f 99/133/133 98/132/132 90/119/119 91/121/121
f 100/134/134 99/133/133 91/121/121 92/123/123
f 101/757/135 100/134/134 92/123/123 93/759/125
f 102/136/136 101/135/135 93/125/125 94/127/127
f 95/130/130 102/136/136 94/127/127 87/114/114
f 104/137/137 103/138/138 95/130/130 96/129/129
f 105/139/139 104/137/137 96/129/129 97/131/131
f 106/140/140 105/139/139 97/131/131 98/132/132
f 107/141/141 106/140/140 98/132/132 99/133/133
f 108/142/142 107/141/141 99/133/133 100/134/134
f 109/696/143 108/142/142 100/134/134 101/757/135
f 110/144/144 109/143/143 101/135/135 102/136/136
f 103/138/138 110/144/144 102/136/136 95/130/130
f 80/122/122 81/120/120 114/145/145 113/30/30
f 81/120/120 79/118/118 112/146/146 114/145/145
f 83/116/116 82/115/115 115/31/31 116/147/147
f 79/118/118 83/116/116 116/147/147 112/146/146
f 84/126/126 85/756/124 118/755/29 117/28/28
f 85/124/124 80/122/122 113/30/30 118/29/29
f 133/148/148 132/747/149 134/745/150 135/151/151
f 86/128/128 84/126/126 117/28/28 119/32/32
f 111/27/27 113/754/30 122/753/152 120/153/153
f 113/30/30 114/145/145 123/154/154 122/152/152
f 114/145/145 112/146/146 121/155/155 123/154/154
f 116/147/147 115/31/31 124/751/156 125/157/157
f 115/746/31 111/27/27 120/153/153 124/156/156
f 112/146/146 116/147/147 125/157/157 121/155/155
f 120/153/153 122/753/152 128/752/17 126/749/16
f 122/152/152 123/154/154 129/18/18 128/17/17
f 123/154/154 121/155/155 127/15/15 129/18/18
f 125/157/157 124/751/156 130/750/20 131/19/19
f 124/156/156 120/153/153 126/749/16 130/20/20
f 121/155/155 125/157/157 131/19/19 127/15/15
f 82/115/115 86/748/128 132/747/149 133/148/148
f 86/128/128 119/32/32 134/150/150 132/149/149
f 140/158/158 141/159/159 142/160/160 143/741/161
f 115/31/31 82/115/115 133/148/148 135/151/151
f 119/32/32 115/746/31 137/744/162 136/163/163
f 115/31/31 135/151/151 138/164/164 137/162/162
f 135/151/151 134/745/150 139/742/165 138/164/164
f 134/150/150 119/32/32 136/163/163 139/165/165
f 136/163/163 137/744/162 141/743/159 140/740/158
f 137/162/162 138/164/164 142/160/160 141/159/159
f 138/164/164 139/742/165 143/741/161 142/160/160
f 139/165/165 136/163/163 140/740/158 143/161/161
f 33/45/45 4/7/7 145/166/166 144/167/167
f 4/7/7 5/6/6 146/168/168 145/166/166
f 5/6/6 7/739/10 147/736/169 146/168/168
f 7/10/10 9/2/2 148/170/170 147/169/169
f 9/2/2 1/1/1 150/171/171 148/170/170
f 1/1/1 34/706/47 149/172/172 150/171/171
f 34/706/47 46/667/64 229/173/173 155/174/174 149/172/172
f 144/167/167 145/166/166 286/175/175 287/176/176
f 145/166/166 146/168/168 285/177/177 286/175/175
f 146/168/168 147/736/169 284/178/178 285/177/177
f 147/169/169 148/170/170 283/179/179 284/693/178
f 148/170/170 150/171/171 282/180/180 283/179/179
f 150/171/171 149/172/172 293/181/181 282/180/180
f 152/182/182 151/183/183 288/184/184 289/185/185
f 151/183/183 144/167/167 287/176/176 288/184/184
f 153/705/186 152/182/182 289/185/185 290/691/187
f 154/188/188 153/186/186 290/187/187 291/189/189
f 155/174/174 154/188/188 291/189/189 292/190/190
f 149/172/172 155/174/174 292/190/190 293/181/181
f 156/191/191 157/192/192 298/193/193 299/194/194
f 157/192/192 158/195/195 297/196/196 298/193/193
f 158/195/195 159/197/197 296/198/198 297/196/196
f 159/694/197 160/199/199 295/200/200 296/688/198
f 160/199/199 162/201/201 294/202/202 295/200/200
f 162/201/201 161/203/203 305/204/204 294/202/202
f 164/205/205 163/206/206 300/207/207 301/208/208
f 163/206/206 156/191/191 299/194/194 300/207/207
f 165/692/209 164/205/205 301/208/208 302/685/210
f 166/211/211 165/209/209 302/210/210 303/212/212
f 167/213/213 166/211/211 303/212/212 304/214/214
f 161/203/203 167/213/213 304/214/214 305/204/204
f 168/726/215 169/735/216 181/217/217 180/218/218
f 169/735/216 170/734/219 182/220/220 181/217/217
f 170/734/219 171/689/221 183/222/222 182/220/220
f 171/689/221 172/733/223 184/224/224 183/222/222
f 172/733/223 174/732/225 186/226/226 184/224/224
f 174/732/225 173/728/227 185/228/228 186/226/226
f 176/730/229 175/731/230 187/231/231 188/232/232
f 175/731/230 168/725/215 180/724/218 187/231/231
f 177/686/233 176/730/229 188/232/232 189/234/234
f 178/729/235 177/686/233 189/234/234 190/236/236
f 179/727/237 178/729/235 190/236/236 191/238/238
f 173/728/227 179/727/237 191/238/238 185/228/228
f 180/218/218 181/217/217 193/239/239 192/240/240
f 181/217/217 182/220/220 194/241/241 193/239/239
f 182/220/220 183/222/222 195/242/242 194/241/241
f 183/222/222 184/224/224 196/243/243 195/242/242
f 184/224/224 186/226/226 197/244/244 196/243/243
f 186/226/226 185/228/228 198/245/245 197/244/244
f 188/232/232 187/231/231 199/246/246 200/247/247
f 187/231/231 180/724/218 192/723/240 199/246/246
f 189/234/234 188/232/232 200/247/247 201/248/248
f 190/236/236 189/234/234 201/248/248 202/249/249
f 191/238/238 190/236/236 202/249/249 203/250/250
f 185/228/228 191/238/238 203/250/250 198/245/245
f 192/240/240 193/239/239 205/251/251 204/717/252
f 193/239/239 194/241/241 206/721/253 205/251/251
f 194/241/241 195/242/242 207/720/254 206/721/253
f 195/242/242 196/243/243 208/719/255 207/720/254
f 196/243/243 197/244/244 209/256/256 208/719/255
f 220/257/257 219/258/258 221/259/259 222/260/260
f 200/247/247 199/246/246 211/261/261 212/715/262
f 199/246/246 192/723/240 204/718/252 211/261/261
f 201/248/248 200/247/247 212/715/262 213/714/263
f 202/249/249 201/248/248 213/714/263 214/713/264
f 203/250/250 202/249/249 214/713/264 215/710/265
f 219/258/258 223/266/266 224/708/267 221/259/259
f 204/252/252 216/268/268 212/262/262 211/716/261
f 205/722/251 206/253/253 216/268/268 204/252/252
f 216/268/268 206/253/253 207/254/254 217/269/269
f 212/262/262 216/268/268 217/269/269 213/263/263
f 217/269/269 207/254/254 208/255/255 218/270/270
f 213/263/263 217/269/269 218/270/270 214/264/264
f 218/270/270 208/255/255 209/712/256 210/271/271
f 214/264/264 218/270/270 210/271/271 215/265/265
f 197/244/244 198/245/245 219/258/258 220/257/257
f 210/271/271 209/712/256 222/711/260 221/709/259
f 209/256/256 197/244/244 220/257/257 222/260/260
f 198/245/245 203/250/250 223/266/266 219/258/258
f 203/250/250 215/710/265 224/708/267 223/266/266
f 215/265/265 210/271/271 221/709/259 224/267/267
f 226/272/272 225/273/273 151/183/183 152/182/182
f 225/273/273 45/62/62 33/45/45 144/167/167 151/183/183
f 227/591/274 226/272/272 152/182/182 153/705/186
f 228/275/275 227/274/274 153/186/186 154/188/188
f 229/173/173 228/275/275 154/188/188 155/174/174
f 237/276/276 236/277/277 256/278/278 257/279/279
f 51/67/67 52/69/69 254/280/280 255/281/281
f 52/69/69 54/70/70 253/282/282 254/280/280
f 54/70/70 53/659/72 252/700/283 253/282/282
f 51/67/67 255/281/281 256/278/278 236/277/277
f 232/54/54 230/53/53 239/284/284 238/285/285
f 241/286/286 240/702/287 234/703/56 235/57/57
f 242/288/288 241/286/286 235/57/57 233/55/55
f 243/289/289 242/288/288 233/55/55 232/54/54
f 244/290/290 243/289/289 232/54/54 238/285/285
f 245/291/291 244/290/290 238/285/285 239/284/284
f 247/292/292 246/701/293 240/702/287 241/286/286
f 248/294/294 247/292/292 241/286/286 242/288/288
f 249/295/295 248/294/294 242/288/288 243/289/289
f 250/296/296 249/295/295 243/289/289 244/290/290
f 251/297/297 250/296/296 244/290/290 245/291/291
f 253/282/282 252/700/283 246/701/293 247/292/292
f 254/280/280 253/282/282 247/292/292 248/294/294
f 255/281/281 254/280/280 248/294/294 249/295/295
f 256/278/278 255/281/281 249/295/295 250/296/296
f 257/279/279 256/278/278 250/296/296 251/297/297
f 258/298/298 259/299/299 263/300/300 262/301/301
f 259/299/299 258/298/298 261/302/302 260/699/303
f 262/301/301 263/300/300 265/304/304 264/305/305
f 261/302/302 258/298/298 262/301/301 264/305/305
f 50/665/68 51/67/67 259/299/299 260/699/303
f 51/67/67 236/277/277 263/300/300 259/299/299
f 236/277/277 237/276/276 265/304/304 263/300/300
f 267/91/91 266/93/93 75/103/103 71/101/101
f 268/89/89 267/91/91 71/101/101 73/98/98
f 269/90/90 268/89/89 73/98/98 72/97/97
f 270/94/94 269/90/90 72/97/97 77/108/108
f 271/697/95 270/94/94 77/108/108 76/698/107
f 272/96/96 271/95/95 76/107/107 78/111/111
f 273/92/92 272/96/96 78/111/111 74/104/104
f 266/93/93 273/92/92 74/104/104 75/103/103
f 275/102/102 274/106/106 104/137/137 105/139/139
f 276/99/99 275/102/102 105/139/139 106/140/140
f 277/100/100 276/99/99 106/140/140 107/141/141
f 278/109/109 277/100/100 107/141/141 108/142/142
f 279/695/110 278/109/109 108/142/142 109/696/143
f 280/112/112 279/110/110 109/143/143 110/144/144
f 281/105/105 280/112/112 110/144/144 103/138/138
f 274/106/106 281/105/105 103/138/138 104/137/137
f 283/179/179 282/180/180 162/201/201 160/199/199
f 284/693/178 283/179/179 160/199/199 159/694/197
f 285/177/177 284/178/178 159/197/197 158/195/195
f 286/175/175 285/177/177 158/195/195 157/192/192
f 287/176/176 286/175/175 157/192/192 156/191/191
f 288/184/184 287/176/176 156/191/191 163/206/206
f 289/185/185 288/184/184 163/206/206 164/205/205
f 290/691/187 289/185/185 164/205/205 165/692/209
f 291/189/189 290/187/187 165/209/209 166/211/211
f 292/190/190 291/189/189 166/211/211 167/213/213
f 293/181/181 292/190/190 167/213/213 161/203/203
f 282/180/180 293/181/181 161/203/203 162/201/201
f 295/200/200 294/202/202 174/225/225 172/223/223
f 296/688/198 295/200/200 172/223/223 171/690/221
f 297/196/196 296/198/198 171/221/221 170/219/219
f 298/193/193 297/196/196 170/219/219 169/216/216
f 299/194/194 298/193/193 169/216/216 168/215/215
f 300/207/207 299/194/194 168/215/215 175/230/230
f 301/208/208 300/207/207 175/230/230 176/229/229
f 302/685/210 301/208/208 176/229/229 177/687/233
f 303/212/212 302/210/210 177/233/233 178/235/235
f 304/214/214 303/212/212 178/235/235 179/237/237
f 305/204/204 304/214/214 179/237/237 173/227/227
f 294/202/202 305/204/204 173/227/227 174/225/225
f 306/671/306 329/307/307 328/308/308 314/683/309
f 326/310/310 325/311/311 309/672/312 310/684/313
f 327/679/314 326/310/310 310/684/313 312/622/315
f 328/308/308 327/314/314 312/623/315 314/683/309
f 311/675/316 308/317/317 316/318/318 317/681/319
f 418/320/320 420/321/321 419/322/322 417/682/323
f 422/324/324 418/320/320 417/682/323 421/635/325
f 319/326/326 307/327/327 315/676/328 318/680/329
f 317/681/319 316/318/318 320/330/330 321/678/331
f 402/332/332 404/333/333 409/640/334 408/335/335
f 406/336/336 402/332/332 408/335/335 410/337/337
f 324/338/338 319/326/326 318/680/329 323/677/339
f 321/678/331 320/330/330 325/311/311 326/310/310
f 322/656/340 321/678/331 326/310/310 327/679/314
f 323/677/339 322/655/340 327/314/314 328/308/308
f 329/307/307 324/338/338 323/677/339 328/308/308
f 330/341/341 331/342/342 315/676/328 307/327/327
f 332/343/343 313/674/344 315/676/328 331/342/342
f 333/345/345 311/675/316 313/673/344 332/664/343
f 334/346/346 308/317/317 311/675/316 333/345/345
f 335/347/347 316/318/318 308/317/317 334/346/346
f 336/348/348 320/330/330 316/318/318 335/347/347
f 337/349/349 325/311/311 320/330/330 336/348/348
f 338/670/350 309/672/312 325/311/311 337/349/349
f 340/351/351 329/307/307 306/671/306 339/668/352
f 341/353/353 324/338/338 329/307/307 340/351/351
f 342/354/354 319/326/326 324/338/338 341/353/353
f 330/341/341 307/327/327 319/326/326 342/354/354
f 38/50/50 39/51/51 331/342/342 330/341/341
f 231/52/52 517/355/355 516/356/356 230/53/53
f 234/56/56 518/357/357 517/355/355 231/52/52
f 42/58/58 335/347/347 334/346/346 41/59/59
f 43/60/60 336/348/348 335/347/347 42/58/58
f 44/61/61 337/349/349 336/348/348 43/60/60
f 45/669/62 338/670/350 337/349/349 44/61/61
f 47/63/63 340/351/351 339/668/352 46/64/64
f 48/65/65 341/353/353 340/351/351 47/63/63
f 49/66/66 342/354/354 341/353/353 48/65/65
f 38/50/50 330/341/341 342/354/354 49/66/66
f 39/51/51 50/666/68 343/663/358 331/342/342
f 331/342/342 343/663/358 344/661/359 332/343/343
f 332/664/343 344/662/359 345/658/360 333/345/345
f 333/345/345 345/658/360 53/72/72 40/71/71
f 317/319/319 347/361/361 348/362/362 311/316/316
f 311/316/316 348/362/362 346/363/363 313/344/344
f 315/328/328 350/364/364 349/365/365 318/329/329
f 313/344/344 346/363/363 350/364/364 315/328/328
f 322/657/340 351/654/366 352/367/367 321/331/331
f 321/331/331 352/367/367 347/361/361 317/319/319
f 318/329/329 349/365/365 353/368/368 323/339/339
f 323/339/339 353/368/368 351/366/366 322/340/340
f 347/361/361 355/369/369 356/370/370 348/362/362
f 348/362/362 356/370/370 354/371/371 346/363/363
f 350/364/364 358/372/372 357/373/373 349/365/365
f 346/363/363 354/371/371 358/372/372 350/364/364
f 351/654/366 359/653/374 360/375/375 352/367/367
f 352/367/367 360/375/375 355/369/369 347/361/361
f 349/365/365 357/373/373 361/376/376 353/368/368
f 353/368/368 361/376/376 359/374/374 351/366/366
f 355/369/369 540/377/377 539/378/378 356/370/370
f 356/370/370 539/378/378 538/379/379 354/371/371
f 358/372/372 537/380/380 544/381/381 357/373/373
f 354/371/371 538/379/379 537/380/380 358/372/372
f 359/653/374 542/589/382 541/383/383 360/375/375
f 360/375/375 541/383/383 540/377/377 355/369/369
f 357/373/373 544/381/381 543/384/384 361/376/376
f 361/376/376 543/384/384 542/382/382 359/374/374
f 363/385/385 548/386/386 547/387/387 364/388/388
f 364/388/388 547/387/387 546/389/389 362/390/390
f 366/391/391 545/392/392 552/393/393 365/394/394
f 362/390/390 546/389/389 545/392/392 366/391/391
f 367/395/395 550/587/396 549/397/397 368/398/398
f 368/398/398 549/397/397 548/386/386 363/385/385
f 365/394/394 552/393/393 551/399/399 369/400/400
f 369/400/400 551/399/399 550/396/396 367/590/395
f 379/652/401 374/402/402 373/403/403 378/646/404
f 380/651/405 370/406/406 374/402/402 379/652/401
f 381/650/407 372/408/408 370/406/406 380/651/405
f 382/649/409 371/410/410 372/408/408 381/650/407
f 383/647/411 376/639/412 371/410/410 382/649/409
f 384/642/413 375/414/414 376/412/412 383/648/411
f 385/644/415 377/632/416 375/414/414 384/642/413
f 378/646/404 373/403/403 377/416/416 385/645/415
f 387/417/417 379/401/401 378/404/404 386/418/418
f 388/419/419 380/405/405 379/401/401 387/417/417
f 389/420/420 381/407/407 380/405/405 388/419/419
f 390/421/421 382/409/409 381/407/407 389/420/420
f 391/422/422 383/411/411 382/409/409 390/421/421
f 392/423/423 384/413/413 383/411/411 391/422/422
f 393/424/424 385/415/415 384/643/413 392/641/423
f 386/418/418 378/404/404 385/415/415 393/424/424
f 395/425/425 387/417/417 386/418/418 394/426/426
f 396/427/427 388/419/419 387/417/417 395/425/425
f 397/428/428 389/420/420 388/419/419 396/427/427
f 398/429/429 390/421/421 389/420/420 397/428/428
f 399/430/430 391/422/422 390/421/421 398/429/429
f 400/431/431 392/423/423 391/422/422 399/430/430
f 401/432/432 393/424/424 392/641/423 400/588/431
f 394/426/426 386/418/418 393/424/424 401/432/432
f 371/410/410 404/638/333 405/433/433 372/408/408
f 372/408/408 405/433/433 403/434/434 370/406/406
f 374/402/402 407/435/435 406/630/336 373/403/403
f 370/406/406 403/434/434 407/435/435 374/402/402
f 375/414/414 408/335/335 409/640/334 376/412/412
f 376/639/412 409/334/334 404/638/333 371/410/410
f 424/436/436 426/437/437 425/438/438 423/633/439
f 377/632/416 410/337/337 408/335/335 375/414/414
f 402/332/332 411/440/440 413/441/441 404/333/333
f 404/638/333 413/636/441 414/442/442 405/433/433
f 405/433/433 414/442/442 412/443/443 403/434/434
f 407/435/435 416/444/444 415/445/445 406/630/336
f 406/336/336 415/634/445 411/440/440 402/332/332
f 403/434/434 412/443/443 416/444/444 407/435/435
f 411/440/440 417/323/323 419/637/322 413/441/441
f 413/636/441 419/322/322 420/321/321 414/442/442
f 414/442/442 420/321/321 418/320/320 412/443/443
f 416/444/444 422/324/324 421/635/325 415/445/445
f 415/634/445 421/325/325 417/323/323 411/440/440
f 412/443/443 418/320/320 422/324/324 416/444/444
f 373/403/403 424/436/436 423/633/439 377/416/416
f 377/632/416 423/439/439 425/629/438 410/337/337
f 431/631/446 434/626/447 433/448/448 432/449/449
f 406/630/336 426/437/437 424/436/436 373/403/403
f 410/337/337 427/450/450 428/451/451 406/336/336
f 406/630/336 428/627/451 429/452/452 426/437/437
f 426/437/437 429/452/452 430/453/453 425/438/438
f 425/629/438 430/625/453 427/450/450 410/337/337
f 427/450/450 431/446/446 432/628/449 428/451/451
f 428/627/451 432/449/449 433/448/448 429/452/452
f 429/452/452 433/448/448 434/626/447 430/453/453
f 430/625/453 434/447/447 431/446/446 427/450/450
f 338/350/350 435/454/454 436/455/455 309/312/312
f 309/312/312 436/455/455 437/456/456 310/313/313
f 310/313/313 437/456/456 438/457/457 312/315/315
f 312/624/315 438/621/457 439/458/458 314/309/309
f 314/309/309 439/458/458 441/459/459 306/306/306
f 306/306/306 441/459/459 440/460/460 339/352/352
f 339/352/352 440/460/460 446/461/461 229/173/173 46/667/64
f 435/454/454 558/462/462 557/463/463 436/455/455
f 436/455/455 557/463/463 556/464/464 437/456/456
f 437/456/456 556/464/464 555/465/465 438/457/457
f 438/621/457 555/585/465 554/466/466 439/458/458
f 439/458/458 554/466/466 553/467/467 441/459/459
f 441/459/459 553/467/467 564/468/468 440/460/460
f 443/469/469 560/470/470 559/471/471 442/472/472
f 442/472/472 559/471/471 558/462/462 435/454/454
f 444/473/473 561/583/474 560/470/470 443/469/469
f 445/475/475 562/476/476 561/474/474 444/592/473
f 446/461/461 563/477/477 562/476/476 445/475/475
f 440/460/460 564/468/468 563/477/477 446/461/461
f 447/478/478 570/479/479 569/480/480 448/481/481
f 448/481/481 569/480/480 568/482/482 449/483/483
f 449/483/483 568/482/482 567/484/484 450/586/485
f 450/485/485 567/580/484 566/486/486 451/487/487
f 451/487/487 566/486/486 565/488/488 453/489/489
f 453/489/489 565/488/488 576/490/490 452/491/491
f 455/492/492 572/493/493 571/494/494 454/495/495
f 454/495/495 571/494/494 570/479/479 447/478/478
f 456/496/496 573/577/497 572/493/493 455/492/492
f 457/498/498 574/499/499 573/497/497 456/584/496
f 458/500/500 575/501/501 574/499/499 457/498/498
f 452/491/491 576/490/490 575/501/501 458/500/500
f 459/615/502 471/609/503 472/504/504 460/620/505
f 460/620/505 472/504/504 473/506/506 461/619/507
f 461/619/507 473/506/506 474/508/508 462/581/509
f 462/581/509 474/508/508 475/510/510 463/618/511
f 463/618/511 475/510/510 477/512/512 465/617/513
f 465/617/513 477/512/512 476/514/514 464/611/515
f 467/613/516 479/517/517 478/518/518 466/614/519
f 466/614/519 478/518/518 471/503/503 459/616/502
f 468/578/520 480/521/521 479/517/517 467/613/516
f 469/612/522 481/523/523 480/521/521 468/578/520
f 470/610/524 482/525/525 481/523/523 469/612/522
f 464/611/515 476/514/514 482/525/525 470/610/524
f 471/609/503 483/608/526 484/527/527 472/504/504
f 472/504/504 484/527/527 485/528/528 473/506/506
f 473/506/506 485/528/528 486/529/529 474/508/508
f 474/508/508 486/529/529 487/530/530 475/510/510
f 475/510/510 487/530/530 488/531/531 477/512/512
f 477/512/512 488/531/531 489/532/532 476/514/514
f 479/517/517 491/533/533 490/534/534 478/518/518
f 478/518/518 490/534/534 483/526/526 471/503/503
f 480/521/521 492/535/535 491/533/533 479/517/517
f 481/523/523 493/536/536 492/535/535 480/521/521
f 482/525/525 494/537/537 493/536/536 481/523/523
f 476/514/514 489/532/532 494/537/537 482/525/525
f 483/608/526 495/603/538 496/607/539 484/527/527
f 484/527/527 496/607/539 497/606/540 485/528/528
f 485/528/528 497/606/540 498/605/541 486/529/529
f 486/529/529 498/605/541 499/604/542 487/530/530
f 487/530/530 499/604/542 500/595/543 488/531/531
f 511/544/544 513/545/545 512/597/546 510/547/547
f 491/533/533 503/600/548 502/601/549 490/534/534
f 490/534/534 502/601/549 495/602/538 483/526/526
f 492/535/535 504/599/550 503/600/548 491/533/533
f 493/536/536 505/598/551 504/599/550 492/535/535
f 494/537/537 506/552/552 505/598/551 493/536/536
f 510/547/547 512/597/546 515/594/553 514/554/554
f 495/538/538 502/549/549 503/548/548 507/555/555
f 496/539/539 495/538/538 507/555/555 497/540/540
f 507/555/555 508/556/556 498/541/541 497/540/540
f 503/548/548 504/550/550 508/556/556 507/555/555
f 508/556/556 509/557/557 499/542/542 498/541/541
f 504/550/550 505/551/551 509/557/557 508/556/556
f 509/557/557 501/558/558 500/543/543 499/542/542
f 505/551/551 506/593/552 501/558/558 509/557/557
f 488/531/531 511/544/544 510/547/547 489/532/532
f 501/558/558 512/546/546 513/596/545 500/543/543
f 500/595/543 513/545/545 511/544/544 488/531/531
f 489/532/532 510/547/547 514/554/554 494/537/537
f 494/537/537 514/554/554 515/594/553 506/552/552
f 506/593/552 515/553/553 512/546/546 501/558/558
f 41/59/59 334/346/346 333/345/345 40/71/71
f 226/272/272 443/469/469 442/472/472 225/273/273
f 225/273/273 442/472/472 435/454/454 338/350/350 45/62/62
f 227/591/274 444/473/473 443/469/469 226/272/272
f 228/275/275 445/475/475 444/592/473 227/274/274
f 229/173/173 446/461/461 445/475/475 228/275/275
f 237/276/276 257/279/279 532/559/559 519/560/560
f 343/358/358 531/561/561 530/562/562 344/359/359
f 344/359/359 530/562/562 529/563/563 345/360/360
f 345/360/360 529/563/563 252/283/283 53/660/72
f 343/358/358 519/560/560 532/559/559 531/561/561
f 516/356/356 520/564/564 239/284/284 230/53/53
f 521/565/565 518/357/357 234/56/56 240/287/287
f 522/566/566 517/355/355 518/357/357 521/565/565
f 523/567/567 516/356/356 517/355/355 522/566/566
f 524/568/568 520/564/564 516/356/356 523/567/567
f 245/291/291 239/284/284 520/564/564 524/568/568
f 525/569/569 521/565/565 240/287/287 246/293/293
f 526/570/570 522/566/566 521/565/565 525/569/569
f 527/571/571 523/567/567 522/566/566 526/570/570
f 528/572/572 524/568/568 523/567/567 527/571/571
f 251/297/297 245/291/291 524/568/568 528/572/572
f 529/563/563 525/569/569 246/293/293 252/283/283
f 530/562/562 526/570/570 525/569/569 529/563/563
f 531/561/561 527/571/571 526/570/570 530/562/562
f 532/559/559 528/572/572 527/571/571 531/561/561
f 257/279/279 251/297/297 528/572/572 532/559/559
f 533/573/573 535/574/574 536/575/575 534/576/576
f 534/576/576 260/303/303 261/302/302 533/573/573
f 535/574/574 264/305/305 265/304/304 536/575/575
f 261/302/302 264/305/305 535/574/574 533/573/573
f 50/68/68 260/303/303 534/576/576 343/358/358
f 343/358/358 534/576/576 536/575/575 519/560/560
f 519/560/560 536/575/575 265/304/304 237/276/276
f 538/379/379 362/390/390 366/391/391 537/380/380
f 539/378/378 364/388/388 362/390/390 538/379/379
f 540/377/377 363/385/385 364/388/388 539/378/378
f 541/383/383 368/398/398 363/385/385 540/377/377
f 542/589/382 367/395/395 368/398/398 541/383/383
f 543/384/384 369/400/400 367/590/395 542/382/382
f 544/381/381 365/394/394 369/400/400 543/384/384
f 537/380/380 366/391/391 365/394/394 544/381/381
f 546/389/389 396/427/427 395/425/425 545/392/392
f 547/387/387 397/428/428 396/427/427 546/389/389
f 548/386/386 398/429/429 397/428/428 547/387/387
f 549/397/397 399/430/430 398/429/429 548/386/386
f 550/587/396 400/431/431 399/430/430 549/397/397
f 551/399/399 401/432/432 400/588/431 550/396/396
f 552/393/393 394/426/426 401/432/432 551/399/399
f 545/392/392 395/425/425 394/426/426 552/393/393
f 554/466/466 451/487/487 453/489/489 553/467/467
f 555/585/465 450/485/485 451/487/487 554/466/466
f 556/464/464 449/483/483 450/586/485 555/465/465
f 557/463/463 448/481/481 449/483/483 556/464/464
f 558/462/462 447/478/478 448/481/481 557/463/463
f 559/471/471 454/495/495 447/478/478 558/462/462
f 560/470/470 455/492/492 454/495/495 559/471/471
f 561/583/474 456/496/496 455/492/492 560/470/470
f 562/476/476 457/498/498 456/584/496 561/474/474
f 563/477/477 458/500/500 457/498/498 562/476/476
f 564/468/468 452/491/491 458/500/500 563/477/477
f 553/467/467 453/489/489 452/491/491 564/468/468
f 566/486/486 463/511/511 465/513/513 565/488/488
f 567/580/484 462/509/509 463/511/511 566/486/486
f 568/482/482 461/507/507 462/582/509 567/484/484
f 569/480/480 460/505/505 461/507/507 568/482/482
f 570/479/479 459/502/502 460/505/505 569/480/480
f 571/494/494 466/519/519 459/502/502 570/479/479
f 572/493/493 467/516/516 466/519/519 571/494/494
f 573/577/497 468/520/520 467/516/516 572/493/493
f 574/499/499 469/522/522 468/579/520 573/497/497
f 575/501/501 470/524/524 469/522/522 574/499/499
f 576/490/490 464/515/515 470/524/524 575/501/501
f 565/488/488 465/513/513 464/515/515 576/490/490
f 41/59/59 40/71/71 28/40/40 29/41/41
